﻿<?xml version="1.0"?>
<!-- Generator: Adobe Illustrator 10.0, SVG Export Plug-In . SVG Version: 3.0.0 Build 77)  -->
<!DOCTYPE svg PUBLIC "-//W3C//DTD SVG 1.0//EN" "http://www.w3.org/TR/2001/REC-SVG-20010904/DTD/svg10.dtd"[
	<!ENTITY ns_flows "http://ns.adobe.com/Flows/1.0/">
	<!ENTITY ns_svg "http://www.w3.org/2000/svg">
	<!ENTITY ns_xlink "http://www.w3.org/1999/xlink">
	<!ENTITY st0 "fill:none;stroke:#000000;stroke-linecap:round;stroke-linejoin:round;">
	<!ENTITY st1 "fill:none;stroke:#000000;stroke-width:0.6;stroke-linecap:round;stroke-linejoin:round;">
	<!ENTITY st2 "font-size:6px;">
	<!ENTITY st3 "font-family:'Arial';">
	<!ATTLIST svg
		ewd:ver CDATA #IMPLIED
		xmlns:ewd CDATA #FIXED "http://shcl.co.jp/ewd"
		xmlns:a CDATA #FIXED "http://ns.adobe.com/AdobeSVGViewerExtensions/3.0/">
	<!ATTLIST g
		ewd:pinNo CDATA #IMPLIED>
]>
<svg width="265.588" height="88.819" viewBox="0 0 265.588 88.819" style="overflow:visible;enable-background:new 0 0 265.588 88.819" xml:space="preserve" onload="call_execInitLoadProc_svg('connector')" ewd:ver="2.1.2.7" xmlns="&ns_svg;" xmlns:ewd="http://shcl.co.jp/ewd" xmlns:a="http://ns.adobe.com/AdobeSVGViewerExtensions/3.0/" xmlns:xlink="&ns_xlink;">
<script type="text/javascript" xlink:href="../../../../../system/js/ewd/fig/svgfig.js"/>
<g id="レイヤー_1">
	<path style="&st1;" d="M89.027,20.33c0-1.564-1.269-2.833-2.833-2.833"/>
	<path style="&st1;" d="M29.537,17.498c-1.564,0-2.833,1.268-2.833,2.833"/>
	<path style="&st0;" d="M140.727,19.764c-3.129,0-5.666,2.537-5.666,5.666"/>
	<path style="&st0;" d="M135.061,71.322c0,3.129,2.537,5.666,5.666,5.666"/>
	<path style="&st0;" d="M259.423,76.987c3.129,0,5.665-2.537,5.665-5.666"/>
	<path style="&st0;" d="M265.088,25.43c0-3.129-2.536-5.666-5.665-5.666"/>
	<path style="&st0;" d="M165.373,85.486c0,1.565,1.268,2.833,2.833,2.833"/>
	<path style="&st0;" d="M231.945,88.319c1.564,0,2.832-1.268,2.832-2.833"/>
	<path style="&st1;" d="M250.925,45.826c0-0.704-0.571-1.275-1.275-1.275"/>
	<path style="&st1;" d="M249.65,44.551c-0.704,0-1.274,0.571-1.274,1.275"/>
	<path style="&st1;" d="M248.375,45.826c0,0.704,0.57,1.274,1.274,1.274"/>
	<path style="&st1;" d="M249.65,47.101c0.704,0,1.275-0.57,1.275-1.274"/>
	<path style="&st1;" d="M250.605,45.826c0-0.527-0.428-0.955-0.955-0.955"/>
	<path style="&st1;" d="M249.65,44.871c-0.527,0-0.954,0.428-0.954,0.955"/>
	<path style="&st1;" d="M248.696,45.826c0,0.527,0.427,0.955,0.954,0.955"/>
	<path style="&st1;" d="M249.65,46.781c0.527,0,0.955-0.428,0.955-0.955"/>
	<path style="&st1;" d="M241.009,45.826c0-0.704-0.57-1.275-1.274-1.275"/>
	<path style="&st1;" d="M239.735,44.551c-0.704,0-1.275,0.571-1.275,1.275"/>
	<path style="&st1;" d="M238.459,45.826c0,0.704,0.571,1.274,1.275,1.274"/>
	<path style="&st1;" d="M239.735,47.101c0.704,0,1.274-0.57,1.274-1.274"/>
	<path style="&st1;" d="M240.689,45.826c0-0.527-0.427-0.955-0.954-0.955"/>
	<path style="&st1;" d="M239.735,44.871c-0.527,0-0.954,0.428-0.954,0.955"/>
	<path style="&st1;" d="M238.781,45.826c0,0.527,0.427,0.955,0.954,0.955"/>
	<path style="&st1;" d="M239.735,46.781c0.527,0,0.954-0.428,0.954-0.955"/>
	<path style="&st1;" d="M231.095,45.826c0-0.704-0.571-1.275-1.275-1.275"/>
	<path style="&st1;" d="M229.82,44.551c-0.704,0-1.275,0.571-1.275,1.275"/>
	<path style="&st1;" d="M228.545,45.826c0,0.704,0.571,1.274,1.275,1.274"/>
	<path style="&st1;" d="M229.82,47.101c0.704,0,1.275-0.57,1.275-1.274"/>
	<path style="&st1;" d="M230.774,45.826c0-0.527-0.427-0.955-0.955-0.955"/>
	<path style="&st1;" d="M229.82,44.871c-0.527,0-0.955,0.428-0.955,0.955"/>
	<path style="&st1;" d="M228.865,45.826c0,0.527,0.427,0.955,0.955,0.955"/>
	<path style="&st1;" d="M229.82,46.781c0.527,0,0.955-0.428,0.955-0.955"/>
	<path style="&st1;" d="M221.18,45.826c0-0.704-0.571-1.275-1.275-1.275"/>
	<path style="&st1;" d="M219.905,44.551c-0.704,0-1.274,0.571-1.274,1.275"/>
	<path style="&st1;" d="M218.63,45.826c0,0.704,0.57,1.274,1.274,1.274"/>
	<path style="&st1;" d="M219.905,47.101c0.704,0,1.275-0.57,1.275-1.274"/>
	<path style="&st1;" d="M220.86,45.826c0-0.527-0.428-0.955-0.955-0.955"/>
	<path style="&st1;" d="M219.905,44.871c-0.527,0-0.955,0.428-0.955,0.955"/>
	<path style="&st1;" d="M218.95,45.826c0,0.527,0.428,0.955,0.955,0.955"/>
	<path style="&st1;" d="M219.905,46.781c0.527,0,0.955-0.428,0.955-0.955"/>
	<path style="&st1;" d="M211.265,45.826c0-0.704-0.571-1.275-1.275-1.275"/>
	<path style="&st1;" d="M209.99,44.551c-0.704,0-1.274,0.571-1.274,1.275"/>
	<path style="&st1;" d="M208.715,45.826c0,0.704,0.571,1.274,1.274,1.274"/>
	<path style="&st1;" d="M209.99,47.101c0.704,0,1.275-0.57,1.275-1.274"/>
	<path style="&st1;" d="M210.945,45.826c0-0.527-0.428-0.955-0.955-0.955"/>
	<path style="&st1;" d="M209.99,44.871c-0.527,0-0.955,0.428-0.955,0.955"/>
	<path style="&st1;" d="M209.035,45.826c0,0.527,0.428,0.955,0.955,0.955"/>
	<path style="&st1;" d="M209.99,46.781c0.527,0,0.955-0.428,0.955-0.955"/>
	<path style="&st1;" d="M201.35,45.826c0-0.704-0.571-1.275-1.275-1.275"/>
	<path style="&st1;" d="M200.075,44.551c-0.704,0-1.274,0.571-1.274,1.275"/>
	<path style="&st1;" d="M198.8,45.826c0,0.704,0.571,1.274,1.274,1.274"/>
	<path style="&st1;" d="M200.075,47.101c0.704,0,1.275-0.57,1.275-1.274"/>
	<path style="&st1;" d="M201.03,45.826c0-0.527-0.428-0.955-0.955-0.955"/>
	<path style="&st1;" d="M200.075,44.871c-0.527,0-0.955,0.428-0.955,0.955"/>
	<path style="&st1;" d="M199.12,45.826c0,0.527,0.428,0.955,0.955,0.955"/>
	<path style="&st1;" d="M200.075,46.781c0.527,0,0.955-0.428,0.955-0.955"/>
	<path style="&st1;" d="M191.435,45.826c0-0.704-0.571-1.275-1.274-1.275"/>
	<path style="&st1;" d="M190.16,44.551c-0.704,0-1.275,0.571-1.275,1.275"/>
	<path style="&st1;" d="M188.885,45.826c0,0.704,0.571,1.274,1.275,1.274"/>
	<path style="&st1;" d="M190.16,47.101c0.704,0,1.274-0.57,1.274-1.274"/>
	<path style="&st1;" d="M191.115,45.826c0-0.527-0.428-0.955-0.955-0.955"/>
	<path style="&st1;" d="M190.16,44.871c-0.527,0-0.955,0.428-0.955,0.955"/>
	<path style="&st1;" d="M189.205,45.826c0,0.527,0.428,0.955,0.955,0.955"/>
	<path style="&st1;" d="M190.16,46.781c0.527,0,0.955-0.428,0.955-0.955"/>
	<path style="&st1;" d="M181.52,45.826c0-0.704-0.571-1.275-1.274-1.275"/>
	<path style="&st1;" d="M180.245,44.551c-0.704,0-1.275,0.571-1.275,1.275"/>
	<path style="&st1;" d="M178.97,45.826c0,0.704,0.571,1.274,1.275,1.274"/>
	<path style="&st1;" d="M180.245,47.101c0.704,0,1.274-0.57,1.274-1.274"/>
	<path style="&st1;" d="M181.2,45.826c0-0.527-0.428-0.955-0.955-0.955"/>
	<path style="&st1;" d="M180.245,44.871c-0.527,0-0.955,0.428-0.955,0.955"/>
	<path style="&st1;" d="M179.29,45.826c0,0.527,0.428,0.955,0.955,0.955"/>
	<path style="&st1;" d="M180.245,46.781c0.527,0,0.955-0.428,0.955-0.955"/>
	<path style="&st1;" d="M171.604,45.826c0-0.704-0.571-1.275-1.274-1.275"/>
	<path style="&st1;" d="M170.33,44.551c-0.704,0-1.275,0.571-1.275,1.275"/>
	<path style="&st1;" d="M169.055,45.826c0,0.704,0.571,1.274,1.275,1.274"/>
	<path style="&st1;" d="M170.33,47.101c0.704,0,1.274-0.57,1.274-1.274"/>
	<path style="&st1;" d="M171.285,45.826c0-0.527-0.428-0.955-0.955-0.955"/>
	<path style="&st1;" d="M170.33,44.871c-0.527,0-0.955,0.428-0.955,0.955"/>
	<path style="&st1;" d="M169.375,45.826c0,0.527,0.428,0.955,0.955,0.955"/>
	<path style="&st1;" d="M170.33,46.781c0.527,0,0.955-0.428,0.955-0.955"/>
	<path style="&st1;" d="M161.689,45.826c0-0.704-0.57-1.275-1.274-1.275"/>
	<path style="&st1;" d="M160.415,44.551c-0.704,0-1.275,0.571-1.275,1.275"/>
	<path style="&st1;" d="M159.14,45.826c0,0.704,0.571,1.274,1.275,1.274"/>
	<path style="&st1;" d="M160.415,47.101c0.704,0,1.274-0.57,1.274-1.274"/>
	<path style="&st1;" d="M161.37,45.826c0-0.527-0.428-0.955-0.955-0.955"/>
	<path style="&st1;" d="M160.415,44.871c-0.527,0-0.955,0.428-0.955,0.955"/>
	<path style="&st1;" d="M159.46,45.826c0,0.527,0.427,0.955,0.955,0.955"/>
	<path style="&st1;" d="M160.415,46.781c0.527,0,0.955-0.428,0.955-0.955"/>
	<path style="&st1;" d="M151.774,45.826c0-0.704-0.57-1.275-1.274-1.275"/>
	<path style="&st1;" d="M150.5,44.551c-0.704,0-1.275,0.571-1.275,1.275"/>
	<path style="&st1;" d="M149.225,45.826c0,0.704,0.571,1.274,1.275,1.274"/>
	<path style="&st1;" d="M150.5,47.101c0.704,0,1.274-0.57,1.274-1.274"/>
	<path style="&st1;" d="M151.455,45.826c0-0.527-0.427-0.955-0.955-0.955"/>
	<path style="&st1;" d="M150.5,44.871c-0.527,0-0.955,0.428-0.955,0.955"/>
	<path style="&st1;" d="M149.545,45.826c0,0.527,0.427,0.955,0.955,0.955"/>
	<path style="&st1;" d="M150.5,46.781c0.527,0,0.955-0.428,0.955-0.955"/>
	<path style="&st1;" d="M250.925,59.99c0-0.704-0.571-1.275-1.275-1.275"/>
	<path style="&st1;" d="M249.65,58.715c-0.704,0-1.274,0.571-1.274,1.275"/>
	<path style="&st1;" d="M248.375,59.99c0,0.704,0.57,1.275,1.274,1.275"/>
	<path style="&st1;" d="M249.65,61.265c0.704,0,1.275-0.571,1.275-1.275"/>
	<path style="&st1;" d="M250.605,59.99c0-0.527-0.428-0.955-0.955-0.955"/>
	<path style="&st1;" d="M249.65,59.036c-0.527,0-0.954,0.427-0.954,0.955"/>
	<path style="&st1;" d="M248.696,59.99c0,0.527,0.427,0.955,0.954,0.955"/>
	<path style="&st1;" d="M249.65,60.945c0.527,0,0.955-0.427,0.955-0.955"/>
	<path style="&st1;" d="M241.009,59.99c0-0.704-0.57-1.275-1.274-1.275"/>
	<path style="&st1;" d="M239.735,58.715c-0.704,0-1.275,0.571-1.275,1.275"/>
	<path style="&st1;" d="M238.459,59.99c0,0.704,0.571,1.275,1.275,1.275"/>
	<path style="&st1;" d="M239.735,61.265c0.704,0,1.274-0.571,1.274-1.275"/>
	<path style="&st1;" d="M240.689,59.99c0-0.527-0.427-0.955-0.954-0.955"/>
	<path style="&st1;" d="M239.735,59.036c-0.527,0-0.954,0.427-0.954,0.955"/>
	<path style="&st1;" d="M238.781,59.99c0,0.527,0.427,0.955,0.954,0.955"/>
	<path style="&st1;" d="M239.735,60.945c0.527,0,0.954-0.427,0.954-0.955"/>
	<path style="&st1;" d="M231.095,59.99c0-0.704-0.571-1.275-1.275-1.275"/>
	<path style="&st1;" d="M229.82,58.715c-0.704,0-1.275,0.571-1.275,1.275"/>
	<path style="&st1;" d="M228.545,59.99c0,0.704,0.571,1.275,1.275,1.275"/>
	<path style="&st1;" d="M229.82,61.265c0.704,0,1.275-0.571,1.275-1.275"/>
	<path style="&st1;" d="M230.774,59.99c0-0.527-0.427-0.955-0.955-0.955"/>
	<path style="&st1;" d="M229.82,59.036c-0.527,0-0.955,0.427-0.955,0.955"/>
	<path style="&st1;" d="M228.865,59.99c0,0.527,0.427,0.955,0.955,0.955"/>
	<path style="&st1;" d="M229.82,60.945c0.527,0,0.955-0.427,0.955-0.955"/>
	<path style="&st1;" d="M221.18,59.99c0-0.704-0.571-1.275-1.275-1.275"/>
	<path style="&st1;" d="M219.905,58.715c-0.704,0-1.274,0.571-1.274,1.275"/>
	<path style="&st1;" d="M218.63,59.99c0,0.704,0.57,1.275,1.274,1.275"/>
	<path style="&st1;" d="M219.905,61.265c0.704,0,1.275-0.571,1.275-1.275"/>
	<path style="&st1;" d="M220.86,59.99c0-0.527-0.428-0.955-0.955-0.955"/>
	<path style="&st1;" d="M219.905,59.036c-0.527,0-0.955,0.427-0.955,0.955"/>
	<path style="&st1;" d="M218.95,59.99c0,0.527,0.428,0.955,0.955,0.955"/>
	<path style="&st1;" d="M219.905,60.945c0.527,0,0.955-0.427,0.955-0.955"/>
	<path style="&st1;" d="M211.265,59.99c0-0.704-0.571-1.275-1.275-1.275"/>
	<path style="&st1;" d="M209.99,58.715c-0.704,0-1.274,0.571-1.274,1.275"/>
	<path style="&st1;" d="M208.715,59.99c0,0.704,0.571,1.275,1.274,1.275"/>
	<path style="&st1;" d="M209.99,61.265c0.704,0,1.275-0.571,1.275-1.275"/>
	<path style="&st1;" d="M210.945,59.99c0-0.527-0.428-0.955-0.955-0.955"/>
	<path style="&st1;" d="M209.99,59.036c-0.527,0-0.955,0.427-0.955,0.955"/>
	<path style="&st1;" d="M209.035,59.99c0,0.527,0.428,0.955,0.955,0.955"/>
	<path style="&st1;" d="M209.99,60.945c0.527,0,0.955-0.427,0.955-0.955"/>
	<path style="&st1;" d="M201.35,59.99c0-0.704-0.571-1.275-1.275-1.275"/>
	<path style="&st1;" d="M200.075,58.715c-0.704,0-1.274,0.571-1.274,1.275"/>
	<path style="&st1;" d="M198.8,59.99c0,0.704,0.571,1.275,1.274,1.275"/>
	<path style="&st1;" d="M200.075,61.265c0.704,0,1.275-0.571,1.275-1.275"/>
	<path style="&st1;" d="M201.03,59.99c0-0.527-0.428-0.955-0.955-0.955"/>
	<path style="&st1;" d="M200.075,59.036c-0.527,0-0.955,0.427-0.955,0.955"/>
	<path style="&st1;" d="M199.12,59.99c0,0.527,0.428,0.955,0.955,0.955"/>
	<path style="&st1;" d="M200.075,60.945c0.527,0,0.955-0.427,0.955-0.955"/>
	<path style="&st1;" d="M191.435,59.99c0-0.704-0.571-1.275-1.274-1.275"/>
	<path style="&st1;" d="M190.16,58.715c-0.704,0-1.275,0.571-1.275,1.275"/>
	<path style="&st1;" d="M188.885,59.99c0,0.704,0.571,1.275,1.275,1.275"/>
	<path style="&st1;" d="M190.16,61.265c0.704,0,1.274-0.571,1.274-1.275"/>
	<path style="&st1;" d="M191.115,59.99c0-0.527-0.428-0.955-0.955-0.955"/>
	<path style="&st1;" d="M190.16,59.036c-0.527,0-0.955,0.427-0.955,0.955"/>
	<path style="&st1;" d="M189.205,59.99c0,0.527,0.428,0.955,0.955,0.955"/>
	<path style="&st1;" d="M190.16,60.945c0.527,0,0.955-0.427,0.955-0.955"/>
	<path style="&st1;" d="M181.52,59.99c0-0.704-0.571-1.275-1.274-1.275"/>
	<path style="&st1;" d="M180.245,58.715c-0.704,0-1.275,0.571-1.275,1.275"/>
	<path style="&st1;" d="M178.97,59.99c0,0.704,0.571,1.275,1.275,1.275"/>
	<path style="&st1;" d="M180.245,61.265c0.704,0,1.274-0.571,1.274-1.275"/>
	<path style="&st1;" d="M181.2,59.99c0-0.527-0.428-0.955-0.955-0.955"/>
	<path style="&st1;" d="M180.245,59.036c-0.527,0-0.955,0.427-0.955,0.955"/>
	<path style="&st1;" d="M179.29,59.99c0,0.527,0.428,0.955,0.955,0.955"/>
	<path style="&st1;" d="M180.245,60.945c0.527,0,0.955-0.427,0.955-0.955"/>
	<path style="&st1;" d="M171.604,59.99c0-0.704-0.571-1.275-1.274-1.275"/>
	<path style="&st1;" d="M170.33,58.715c-0.704,0-1.275,0.571-1.275,1.275"/>
	<path style="&st1;" d="M169.055,59.99c0,0.704,0.571,1.275,1.275,1.275"/>
	<path style="&st1;" d="M170.33,61.265c0.704,0,1.274-0.571,1.274-1.275"/>
	<path style="&st1;" d="M171.285,59.99c0-0.527-0.428-0.955-0.955-0.955"/>
	<path style="&st1;" d="M170.33,59.036c-0.527,0-0.955,0.427-0.955,0.955"/>
	<path style="&st1;" d="M169.375,59.99c0,0.527,0.428,0.955,0.955,0.955"/>
	<path style="&st1;" d="M170.33,60.945c0.527,0,0.955-0.427,0.955-0.955"/>
	<path style="&st1;" d="M161.689,59.99c0-0.704-0.57-1.275-1.274-1.275"/>
	<path style="&st1;" d="M160.415,58.715c-0.704,0-1.275,0.571-1.275,1.275"/>
	<path style="&st1;" d="M159.14,59.99c0,0.704,0.571,1.275,1.275,1.275"/>
	<path style="&st1;" d="M160.415,61.265c0.704,0,1.274-0.571,1.274-1.275"/>
	<path style="&st1;" d="M161.37,59.99c0-0.527-0.428-0.955-0.955-0.955"/>
	<path style="&st1;" d="M160.415,59.036c-0.527,0-0.955,0.427-0.955,0.955"/>
	<path style="&st1;" d="M159.46,59.99c0,0.527,0.427,0.955,0.955,0.955"/>
	<path style="&st1;" d="M160.415,60.945c0.527,0,0.955-0.427,0.955-0.955"/>
	<path style="&st1;" d="M151.774,59.99c0-0.704-0.57-1.275-1.274-1.275"/>
	<path style="&st1;" d="M150.5,58.715c-0.704,0-1.275,0.571-1.275,1.275"/>
	<path style="&st1;" d="M149.225,59.99c0,0.704,0.571,1.275,1.275,1.275"/>
	<path style="&st1;" d="M150.5,61.265c0.704,0,1.274-0.571,1.274-1.275"/>
	<path style="&st1;" d="M151.455,59.99c0-0.527-0.427-0.955-0.955-0.955"/>
	<path style="&st1;" d="M150.5,59.036c-0.527,0-0.955,0.427-0.955,0.955"/>
	<path style="&st1;" d="M149.545,59.99c0,0.527,0.427,0.955,0.955,0.955"/>
	<path style="&st1;" d="M150.5,60.945c0.527,0,0.955-0.427,0.955-0.955"/>
	<path style="&st1;" d="M13.248,38.744v28.329"/>
	<path style="&st1;" d="M23.163,38.744v28.329"/>
	<path style="&st1;" d="M62.115,30.245h-4.25"/>
	<path style="&st1;" d="M33.078,38.744v28.329"/>
	<path style="&st1;" d="M42.993,38.744v28.329"/>
	<path style="&st1;" d="M52.908,38.744v28.329"/>
	<path style="&st1;" d="M62.823,38.744v28.329"/>
	<path style="&st1;" d="M72.738,38.744v28.329"/>
	<path style="&st1;" d="M82.653,38.744v28.329"/>
	<path style="&st1;" d="M92.568,38.744v28.329"/>
	<path style="&st1;" d="M102.483,38.744v28.329"/>
	<path style="&st1;" d="M3.333,52.908h109.065"/>
	<path style="&st1;" d="M87.752,74.155v-5.666"/>
	<path style="&st1;" d="M115.231,27.413h-7.791v9.915"/>
	<path style="&st1;" d="M101.917,74.155v-5.666"/>
	<path style="&st1;" d="M110.415,74.155v-5.666"/>
	<path style="&st1;" d="M41.435,24.58h16.431"/>
	<path style="&st1;" d="M41.435,38.744V24.58"/>
	<path style="&st0;" d="M115.231,27.413l-26.204-9.915"/>
	<path style="&st1;" d="M89.027,30.245V20.33"/>
	<path style="&st0;" d="M112.398,68.489v5.666H57.865"/>
	<path style="&st0;" d="M89.027,17.498H57.865"/>
	<path style="&st1;" d="M39.452,21.747v15.581"/>
	<path style="&st0;" d="M0.5,27.413v41.076"/>
	<path style="&st0;" d="M115.231,27.413v41.076"/>
	<path style="&st1;" d="M3.333,68.489h109.065"/>
	<path style="&st1;" d="M29.537,37.327h11.898"/>
	<path style="&st1;" d="M86.194,38.744H29.537"/>
	<path style="&st0;" d="M112.398,68.489h2.833"/>
	<path style="&st1;" d="M29.537,30.245l8.499-8.499h19.83"/>
	<path style="&st1;" d="M3.333,38.744v28.329h109.065V38.744H89.027"/>
	<path style="&st0;" d="M0.5,68.489h2.833"/>
	<path style="&st1;" d="M26.704,38.744v-8.499h2.833v8.499"/>
	<path style="&st1;" d="M0.5,37.327h26.204"/>
	<path style="&st1;" d="M26.704,38.744H3.333"/>
	<path style="&st1;" d="M41.435,27.413h16.431"/>
	<path style="&st1;" d="M45.684,27.413V24.58"/>
	<path style="&st1;" d="M74.296,24.58H57.865"/>
	<path style="&st1;" d="M74.296,38.744V24.58"/>
	<path style="&st1;" d="M13.814,71.322h14.164"/>
	<path style="&st1;" d="M76.279,21.747v15.581"/>
	<path style="&st1;" d="M86.194,37.327H74.296"/>
	<path style="&st1;" d="M53.616,27.413v5.666h4.249"/>
	<path style="&st1;" d="M53.616,30.245h4.249"/>
	<path style="&st1;" d="M89.027,38.744v-8.499h-2.833v8.499"/>
	<path style="&st1;" d="M27.979,74.155v-5.666"/>
	<path style="&st1;" d="M86.194,30.245l-8.499-8.499h-19.83"/>
	<path style="&st1;" d="M0.5,27.413h7.791v9.915"/>
	<path style="&st1;" d="M13.814,74.155v-5.666"/>
	<path style="&st1;" d="M5.316,74.155v-5.666"/>
	<path style="&st1;" d="M62.115,27.413v5.666h-4.25"/>
	<path style="&st1;" d="M74.296,27.413H57.865"/>
	<path style="&st1;" d="M101.917,71.322H87.752"/>
	<path style="&st0;" d="M0.5,27.413l26.204-9.915"/>
	<path style="&st1;" d="M70.046,27.413V24.58"/>
	<path style="&st1;" d="M26.704,30.245V20.33"/>
	<path style="&st0;" d="M3.333,68.489v5.666h54.533"/>
	<path style="&st0;" d="M26.704,17.498h31.161"/>
	<path style="&st1;" d="M115.231,37.327H89.027"/>
	<path style="&st1;" d="M217.78,30.954h-17.706"/>
	<path style="&st1;" d="M259.423,71.322h-59.349"/>
	<path style="&st1;" d="M140.727,71.322V24.58"/>
	<path style="&st1;" d="M259.423,40.16h-2.833v31.162"/>
	<path style="&st1;" d="M140.727,76.987h59.348"/>
	<path style="&st1;" d="M140.727,71.322h59.348"/>
	<path style="&st0;" d="M135.061,25.43v45.892"/>
	<path style="&st1;" d="M226.279,27.413l-5.666-5.666"/>
	<path style="&st1;" d="M220.613,21.747h-20.539"/>
	<path style="&st1;" d="M140.727,40.16h2.833v31.162"/>
	<path style="&st1;" d="M226.279,35.911h-8.499v-9.916h-17.706"/>
	<path style="&st1;" d="M259.423,76.987h-59.349"/>
	<path style="&st1;" d="M145.542,38.744v28.329h109.065V38.744H145.542"/>
	<path style="&st1;" d="M259.423,71.322V24.58"/>
	<path style="&st1;" d="M165.373,38.744v28.329"/>
	<path style="&st1;" d="M145.542,52.908h109.065"/>
	<path style="&st1;" d="M175.288,38.744v28.329"/>
	<path style="&st1;" d="M185.203,38.744v28.329"/>
	<path style="&st1;" d="M195.117,38.744v28.329"/>
	<path style="&st1;" d="M205.032,38.744v28.329"/>
	<path style="&st1;" d="M214.947,38.744v28.329"/>
	<path style="&st1;" d="M224.862,38.744v28.329"/>
	<path style="&st1;" d="M234.777,38.744v28.329"/>
	<path style="&st1;" d="M178.687,28.262l-2.833,2.833v2.833h4.533v-5.666H178.687"/>
	<path style="&st0;" d="M265.088,25.43v45.892"/>
	<path style="&st1;" d="M140.727,24.58h11.19v11.332"/>
	<path style="&st0;" d="M200.075,19.764h-59.348"/>
	<path style="&st1;" d="M221.463,28.262l2.833,2.833v2.833h-4.533v-5.666H221.463"/>
	<path style="&st1;" d="M248.234,35.911h-14.873V19.764"/>
	<path style="&st1;" d="M182.37,30.954h17.705"/>
	<path style="&st1;" d="M151.917,35.911h14.872V19.764"/>
	<path style="&st1;" d="M259.423,24.58h-11.189v11.332"/>
	<path style="&st1;" d="M166.789,25.996h7.083v9.916"/>
	<path style="&st1;" d="M182.37,27.979h13.456v2.975"/>
	<path style="&st1;" d="M233.361,25.996h-7.082v9.916"/>
	<path style="&st1;" d="M173.871,27.413l5.666-5.666"/>
	<path style="&st1;" d="M179.537,21.747h20.538"/>
	<path style="&st1;" d="M217.78,27.979h-13.456v2.975"/>
	<path style="&st1;" d="M173.871,35.911h8.499v-9.916h17.705"/>
	<path style="&st0;" d="M200.075,19.764h59.349"/>
	<path style="&st0;" d="M140.727,76.987v2.833h24.646"/>
	<path style="&st1;" d="M165.373,76.987v2.833"/>
	<path style="&st1;" d="M234.777,76.987v2.833"/>
	<path style="&st0;" d="M168.205,88.319h31.87"/>
	<path style="&st1;" d="M175.288,88.319v-7.082h17.139"/>
	<path style="&st0;" d="M165.373,79.82v5.666"/>
	<path style="&st0;" d="M234.777,79.82v5.666"/>
	<path style="&st1;" d="M193.843,79.82v-2.833"/>
	<path style="&st1;" d="M200.075,86.619h2.833v-3.966"/>
	<path style="&st1;" d="M202.908,84.636h-2.833"/>
	<path style="&st1;" d="M224.862,82.653h-19.972"/>
	<path style="&st1;" d="M200.075,78.404h4.816v4.25h-4.816"/>
	<path style="&st1;" d="M200.075,78.404h-4.816v4.25h4.816"/>
	<path style="&st1;" d="M206.307,79.82v-2.833"/>
	<path style="&st1;" d="M175.288,82.653h19.971"/>
	<path style="&st1;" d="M224.862,88.319v-7.082h-17.139"/>
	<path style="&st1;" d="M197.242,84.636h2.833"/>
	<path style="&st0;" d="M231.945,88.319h-31.87"/>
	<path style="&st0;" d="M259.423,76.987v2.833h-24.646"/>
	<path style="&st1;" d="M200.075,86.619h-2.833v-3.966"/>
	<path style="&st1;" d="M244.693,38.744v28.329"/>
	<path style="&st1;" d="M254.608,79.82v-2.833"/>
	<path style="&st1;" d="M145.542,79.82v-2.833"/>
	<path style="&st1;" d="M206.307,79.82l1.417,1.417"/>
	<path style="&st1;" d="M192.426,81.237l1.417-1.417"/>
	<path style="&st1;" d="M153.899,25.43v8.498h10.906V25.43H153.899"/>
	<path style="&st1;" d="M235.344,25.43v8.498h10.906V25.43H235.344"/>
	<path style="&st1;" d="M155.458,38.744v28.329"/>
	<path style="&st0;" d="M57.865,8.999V0.5h142.209v8.499"/>
	<path style="&st1;" d="M249.327,46.724v-1.796h0.646v1.796"/>
	<path style="&st1;" d="M239.413,46.724v-1.796h0.646v1.796"/>
	<path style="&st1;" d="M229.497,46.724v-1.796h0.646v1.796"/>
	<path style="&st1;" d="M219.582,46.724v-1.796h0.646v1.796"/>
	<path style="&st1;" d="M209.667,46.724v-1.796h0.646v1.796"/>
	<path style="&st1;" d="M199.752,46.724v-1.796h0.646v1.796"/>
	<path style="&st1;" d="M189.837,46.724v-1.796h0.646v1.796"/>
	<path style="&st1;" d="M179.922,46.724v-1.796h0.646v1.796"/>
	<path style="&st1;" d="M170.007,46.724v-1.796h0.646v1.796"/>
	<path style="&st1;" d="M160.092,46.724v-1.796h0.646v1.796"/>
	<path style="&st1;" d="M150.177,46.724v-1.796h0.646v1.796"/>
	<path style="&st1;" d="M249.327,60.888v-1.796h0.646v1.796"/>
	<path style="&st1;" d="M239.413,60.888v-1.796h0.646v1.796"/>
	<path style="&st1;" d="M229.497,60.888v-1.796h0.646v1.796"/>
	<path style="&st1;" d="M219.582,60.888v-1.796h0.646v1.796"/>
	<path style="&st1;" d="M209.667,60.888v-1.796h0.646v1.796"/>
	<path style="&st1;" d="M199.752,60.888v-1.796h0.646v1.796"/>
	<path style="&st1;" d="M189.837,60.888v-1.796h0.646v1.796"/>
	<path style="&st1;" d="M179.922,60.888v-1.796h0.646v1.796"/>
	<path style="&st1;" d="M170.007,60.888v-1.796h0.646v1.796"/>
	<path style="&st1;" d="M160.092,60.888v-1.796h0.646v1.796"/>
	<path style="&st1;" d="M150.177,60.888v-1.796h0.646v1.796"/>
	<path style="&st1;" d="M249.65,45.826l-19.858,0.076"/>
	<path style="&st1;" d="M219.905,45.826h-19.83"/>
	<path style="&st1;" d="M190.16,45.826H150.5"/>
	<path style="&st1;" d="M249.65,59.99h-29.745"/>
	<path style="&st1;" d="M209.99,59.99H150.5"/>
	<g ewd:pinNo="11">
		<text transform="matrix(1 0 0 1 104.0669 48.1553)"><tspan x="0" y="0" style="&st3; &st2;">11</tspan></text>
	</g>
	<g ewd:pinNo="22">
		<text transform="matrix(1 0 0 1 104.1113 62.3193)"><tspan x="0" y="0" style="&st3; &st2;">22</tspan></text>
	</g>
	<g ewd:pinNo="21">
		<text transform="matrix(1 0 0 1 94.1963 62.3193)"><tspan x="0" y="0" style="&st3; &st2;">21</tspan></text>
	</g>
	<g ewd:pinNo="10">
		<text transform="matrix(1 0 0 1 93.9292 48.1553)"><tspan x="0" y="0" style="&st3; &st2;">10</tspan></text>
	</g>
	<g ewd:pinNo="9">
		<text transform="matrix(1 0 0 1 86.1089 48.1553)"><tspan x="0" y="0" style="&st3; &st2;">9</tspan></text>
	</g>
	<g ewd:pinNo="20">
		<text transform="matrix(1 0 0 1 84.2813 62.3193)"><tspan x="0" y="0" style="&st3; &st2;">20</tspan></text>
	</g>
	<g ewd:pinNo="19">
		<text transform="matrix(1 0 0 1 74.0991 62.3193)"><tspan x="0" y="0" style="&st3; &st2;">19</tspan></text>
	</g>
	<g ewd:pinNo="8">
		<text transform="matrix(1 0 0 1 76.1938 48.1553)"><tspan x="0" y="0" style="&st3; &st2;">8</tspan></text>
	</g>
	<g ewd:pinNo="7">
		<text transform="matrix(1 0 0 1 66.2788 48.1553)"><tspan x="0" y="0" style="&st3; &st2;">7</tspan></text>
	</g>
	<g ewd:pinNo="18">
		<text transform="matrix(1 0 0 1 64.1841 62.3193)"><tspan x="0" y="0" style="&st3; &st2;">18</tspan></text>
	</g>
	<g ewd:pinNo="17">
		<text transform="matrix(1 0 0 1 54.2695 62.3193)"><tspan x="0" y="0" style="&st3; &st2;">17</tspan></text>
	</g>
	<g ewd:pinNo="6">
		<text transform="matrix(1 0 0 1 56.3638 48.1553)"><tspan x="0" y="0" style="&st3; &st2;">6</tspan></text>
	</g>
	<g ewd:pinNo="5">
		<text transform="matrix(1 0 0 1 46.4487 48.1553)"><tspan x="0" y="0" style="&st3; &st2;">5</tspan></text>
	</g>
	<g ewd:pinNo="16">
		<text transform="matrix(1 0 0 1 44.3545 62.3193)"><tspan x="0" y="0" style="&st3; &st2;">16</tspan></text>
	</g>
	<g ewd:pinNo="15">
		<text transform="matrix(1 0 0 1 34.4395 62.3193)"><tspan x="0" y="0" style="&st3; &st2;">15</tspan></text>
	</g>
	<g ewd:pinNo="4">
		<text transform="matrix(1 0 0 1 36.5337 48.1553)"><tspan x="0" y="0" style="&st3; &st2;">4</tspan></text>
	</g>
	<g ewd:pinNo="3">
		<text transform="matrix(1 0 0 1 26.6187 48.1553)"><tspan x="0" y="0" style="&st3; &st2;">3</tspan></text>
	</g>
	<g ewd:pinNo="14">
		<text transform="matrix(1 0 0 1 24.5244 62.3193)"><tspan x="0" y="0" style="&st3; &st2;">14</tspan></text>
	</g>
	<g ewd:pinNo="13">
		<text transform="matrix(1 0 0 1 14.6094 62.3193)"><tspan x="0" y="0" style="&st3; &st2;">13</tspan></text>
	</g>
	<g ewd:pinNo="1">
		<text transform="matrix(1 0 0 1 6.7886 48.1553)"><tspan x="0" y="0" style="&st3; &st2;">1</tspan></text>
	</g>
	<g ewd:pinNo="2">
		<text transform="matrix(1 0 0 1 16.7036 48.1553)"><tspan x="0" y="0" style="&st3; &st2;">2</tspan></text>
	</g>
	<g ewd:pinNo="12">
		<text transform="matrix(1 0 0 1 4.6938 62.3193)"><tspan x="0" y="0" style="&st3; &st2;">12</tspan></text>
	</g>
</g>
</svg>