﻿<?xml version="1.0"?>
<!-- Generator: Adobe Illustrator 10.0, SVG Export Plug-In . SVG Version: 3.0.0 Build 77)  -->
<!DOCTYPE svg PUBLIC "-//W3C//DTD SVG 1.0//EN" "http://www.w3.org/TR/2001/REC-SVG-20010904/DTD/svg10.dtd"[
	<!ENTITY ns_flows "http://ns.adobe.com/Flows/1.0/">
	<!ENTITY ns_svg "http://www.w3.org/2000/svg">
	<!ENTITY ns_xlink "http://www.w3.org/1999/xlink">
	<!ENTITY st0 "fill:none;stroke:#000000;stroke-linecap:round;stroke-linejoin:round;">
	<!ENTITY st1 "fill:none;stroke:#000000;stroke-width:0.6;stroke-linecap:round;stroke-linejoin:round;">
	<!ENTITY st2 "font-size:6px;">
	<!ENTITY st3 "font-family:'Arial';">
	<!ATTLIST svg
		ewd:ver CDATA #IMPLIED
		xmlns:ewd CDATA #FIXED "http://shcl.co.jp/ewd"
		xmlns:a CDATA #FIXED "http://ns.adobe.com/AdobeSVGViewerExtensions/3.0/">
	<!ATTLIST g
		ewd:pinNo CDATA #IMPLIED>
]>
<svg width="56.368" height="37.827" viewBox="0 0 56.368 37.827" style="overflow:visible;enable-background:new 0 0 56.368 37.827" xml:space="preserve" onload="call_execInitLoadProc_svg('connector')" ewd:ver="2.1.2.7" xmlns="&ns_svg;" xmlns:ewd="http://shcl.co.jp/ewd" xmlns:a="http://ns.adobe.com/AdobeSVGViewerExtensions/3.0/" xmlns:xlink="&ns_xlink;">
<script type="text/javascript" xlink:href="../../../../../system/js/ewd/fig/svgfig.js"/>
<g id="レイヤー_1">
	<path style="&st1;" d="M18.123,11.662c-0.875,3.534-0.875,6.721,0,10.255"/>
	<path style="&st1;" d="M48.033,21.917c0.875-3.534,0.875-6.721,0-10.255"/>
	<path style="&st1;" d="M5.316,22.455c0,0.782,0.634,1.416,1.417,1.416"/>
	<path style="&st1;" d="M6.732,9.707c-0.783,0-1.417,0.634-1.417,1.417"/>
	<path style="&st1;" d="M3.333,22.455c0,1.564,1.269,2.833,2.833,2.833"/>
	<path style="&st1;" d="M6.166,8.291c-1.564,0-2.833,1.268-2.833,2.833"/>
	<path style="&st1;" d="M17.497,15.089c0-0.782-0.634-1.417-1.417-1.417"/>
	<path style="&st1;" d="M16.081,19.905c0.782,0,1.417-0.634,1.417-1.417"/>
	<path style="&st0;" d="M46.486,35.911c2.313,0,4.274-1.287,5.196-3.408"/>
	<path style="&st0;" d="M0.5,23.211c0,4.131,2.851,7.576,6.91,8.349"/>
	<path style="&st0;" d="M46.585,0.732c-0.552,0-1.021,0.291-1.268,0.784"/>
	<path style="&st0;" d="M20.82,1.48c-0.196-0.392-0.522-0.648-0.949-0.746"/>
	<path style="&st0;" d="M19.871,0.732c-0.211-0.048-0.4-0.05-0.612-0.005"/>
	<path style="&st0;" d="M46.928,0.775c-0.118-0.029-0.221-0.042-0.343-0.042"/>
	<path style="&st1;" d="M40.933,5.282c-5.49-0.75-10.221-0.75-15.711,0"/>
	<path style="&st1;" d="M25.222,28.296c5.49,0.75,10.221,0.75,15.711,0"/>
	<path style="&st1;" d="M25.222,5.282c-3.531,0.482-6.245,2.92-7.101,6.379"/>
	<path style="&st1;" d="M18.123,21.917c0.856,3.458,3.569,5.896,7.1,6.378"/>
	<path style="&st1;" d="M40.933,28.296c3.531-0.482,6.245-2.92,7.101-6.379"/>
	<path style="&st1;" d="M48.033,11.662c-0.856-3.458-3.57-5.896-7.1-6.377"/>
	<path style="&st1;" d="M50.783,22.6c0.992-4.005,0.992-7.616,0-11.621"/>
	<path style="&st1;" d="M24.84,31.101c5.757,0.786,10.719,0.786,16.476,0"/>
	<path style="&st1;" d="M41.316,31.101c2.792-0.381,5.053-1.585,6.928-3.689"/>
	<path style="&st1;" d="M16.417,25.288c1.784,3.28,4.724,5.309,8.422,5.814"/>
	<path style="&st0;" d="M41.316,2.478c-5.757-0.786-10.719-0.786-16.476,0"/>
	<path style="&st1;" d="M50.783,10.979c-0.871-3.514-3.079-6.15-6.385-7.625"/>
	<path style="&st0;" d="M24.84,2.478c-1.12,0.153-2.05,0.417-3.082,0.878"/>
	<path style="&st1;" d="M21.758,3.355c-2.377,1.06-4.096,2.649-5.339,4.936"/>
	<path style="&st0;" d="M44.398,3.355c-1.033-0.46-1.962-0.725-3.082-0.878"/>
	<path style="&st1;" d="M50.092,24.58c0.307-0.672,0.513-1.264,0.691-1.98"/>
	<path style="&st1;" d="M6.166,25.288h10.252"/>
	<path style="&st1;" d="M6.166,8.291h10.207"/>
	<path style="&st1;" d="M3.333,11.124v11.332"/>
	<path style="&st1;" d="M23.163,10.416v12.748h19.83V10.416H23.163"/>
	<path style="&st1;" d="M33.078,10.416v12.748"/>
	<path style="&st1;" d="M50.203,24.58h2.833v2.833h-4.79"/>
	<path style="&st1;" d="M5.316,11.124v11.332"/>
	<path style="&st1;" d="M6.732,9.707h9.64"/>
	<path style="&st1;" d="M20.33,7.727v18.125"/>
	<path style="&st1;" d="M6.732,23.871h9.476"/>
	<path style="&st1;" d="M45.826,7.727v18.125"/>
	<path style="&st1;" d="M10.843,21.888v1.983"/>
	<path style="&st0;" d="M7.409,31.563l22.836,4.349"/>
	<path style="&st0;" d="M30.245,35.911v1.416h5.666v-1.416"/>
	<path style="&st1;" d="M31.662,31.645v1.434h2.833v-1.434"/>
	<path style="&st1;" d="M14.956,9.707v14.164"/>
	<path style="&st1;" d="M5.316,11.69h11.057V9.707"/>
	<path style="&st1;" d="M5.316,21.888h10.892v1.983"/>
	<path style="&st0;" d="M0.5,3.333v19.878"/>
	<path style="&st1;" d="M14.956,13.673h1.125"/>
	<path style="&st1;" d="M17.497,15.089v3.399"/>
	<path style="&st1;" d="M14.956,19.905h1.125"/>
	<path style="&st1;" d="M10.843,9.707v1.983"/>
	<path style="&st0;" d="M53.035,29.396l-1.354,3.107"/>
	<path style="&st0;" d="M53.035,29.396l2.833-1.417"/>
	<path style="&st0;" d="M35.911,35.911h10.575"/>
	<path style="&st0;" d="M21.747,3.333L20.82,1.48"/>
	<path style="&st0;" d="M19.259,0.729l-5.584,1.187L12.259,0.5H9.426v2.833H0.5"/>
	<path style="&st0;" d="M46.928,0.775l4.563,2.558h1.544V0.5h2.833v27.479"/>
	<path style="&st0;" d="M45.319,1.517l-0.91,1.816"/>
	<g ewd:pinNo="1">
		<text transform="matrix(1 0 0 1 26.3994 18.9404)"><tspan x="0" y="0" style="&st3; &st2;">1</tspan></text>
	</g>
	<g ewd:pinNo="2">
		<text transform="matrix(1 0 0 1 36.3145 18.9404)"><tspan x="0" y="0" style="&st3; &st2;">2</tspan></text>
	</g>
</g>
</svg>