﻿<?xml version="1.0"?>
<!-- Generator: Adobe Illustrator 10.0, SVG Export Plug-In . SVG Version: 3.0.0 Build 77)  -->
<!DOCTYPE svg PUBLIC "-//W3C//DTD SVG 1.0//EN" "http://www.w3.org/TR/2001/REC-SVG-20010904/DTD/svg10.dtd"[
	<!ENTITY ns_flows "http://ns.adobe.com/Flows/1.0/">
	<!ENTITY ns_svg "http://www.w3.org/2000/svg">
	<!ENTITY ns_xlink "http://www.w3.org/1999/xlink">
	<!ENTITY st0 "fill:none;stroke:#000000;stroke-linecap:round;stroke-linejoin:round;">
	<!ENTITY st1 "fill:none;stroke:#000000;stroke-width:0.6;stroke-linecap:round;stroke-linejoin:round;">
	<!ENTITY st2 "font-size:6px;">
	<!ENTITY st3 "font-family:'Arial';">
	<!ATTLIST svg
		ewd:ver CDATA #IMPLIED
		xmlns:ewd CDATA #FIXED "http://shcl.co.jp/ewd"
		xmlns:a CDATA #FIXED "http://ns.adobe.com/AdobeSVGViewerExtensions/3.0/">
	<!ATTLIST g
		ewd:pinNo CDATA #IMPLIED>
]>
<svg width="25.868" height="28.484" viewBox="0 0 25.868 28.484" style="overflow:visible;enable-background:new 0 0 25.868 28.484" xml:space="preserve" onload="call_execInitLoadProc_svg('connector')" ewd:ver="2.1.2.7" xmlns="&ns_svg;" xmlns:ewd="http://shcl.co.jp/ewd" xmlns:a="http://ns.adobe.com/AdobeSVGViewerExtensions/3.0/" xmlns:xlink="&ns_xlink;">
<script type="text/javascript" xlink:href="../../../../../system/js/ewd/fig/svgfig.js"/>
<g id="レイヤー_1">
	<path style="&st0;" d="M12.934,26.021H7.699"/>
	<path style="&st1;" d="M14.243,24.712H9.008"/>
	<path style="&st1;" d="M18.169,22.75H7.699"/>
	<path style="&st1;" d="M12.934,22.75v-1.963"/>
	<path style="&st0;" d="M16.207,27.984h-1.309"/>
	<path style="&st1;" d="M14.243,12.934v6.544"/>
	<path style="&st1;" d="M11.625,12.928v6.549"/>
	<path style="&st1;" d="M3.118,18.169v-3.938"/>
	<path style="&st1;" d="M1.81,17.166v-1.943"/>
	<path style="&st0;" d="M0.501,18.823v-5.337"/>
	<path style="&st1;" d="M22.75,18.169v-3.927"/>
	<path style="&st1;" d="M24.059,17.166v-1.921"/>
	<path style="&st0;" d="M25.368,18.823v-5.235"/>
	<path style="&st1;" d="M19.478,5.081v2.617"/>
	<path style="&st1;" d="M18.169,4.427v3.926"/>
	<path style="&st1;" d="M18.169,9.662H7.699"/>
	<path style="&st1;" d="M12.934,11.625V9.662"/>
	<path style="&st1;" d="M6.391,5.081v2.617"/>
	<path style="&st1;" d="M7.699,4.427v3.926"/>
	<path style="&st0;" d="M3.118,6.787V8.69"/>
	<path style="&st0;" d="M6.269,1.665L3.337,6.061"/>
	<path style="&st1;" d="M16.207,1.809H9.663"/>
	<path style="&st0;" d="M17.498,0.5H8.444"/>
	<path style="&st0;" d="M19.6,1.665l2.929,4.396"/>
	<path style="&st0;" d="M22.75,6.787V8.69"/>
	<path style="&st0;" d="M3.337,6.061c-0.15,0.225-0.22,0.455-0.22,0.726"/>
	<path style="&st0;" d="M8.444,0.5c-0.904,0-1.675,0.412-2.177,1.164"/>
	<path style="&st0;" d="M3.118,8.69C1.428,9.82,0.5,11.555,0.5,13.588"/>
	<path style="&st1;" d="M6.391,7.698C3.496,9.205,1.81,11.982,1.81,15.245"/>
	<path style="&st1;" d="M9.663,1.809c-1.808,0-3.272,1.465-3.272,3.272"/>
	<path style="&st1;" d="M6.391,7.698c0.543,0.723,1.569,0.869,2.292,0.326"/>
	<path style="&st1;" d="M8.682,8.024c0.13-0.098,0.229-0.196,0.326-0.326"/>
	<path style="&st1;" d="M9.008,3.118c-0.723,0-1.309,0.586-1.309,1.309"/>
	<path style="&st1;" d="M7.699,9.662c-2.53,0-4.581,2.051-4.581,4.581"/>
	<path style="&st1;" d="M12.934,11.625c-0.721,0-1.305,0.583-1.309,1.304"/>
	<path style="&st0;" d="M22.75,6.787c0-0.271-0.069-0.501-0.22-0.726"/>
	<path style="&st0;" d="M19.6,1.665c-0.487-0.73-1.225-1.139-2.102-1.165"/>
	<path style="&st0;" d="M25.368,13.588c0-2.033-0.927-3.768-2.618-4.897"/>
	<path style="&st1;" d="M24.059,15.245c0-3.263-1.686-6.041-4.581-7.547"/>
	<path style="&st1;" d="M19.478,5.081c0-1.807-1.465-3.272-3.271-3.272"/>
	<path style="&st1;" d="M16.861,7.698c0.543,0.723,1.569,0.869,2.292,0.326"/>
	<path style="&st1;" d="M19.152,8.024c0.13-0.098,0.228-0.196,0.326-0.326"/>
	<path style="&st1;" d="M18.169,4.427c0-0.723-0.586-1.309-1.309-1.309"/>
	<path style="&st1;" d="M22.75,14.242c0-2.53-2.051-4.581-4.581-4.581"/>
	<path style="&st1;" d="M14.243,12.934c0-0.723-0.586-1.309-1.309-1.309"/>
	<path style="&st1;" d="M3.118,18.169c0,2.53,2.051,4.581,4.581,4.581"/>
	<path style="&st1;" d="M18.169,22.75c2.53,0,4.581-2.051,4.581-4.581"/>
	<path style="&st1;" d="M11.625,19.478c0,0.723,0.586,1.309,1.309,1.309"/>
	<path style="&st1;" d="M12.934,20.787c0.723,0,1.309-0.586,1.309-1.309"/>
	<path style="&st0;" d="M0.501,18.823c0,3.976,3.223,7.198,7.198,7.198"/>
	<path style="&st1;" d="M16.861,24.712c-0.361,0-0.654,0.293-0.654,0.655"/>
	<path style="&st1;" d="M15.552,26.021c0.361,0,0.655-0.293,0.655-0.654"/>
	<path style="&st1;" d="M14.897,25.367c0-0.361-0.293-0.655-0.654-0.655"/>
	<path style="&st1;" d="M14.897,25.367c0,0.361,0.293,0.654,0.654,0.654"/>
	<path style="&st1;" d="M1.81,17.166c-0.192,3.971,2.871,7.346,6.841,7.538"/>
	<path style="&st1;" d="M8.651,24.704c0.125,0.006,0.231,0.008,0.357,0.008"/>
	<path style="&st1;" d="M16.861,24.712c3.975,0.005,7.202-3.214,7.207-7.189"/>
	<path style="&st1;" d="M24.067,17.523c0-0.125-0.002-0.232-0.008-0.357"/>
	<path style="&st0;" d="M18.169,26.021c3.976,0,7.198-3.223,7.198-7.198"/>
	<path style="&st0;" d="M18.169,26.021c-0.723,0-1.309,0.586-1.309,1.309"/>
	<path style="&st0;" d="M16.207,27.984c0.361,0,0.654-0.293,0.654-0.654"/>
	<path style="&st0;" d="M14.243,27.33c0,0.361,0.293,0.654,0.654,0.654"/>
	<path style="&st0;" d="M14.243,27.33c0-0.723-0.586-1.309-1.309-1.309"/>
	<path style="&st1;" d="M15.552,4.427V3.118h1.309"/>
	<path style="&st1;" d="M10.317,4.427V3.118H9.008"/>
	<path style="&st1;" d="M11.625,4.427V3.118h2.618v1.309"/>
	<path style="&st1;" d="M9.008,4.427h7.853v3.271H9.008V4.427"/>
	<g ewd:pinNo="1">
		<text transform="matrix(1 0 0 1 5.8042 18.2168)"><tspan x="0" y="0" style="&st3; &st2;">1</tspan></text>
	</g>
	<g ewd:pinNo="2">
		<text transform="matrix(1 0 0 1 16.9287 18.2168)"><tspan x="0" y="0" style="&st3; &st2;">2</tspan></text>
	</g>
</g>
</svg>