﻿<?xml version="1.0" encoding="utf-8"?>
<!DOCTYPE svg PUBLIC "-//W3C//DTD SVG 1.0//EN" "http://www.w3.org/TR/2001/REC-SVG-20010904/DTD/svg10.dtd"[
	<!ENTITY ns_flows "http://ns.adobe.com/Flows/1.0/">
	<!ENTITY ns_svg "http://www.w3.org/2000/svg">
	<!ENTITY ns_xlink "http://www.w3.org/1999/xlink">
	<!ENTITY st0 "font-size:7px;font-family:'MS-PGothic';adobe-font-script:japanese;">
	<!ENTITY st1 "font-size:6px;font-family:'ArialMT';">
	<!-- White fill  -->
	<!ENTITY st2 "fill:#FFFFFF;stroke:#000000; stroke-width:1.41;stroke-linecap:round;stroke-linejoin:round;">
	<!-- Yellow fill  -->
	<!ENTITY st3 "fill:#FFFFCC;stroke:#FFFFCC; stroke-width:0.1;stroke-linecap:round;stroke-linejoin:round;">
	<!-- Gray fill  -->
	<!ENTITY st4 "fill:#CCCCCC;stroke:#CCCCCC; stroke-width:0.1;stroke-linecap:round;stroke-linejoin:round;">
	<!-- Light-blue fill -->
	<!ENTITY st5 "fill:#CCECF4;stroke:#000000; stroke-width:1.133;stroke-linecap:round;stroke-linejoin:round;">
	<!ENTITY st6 "fill:none;stroke-linecap:butt; stroke-linejoin:round;">
	<!ENTITY st7 "fill:none;stroke:#000000;stroke-linecap:round;stroke-linejoin:round;">
	<!ENTITY st8 "enable-background:new    ;">
	<!-- Black fill -->
	<!ENTITY st9 "fill:#000000;stroke:#000000; stroke-linecap:round;stroke-linejoin:round;">
	<!-- SRS note   -->
	<!ENTITY st10 "font-size:9px;font-family:'ArialMT';">
	<!ENTITY st11 "font-size:9px;font-family:'Svg Symbol';">
	<!ENTITY st12 "font-size:6px;font-family:'Svg Symbol';">
	<!ENTITY st13 "fill:none;stroke:#ff0000;stroke-linecap:round;stroke-linejoin:round;">
	<!-- Yellow fill  -->
	<!ENTITY st14 "fill:#FFFF00;stroke:#FFFF00; stroke-width:0.1;stroke-linecap:round;stroke-linejoin:round;">
	<!ENTITY st15 "font-size:6px;font-family:'MS-PGothic';adobe-font-script:japanese;">
	<!ENTITY st16 "1.00 0.00 0.00 1.00">
	<!ENTITY st17 "0.00 -1.00 1.00 0.00">
	<!ENTITY st18 "font-size:6px;font-family:'Arial';">
	<!ENTITY st19 "font-size:9px;font-family:'Arial';">
	<!ENTITY st20 "font-size:6px;font-family:'MS-PGothic','MS PGothic';adobe-font-script:japanese;">
	<!ENTITY st21 "font-size:7px;font-family:'MS-PGothic','MS PGothic';adobe-font-script:japanese;">
	<!ATTLIST svg
		xmlns:ewd CDATA #FIXED "http://shcl.co.jp/ewd"
		xmlns:a CDATA #FIXED "http://ns.adobe.com/AdobeSVGViewerExtensions/3.0/"
		ewd:ver CDATA #IMPLIED
	>
	<!ATTLIST a
		ewd:lineID CDATA #IMPLIED
		ewd:groupID CDATA #IMPLIED
		ewd:figtype CDATA #IMPLIED
		ewd:code CDATA #IMPLIED
		ewd:figID CDATA #IMPLIED
		ewd:pinNo CDATA #IMPLIED
		ewd:comment CDATA #IMPLIED >
	<!ATTLIST g
		ewd:lineID CDATA #IMPLIED
		ewd:groupID CDATA #IMPLIED
		ewd:figtype CDATA #IMPLIED
		ewd:code CDATA #IMPLIED
		ewd:figID CDATA #IMPLIED
		ewd:pinNo CDATA #IMPLIED
		ewd:comment CDATA #IMPLIED >
	<!ATTLIST text
		ewd:textID CDATA #IMPLIED >
	<!ATTLIST title
		ewd:textID CDATA #IMPLIED >
]>
<!-- Generator: Shintec Hozumi YS   -->
<svg onload="call_execInitLoadProc_svg('system')" style="overflow:visible;  enable-background:new 0 0 4643.597 710.000" viewBox="0 0 4643.597 710.000" height="710.000" width="4643.597" xml:space="preserve" ewd:ver="2.1.2.7" xmlns="&ns_svg;" xmlns:a="http://ns.adobe.com/AdobeSVGViewerExtensions/3.0/" xmlns:ewd="http://shcl.co.jp/ewd" xmlns:xlink="&ns_xlink;">
<text style="&st18;" transform="matrix(&st17;  1228.6  149.81 )">BR</text><text style="&st18;" transform="matrix(&st17;  1160.61  432.67 )">W-B</text><text style="&st18;" transform="matrix(&st17;  1160.61  152.21 )">W-B</text><text style="&st18;" transform="matrix(&st17;  1194.6  148.73 )">W</text><text style="&st18;" transform="matrix(&st16;  1319.33  219.05 )">W-B</text><text style="&st18;" transform="matrix(&st16;  1262.88  68.89 )">C163(A),C164(B),C166(C),G156(E),G157(F)</text><text style="&st18;" transform="matrix(&st17;  1432.56  177.98 )">G-W</text><text style="&st18;" transform="matrix(&st17;  1262.59  328.28 )">BR</text><path style="stroke-width: 1.42 ;&st7;  " d=" M  1257.79,   265.24  L  1266.29,   265.24  " /><text style="&st18;" transform="matrix(&st16;  1262.88  75.99 )">ECM</text><text style="&st18;" transform="matrix(&st16;  1005.23  499.5 )">B-O</text><text style="&st18;" transform="matrix(&st16;  1009.26  516.5 )">L</text><text style="&st18;" transform="matrix(&st16;  1004.61  618.48 )">G-W</text><text style="&st18;" transform="matrix(&st16;  1055.6  618.48 )">G-W</text><text style="&st18;" transform="matrix(&st16;  1060.25  516.5 )">L</text><text style="&st18;" transform="matrix(&st16;  1056.22  499.5 )">B-O</text><text style="&st18;" transform="matrix(&st17;  1262.59  464.26 )">BR</text><path style="stroke-width: 1.42 ;&st7;  " d=" M  1172.80,   295.71  L  1167.83,   290.74  " /><path style="stroke-width: 1.42 ;&st7;  " d=" M  1155.81,   302.77  L  1160.78,   307.73  " /><path style="stroke-width: 1.42 ;&st7;  " d=" M  1167.83,   307.73  L  1172.80,   302.77  " /><path style="stroke-width: 1.42 ;&st7;  " d=" M  1160.78,   290.74  L  1155.81,   295.71  " /><text style="&st18;" transform="matrix(&st17;  1305.09  328.28 )">BR</text><text style="&st18;" transform="matrix(&st17;  1316.42  329.44 )">(*2)</text><text style="&st18;" transform="matrix(&st17;  1273.92  329.44 )">(*1)</text><text style="&st18;" transform="matrix(&st17;  1273.92  465.42 )">(*1)</text><g ewd:figtype="conn" ewd:figID="12" ewd:code="C54"><path style="stroke-width: 1.42 ;&st7;  " d=" M  1223.80,   358.73  L  1223.80,   375.72  L  1274.79,   375.72  L  1274.79,   358.73  L  1223.80,   358.73  " /><path style="stroke-width: 0.85 ;&st7;  " d=" M  1266.29,   358.73  L  1266.29,   375.72  " /><path style="stroke-width: 0.85 ;&st7;  " d=" M  1266.29,   367.22  L  1232.29,   367.22  L  1232.29,   358.73  " /><path style="stroke-width: 0.85 ;&st7;  " d=" M  1265.10,   366.22  L  1264.82,   366.69  L  1264.73,   367.22  L  1264.82,   367.76  L  1265.10,   368.23  L  1265.51,   368.57  L  1266.02,   368.76  L  1266.56,   368.76  L  1267.07,   368.57  L  1267.48,   368.23  L  1267.75,   367.76  L  1267.85,   367.22  L  1267.75,   366.69  L  1267.48,   366.22  L  1267.07,   365.88  L  1266.56,   365.69  L  1266.02,   365.69  L  1265.51,   365.88  L  1265.10,   366.22  L  1265.49,   366.93  L  1265.49,   367.52  L  1265.86,   367.96  L  1266.44,   368.06  L  1266.94,   367.77  L  1267.14,   367.22  L  1266.94,   366.68  L  1266.44,   366.39  L  1265.86,   366.49  L  1266.29,   367.22  " /><text style="&st18;" transform="matrix(&st16;  1223.6  356.16 )">1</text><text style="&st18;" transform="matrix(&st16;  1230.11  356.16 )">B</text><path style="stroke-width: 1.42 ;&st7;   " d=" M  1236.83,   354.19  C  1236.83    351.69   1234.80    349.66   1232.29    349.66  " /><path style="stroke-width: 1.42 ;&st7;   " d=" M  1232.29,   349.66  C  1229.79    349.66   1227.76    351.69   1227.76    354.19  " /><path style="stroke-width: 1.42 ;&st7;   " d=" M  1227.76,   354.19  C  1227.76    356.70   1229.79    358.73   1232.29    358.73  " /><path style="stroke-width: 1.42 ;&st7;   " d=" M  1232.29,   358.73  C  1234.80    358.73   1236.83    356.70   1236.83    354.19  " /><text style="&st18;" transform="matrix(&st16;  1257.59  382.22 )">2</text><path style="stroke-width: 1.42 ;&st7;   " d=" M  1270.82,   380.26  C  1270.82    377.75   1268.79    375.72   1266.29    375.72  " /><path style="stroke-width: 1.42 ;&st7;   " d=" M  1266.29,   375.72  C  1263.79    375.72   1261.76    377.75   1261.76    380.26  " /><path style="stroke-width: 1.42 ;&st7;   " d=" M  1261.76,   380.26  C  1261.76    382.76   1263.79    384.79   1266.29    384.79  " /><path style="stroke-width: 1.42 ;&st7;   " d=" M  1266.29,   384.79  C  1268.79    384.79   1270.82    382.76   1270.82    380.26  " /><text style="&st18;" transform="matrix(&st16;  1264.1  382.22 )">B</text><text style="&st18;" transform="matrix(&st16;  1257.59  356.16 )">6</text><path style="stroke-width: 1.42 ;&st7;   " d=" M  1270.82,   354.19  C  1270.82    351.69   1268.79    349.66   1266.29    349.66  " /><path style="stroke-width: 1.42 ;&st7;   " d=" M  1266.29,   349.66  C  1263.79    349.66   1261.76    351.69   1261.76    354.19  " /><path style="stroke-width: 1.42 ;&st7;   " d=" M  1261.76,   354.19  C  1261.76    356.70   1263.79    358.73   1266.29    358.73  " /><path style="stroke-width: 1.42 ;&st7;   " d=" M  1266.29,   358.73  C  1268.79    358.73   1270.82    356.70   1270.82    354.19  " /><text style="&st18;" transform="matrix(&st16;  1264.1  356.16 )">B</text><g ewd:figtype="title"><text style="&st18;" transform="matrix(&st17;  1289.5  378.63 )" ewd:textID="10">Junction <tspan x="0 " dy="6.0">Connector</tspan></text><text style="&st18;" transform="matrix(&st17;  1282.4  378.62 )">C54(B)</text></g></g><g ewd:figtype="conn" ewd:figID="13" ewd:code="z4-D"><path style="stroke:#000000;stroke-width: 5.10 ;&st6;" d=" M  1385.27,   307.73  L  1385.27,   282.24  " /><path style="stroke:#FF0000;stroke-width: 5.10 ;&st6;" d=" M  1436.26,   282.24  L  1436.26,   307.73  " /><path style="stroke-width: 0.85 ;&st7;  " d=" M  1435.07,   400.22  L  1434.79,   400.69  L  1434.70,   401.22  L  1434.79,   401.75  L  1435.07,   402.22  L  1435.48,   402.57  L  1435.99,   402.75  L  1436.53,   402.75  L  1437.04,   402.57  L  1437.45,   402.22  L  1437.72,   401.75  L  1437.82,   401.22  L  1437.72,   400.69  L  1437.45,   400.22  L  1437.04,   399.87  L  1436.53,   399.68  L  1435.99,   399.68  L  1435.48,   399.87  L  1435.07,   400.22  L  1435.46,   400.93  L  1435.46,   401.51  L  1435.83,   401.95  L  1436.41,   402.05  L  1436.91,   401.77  L  1437.11,   401.22  L  1436.91,   400.67  L  1436.41,   400.38  L  1435.83,   400.48  L  1436.26,   401.22  " /><path style="stroke-width: 0.85 ;&st7;  " d=" M  1384.08,   400.22  L  1383.80,   400.69  L  1383.71,   401.22  L  1383.80,   401.75  L  1384.08,   402.22  L  1384.49,   402.57  L  1385.00,   402.75  L  1385.54,   402.75  L  1386.05,   402.57  L  1386.46,   402.22  L  1386.73,   401.75  L  1386.83,   401.22  L  1386.73,   400.69  L  1386.46,   400.22  L  1386.05,   399.87  L  1385.54,   399.68  L  1385.00,   399.68  L  1384.49,   399.87  L  1384.08,   400.22  L  1384.47,   400.93  L  1384.47,   401.51  L  1384.84,   401.95  L  1385.42,   402.05  L  1385.92,   401.77  L  1386.12,   401.22  L  1385.92,   400.67  L  1385.42,   400.38  L  1384.84,   400.48  L  1385.27,   401.22  " /><path style="stroke-width: 0.85 ;&st7;  " d=" M  1384.08,   366.22  L  1383.80,   366.69  L  1383.71,   367.22  L  1383.80,   367.76  L  1384.08,   368.23  L  1384.49,   368.57  L  1385.00,   368.76  L  1385.54,   368.76  L  1386.05,   368.57  L  1386.46,   368.23  L  1386.73,   367.76  L  1386.83,   367.22  L  1386.73,   366.69  L  1386.46,   366.22  L  1386.05,   365.88  L  1385.54,   365.69  L  1385.00,   365.69  L  1384.49,   365.88  L  1384.08,   366.22  L  1384.47,   366.93  L  1384.47,   367.52  L  1384.84,   367.96  L  1385.42,   368.06  L  1385.92,   367.77  L  1386.12,   367.22  L  1385.92,   366.68  L  1385.42,   366.39  L  1384.84,   366.49  L  1385.27,   367.22  " /><path style="stroke-width: 0.85 ;&st7;  " d=" M  1384.08,   323.73  L  1383.80,   324.20  L  1383.71,   324.73  L  1383.80,   325.26  L  1384.08,   325.73  L  1384.49,   326.08  L  1385.00,   326.27  L  1385.54,   326.27  L  1386.05,   326.08  L  1386.46,   325.73  L  1386.73,   325.26  L  1386.83,   324.73  L  1386.73,   324.20  L  1386.46,   323.73  L  1386.05,   323.38  L  1385.54,   323.20  L  1385.00,   323.20  L  1384.49,   323.38  L  1384.08,   323.73  L  1384.47,   324.44  L  1384.47,   325.02  L  1384.84,   325.47  L  1385.42,   325.57  L  1385.92,   325.28  L  1386.12,   324.73  L  1385.92,   324.18  L  1385.42,   323.90  L  1384.84,   323.99  L  1385.27,   324.73  " /><path style="stroke-width: 0.85 ;&st7;  " d=" M  1435.07,   323.73  L  1434.79,   324.20  L  1434.70,   324.73  L  1434.79,   325.26  L  1435.07,   325.73  L  1435.48,   326.08  L  1435.99,   326.27  L  1436.53,   326.27  L  1437.04,   326.08  L  1437.45,   325.73  L  1437.72,   325.26  L  1437.82,   324.73  L  1437.72,   324.20  L  1437.45,   323.73  L  1437.04,   323.38  L  1436.53,   323.20  L  1435.99,   323.20  L  1435.48,   323.38  L  1435.07,   323.73  L  1435.46,   324.44  L  1435.46,   325.02  L  1435.83,   325.47  L  1436.41,   325.57  L  1436.91,   325.28  L  1437.11,   324.73  L  1436.91,   324.18  L  1436.41,   323.90  L  1435.83,   323.99  L  1436.26,   324.73  " /><path style="stroke-width: 0.85 ;&st7;  " d=" M  1435.07,   366.22  L  1434.79,   366.69  L  1434.70,   367.22  L  1434.79,   367.76  L  1435.07,   368.23  L  1435.48,   368.57  L  1435.99,   368.76  L  1436.53,   368.76  L  1437.04,   368.57  L  1437.45,   368.23  L  1437.72,   367.76  L  1437.82,   367.22  L  1437.72,   366.69  L  1437.45,   366.22  L  1437.04,   365.88  L  1436.53,   365.69  L  1435.99,   365.69  L  1435.48,   365.88  L  1435.07,   366.22  L  1435.46,   366.93  L  1435.46,   367.52  L  1435.83,   367.96  L  1436.41,   368.06  L  1436.91,   367.77  L  1437.11,   367.22  L  1436.91,   366.68  L  1436.41,   366.39  L  1435.83,   366.49  L  1436.26,   367.22  " /><path style="stroke-width: 0.85 ;&st7;  " d=" M  1385.27,   401.22  L  1393.77,   401.22  " /><path style="stroke-width: 0.85 ;&st7;  " d=" M  1385.27,   367.22  L  1393.77,   367.22  " /><path style="stroke-width: 0.85 ;&st7;  " d=" M  1393.77,   324.73  L  1385.27,   324.73  " /><path style="stroke-width: 0.85 ;&st7;  " d=" M  1427.76,   324.73  L  1436.26,   324.73  " /><path style="stroke-width: 0.85 ;&st7;  " d=" M  1427.76,   367.22  L  1436.26,   367.22  " /><path style="stroke-width: 0.85 ;&st7;  " d=" M  1427.76,   401.22  L  1436.26,   401.22  " /><path style="stroke-width: 0.85 ;&st7;  " d=" M  1436.26,   333.23  L  1436.26,   307.73  " /><path style="stroke-width: 0.85 ;&st7;  " d=" M  1427.76,   435.21  L  1436.26,   435.21  " /><path style="stroke-width: 0.85 ;&st7;  " d=" M  1393.77,   435.21  L  1385.27,   435.21  L  1385.27,   307.73  " /><path style="stroke-width: 0.85 ;&st7;  " d=" M  1436.26,   435.21  L  1436.26,   426.71  L  1433.43,   425.30  L  1439.09,   422.46  L  1433.43,   419.63  L  1439.09,   416.80  L  1433.43,   413.97  L  1439.09,   411.13  L  1436.26,   409.72  L  1436.26,   401.22  " /><path style="stroke-width: 0.85 ;&st7;  " d=" M  1436.26,   401.22  L  1436.26,   392.72  L  1433.43,   391.30  L  1439.09,   388.47  L  1433.43,   385.64  L  1439.09,   382.80  L  1433.43,   379.97  L  1439.09,   377.14  L  1436.26,   375.72  L  1436.26,   367.22  " /><path style="stroke-width: 0.85 ;&st7;  " d=" M  1436.26,   367.22  L  1436.26,   358.73  L  1433.43,   357.31  L  1439.09,   354.48  L  1433.43,   351.64  L  1439.09,   348.81  L  1433.43,   345.98  L  1439.09,   343.14  L  1436.26,   341.73  L  1436.26,   333.23  " /><path style="stroke-width: 0.85 ;&st7;   " d=" M  1400.85,   435.21  C  1400.85    434.43   1400.22    433.80   1399.43    433.80  " /><path style="stroke-width: 0.85 ;&st7;   " d=" M  1399.43,   433.80  C  1398.65    433.80   1398.02    434.43   1398.02    435.21  " /><path style="stroke-width: 0.85 ;&st7;   " d=" M  1398.02,   435.21  C  1398.02    435.99   1398.65    436.63   1399.43    436.63  " /><path style="stroke-width: 0.85 ;&st7;   " d=" M  1399.43,   436.63  C  1400.22    436.63   1400.85    435.99   1400.85    435.21  " /><path style="stroke-width: 0.85 ;&st7;   " d=" M  1423.51,   435.21  C  1423.51    434.43   1422.88    433.80   1422.10    433.80  " /><path style="stroke-width: 0.85 ;&st7;   " d=" M  1422.10,   433.80  C  1421.31    433.80   1420.68    434.43   1420.68    435.21  " /><path style="stroke-width: 0.85 ;&st7;   " d=" M  1420.68,   435.21  C  1420.68    435.99   1421.31    436.63   1422.10    436.63  " /><path style="stroke-width: 0.85 ;&st7;   " d=" M  1422.10,   436.63  C  1422.88    436.63   1423.51    435.99   1423.51    435.21  " /><path style="stroke-width: 0.85 ;&st7;   " d=" M  1400.85,   401.22  C  1400.85    400.44   1400.22    399.80   1399.43    399.80  " /><path style="stroke-width: 0.85 ;&st7;   " d=" M  1399.43,   399.80  C  1398.65    399.80   1398.02    400.44   1398.02    401.22  " /><path style="stroke-width: 0.85 ;&st7;   " d=" M  1398.02,   401.22  C  1398.02    402.00   1398.65    402.63   1399.43    402.63  " /><path style="stroke-width: 0.85 ;&st7;   " d=" M  1399.43,   402.63  C  1400.22    402.63   1400.85    402.00   1400.85    401.22  " /><path style="stroke-width: 0.85 ;&st7;   " d=" M  1423.51,   401.22  C  1423.51    400.44   1422.88    399.80   1422.10    399.80  " /><path style="stroke-width: 0.85 ;&st7;   " d=" M  1422.10,   399.80  C  1421.31    399.80   1420.68    400.44   1420.68    401.22  " /><path style="stroke-width: 0.85 ;&st7;   " d=" M  1420.68,   401.22  C  1420.68    402.00   1421.31    402.63   1422.10    402.63  " /><path style="stroke-width: 0.85 ;&st7;   " d=" M  1422.10,   402.63  C  1422.88    402.63   1423.51    402.00   1423.51    401.22  " /><path style="stroke-width: 0.85 ;&st7;   " d=" M  1400.85,   367.22  C  1400.85    366.44   1400.22    365.81   1399.43    365.81  " /><path style="stroke-width: 0.85 ;&st7;   " d=" M  1399.43,   365.81  C  1398.65    365.81   1398.02    366.44   1398.02    367.22  " /><path style="stroke-width: 0.85 ;&st7;   " d=" M  1398.02,   367.22  C  1398.02    368.01   1398.65    368.64   1399.43    368.64  " /><path style="stroke-width: 0.85 ;&st7;   " d=" M  1399.43,   368.64  C  1400.22    368.64   1400.85    368.01   1400.85    367.22  " /><path style="stroke-width: 0.85 ;&st7;   " d=" M  1423.51,   367.22  C  1423.51    366.44   1422.88    365.81   1422.10    365.81  " /><path style="stroke-width: 0.85 ;&st7;   " d=" M  1422.10,   365.81  C  1421.31    365.81   1420.68    366.44   1420.68    367.22  " /><path style="stroke-width: 0.85 ;&st7;   " d=" M  1420.68,   367.22  C  1420.68    368.01   1421.31    368.64   1422.10    368.64  " /><path style="stroke-width: 0.85 ;&st7;   " d=" M  1422.10,   368.64  C  1422.88    368.64   1423.51    368.01   1423.51    367.22  " /><path style="stroke-width: 0.85 ;&st7;   " d=" M  1400.85,   324.73  C  1400.85    323.95   1400.22    323.31   1399.43    323.31  " /><path style="stroke-width: 0.85 ;&st7;   " d=" M  1399.43,   323.31  C  1398.65    323.31   1398.02    323.95   1398.02    324.73  " /><path style="stroke-width: 0.85 ;&st7;   " d=" M  1398.02,   324.73  C  1398.02    325.51   1398.65    326.15   1399.43    326.15  " /><path style="stroke-width: 0.85 ;&st7;   " d=" M  1399.43,   326.15  C  1400.22    326.15   1400.85    325.51   1400.85    324.73  " /><path style="stroke-width: 0.85 ;&st7;   " d=" M  1423.51,   324.73  C  1423.51    323.95   1422.88    323.31   1422.10    323.31  " /><path style="stroke-width: 0.85 ;&st7;   " d=" M  1422.10,   323.31  C  1421.31    323.31   1420.68    323.95   1420.68    324.73  " /><path style="stroke-width: 0.85 ;&st7;   " d=" M  1420.68,   324.73  C  1420.68    325.51   1421.31    326.15   1422.10    326.15  " /><path style="stroke-width: 0.85 ;&st7;   " d=" M  1422.10,   326.15  C  1422.88    326.15   1423.51    325.51   1423.51    324.73  " /><path style="stroke-width: 0.85 ;&st7;  " d=" M  1398.02,   435.21  L  1393.77,   435.21  " /><path style="stroke-width: 0.85 ;&st7;  " d=" M  1427.76,   435.21  L  1423.51,   435.21  " /><path style="stroke-width: 1.42 ;&st7;  " d=" M  1420.68,   435.21  L  1398.02,   429.55  " /><path style="stroke-width: 0.85 ;&st7;  " d=" M  1398.02,   401.22  L  1393.77,   401.22  " /><path style="stroke-width: 0.85 ;&st7;  " d=" M  1427.76,   401.22  L  1423.51,   401.22  " /><path style="stroke-width: 1.42 ;&st7;  " d=" M  1420.68,   401.22  L  1398.02,   395.55  " /><path style="stroke-width: 0.85 ;&st7;  " d=" M  1398.02,   367.22  L  1393.77,   367.22  " /><path style="stroke-width: 0.85 ;&st7;  " d=" M  1427.76,   367.22  L  1423.51,   367.22  " /><path style="stroke-width: 1.42 ;&st7;  " d=" M  1420.68,   367.22  L  1398.02,   361.56  " /><path style="stroke-width: 0.85 ;&st7;  " d=" M  1398.02,   324.73  L  1393.77,   324.73  " /><path style="stroke-width: 0.85 ;&st7;  " d=" M  1427.76,   324.73  L  1423.51,   324.73  " /><path style="stroke-width: 1.42 ;&st7;  " d=" M  1420.68,   324.73  L  1398.02,   319.07  " /><path style="stroke-width: 1.42 ;&st7;  " d=" M  1368.27,   307.73  L  1368.27,   452.21  L  1453.26,   452.21  L  1453.26,   307.73  L  1368.27,   307.73  " /><path style="stroke-width: 1.42 ;&st7;  " d=" M  1359.77,   282.24  L  1359.77,   460.71  L  1461.76,   460.71  L  1461.76,   282.24  L  1359.77,   282.24  " /><text style="&st18;" transform="matrix(&st16;  1398.46  332.37 )">ON-OFF</text><text style="&st18;" transform="matrix(&st16;  1403.69  374.86 )">+RES</text><text style="&st18;" transform="matrix(&st16;  1403.61  408.85 )">-SET</text><text style="&st18;" transform="matrix(&st16;  1398.38  442.85 )">CANCEL</text><text style="&st18;" transform="matrix(&st17;  1432.56  296.6 )">R</text><text style="&st18;" transform="matrix(&st17;  1381.57  296.67 )">B</text><text style="&st18;" transform="matrix(&st16;  1376.6  279.67 )">4</text><path style="stroke-width: 1.42 ;&st7;   " d=" M  1389.80,   277.71  C  1389.80    275.20   1387.77    273.17   1385.27    273.17  " /><path style="stroke-width: 1.42 ;&st7;   " d=" M  1385.27,   273.17  C  1382.77    273.17   1380.74    275.20   1380.74    277.71  " /><path style="stroke-width: 1.42 ;&st7;   " d=" M  1380.74,   277.71  C  1380.74    280.21   1382.77    282.24   1385.27    282.24  " /><path style="stroke-width: 1.42 ;&st7;   " d=" M  1385.27,   282.24  C  1387.77    282.24   1389.80    280.21   1389.80    277.71  " /><text style="&st18;" transform="matrix(&st16;  1382.89  279.67 )">D</text><text style="&st18;" transform="matrix(&st16;  1427.59  279.67 )">3</text><text style="&st18;" transform="matrix(&st16;  1433.88  279.67 )">D</text><path style="stroke-width: 1.42 ;&st7;   " d=" M  1440.79,   277.71  C  1440.79    275.20   1438.76    273.17   1436.26    273.17  " /><path style="stroke-width: 1.42 ;&st7;   " d=" M  1436.26,   273.17  C  1433.76    273.17   1431.73    275.20   1431.73    277.71  " /><path style="stroke-width: 1.42 ;&st7;   " d=" M  1431.73,   277.71  C  1431.73    280.21   1433.76    282.24   1436.26    282.24  " /><path style="stroke-width: 1.42 ;&st7;   " d=" M  1436.26,   282.24  C  1438.76    282.24   1440.79    280.21   1440.79    277.71  " /><g ewd:figtype="title"><text style="&st18;" transform="matrix(&st17;  1469.37  463.61 )">z4(D)</text><text style="&st18;" transform="matrix(&st17;  1476.47  463.61 )" ewd:textID="6">Cruise Control <tspan x="0 " dy="6.0">Main Switch Assembly</tspan></text></g></g><g ewd:figtype="conn" ewd:figID="14" ewd:code="G12,z4-D"><path style="stroke-width: 1.42 ;&st7;  " d=" M  1359.77,   256.74  L  1359.77,   273.17  L  1461.76,   273.17  L  1461.76,   256.74  L  1359.77,   256.74  " /><path style="stroke-width: 0.85 ;&st7;  " d=" M  1385.27,   256.74  L  1385.27,   273.17  " /><path style="stroke-width: 0.85 ;&st7;  " d=" M  1436.26,   256.74  L  1436.26,   273.17  " /><text style="&st18;" transform="matrix(&st16;  1438.84  264.94 )">CCS</text><text style="&st18;" transform="matrix(&st16;  1387.85  264.94 )">ECC</text><text style="&st18;" transform="matrix(&st16;  1376.6  254.18 )">2</text><path style="stroke-width: 1.42 ;&st7;   " d=" M  1389.80,   252.21  C  1389.80    249.71   1387.77    247.68   1385.27    247.68  " /><path style="stroke-width: 1.42 ;&st7;   " d=" M  1385.27,   247.68  C  1382.77    247.68   1380.74    249.71   1380.74    252.21  " /><path style="stroke-width: 1.42 ;&st7;   " d=" M  1380.74,   252.21  C  1380.74    254.71   1382.77    256.74   1385.27    256.74  " /><path style="stroke-width: 1.42 ;&st7;   " d=" M  1385.27,   256.74  C  1387.77    256.74   1389.80    254.71   1389.80    252.21  " /><text style="&st18;" transform="matrix(&st16;  1382.96  254.18 )">A</text><text style="&st18;" transform="matrix(&st16;  1427.59  254.18 )">1</text><path style="stroke-width: 1.42 ;&st7;   " d=" M  1440.79,   252.21  C  1440.79    249.71   1438.76    247.68   1436.26    247.68  " /><path style="stroke-width: 1.42 ;&st7;   " d=" M  1436.26,   247.68  C  1433.76    247.68   1431.73    249.71   1431.73    252.21  " /><path style="stroke-width: 1.42 ;&st7;   " d=" M  1431.73,   252.21  C  1431.73    254.71   1433.76    256.74   1436.26    256.74  " /><path style="stroke-width: 1.42 ;&st7;   " d=" M  1436.26,   256.74  C  1438.76    256.74   1440.79    254.71   1440.79    252.21  " /><text style="&st18;" transform="matrix(&st16;  1433.96  254.18 )">A</text><g ewd:figtype="title"><text style="&st18;" transform="matrix(&st17;  1476.47  276.65 )" ewd:textID="14">Spiral Cable <tspan x="0 " dy="6.0">Sub-Assembly</tspan></text><text style="&st18;" transform="matrix(&st17;  1469.37  276.64 )">G12(A),z4(D)</text></g></g><g ewd:figtype="conn" ewd:figID="19" ewd:code="C163,C164,C166,G156,G157"><g ewd:lineID="31"><text style="&st18;" transform="matrix(&st16;  1152.54  110.27 )">11</text><path style="stroke-width: 1.42 ;&st7;   " d=" M  1168.84,   108.30  C  1168.84    105.80   1166.81    103.77   1164.31    103.77  " /><path style="stroke-width: 1.42 ;&st7;   " d=" M  1164.31,   103.77  C  1161.80    103.77   1159.77    105.80   1159.77    108.30  " /><path style="stroke-width: 1.42 ;&st7;   " d=" M  1159.77,   108.30  C  1159.77    110.80   1161.80    112.83   1164.31    112.83  " /><path style="stroke-width: 1.42 ;&st7;   " d=" M  1164.31,   112.83  C  1166.81    112.83   1168.84    110.80   1168.84    108.30  " /><text style="&st18;" transform="matrix(&st16;  1162.12  110.27 )">B</text><text style="&st18;" transform="matrix(&st16;  1159.09  100.07 )">E01</text></g><g ewd:lineID="32"><text style="&st18;" transform="matrix(&st16;  1186.53  110.27 )">12</text><text style="&st18;" transform="matrix(&st16;  1196.11  110.27 )">B</text><path style="stroke-width: 1.42 ;&st7;   " d=" M  1202.83,   108.30  C  1202.83    105.80   1200.80    103.77   1198.30    103.77  " /><path style="stroke-width: 1.42 ;&st7;   " d=" M  1198.30,   103.77  C  1195.80    103.77   1193.77    105.80   1193.77    108.30  " /><path style="stroke-width: 1.42 ;&st7;   " d=" M  1193.77,   108.30  C  1193.77    110.80   1195.80    112.83   1198.30    112.83  " /><path style="stroke-width: 1.42 ;&st7;   " d=" M  1198.30,   112.83  C  1200.80    112.83   1202.83    110.80   1202.83    108.30  " /><text style="&st18;" transform="matrix(&st16;  1193.09  100.07 )">E02</text></g><g ewd:lineID="33"><text style="&st18;" transform="matrix(&st16;  1223.63  110.27 )">6</text><text style="&st18;" transform="matrix(&st16;  1230.11  110.27 )">B</text><path style="stroke-width: 1.42 ;&st7;   " d=" M  1236.83,   108.30  C  1236.83    105.80   1234.80    103.77   1232.29    103.77  " /><path style="stroke-width: 1.42 ;&st7;   " d=" M  1232.29,   103.77  C  1229.79    103.77   1227.76    105.80   1227.76    108.30  " /><path style="stroke-width: 1.42 ;&st7;   " d=" M  1227.76,   108.30  C  1227.76    110.80   1229.79    112.83   1232.29    112.83  " /><path style="stroke-width: 1.42 ;&st7;   " d=" M  1232.29,   112.83  C  1234.80    112.83   1236.83    110.80   1236.83    108.30  " /><text style="&st18;" transform="matrix(&st16;  1228.63  100.07 )">E1</text></g><g ewd:lineID="38"><text style="&st18;" transform="matrix(&st16;  1424.46  110.27 )">14</text><path style="stroke-width: 1.42 ;&st7;   " d=" M  1440.79,   108.30  C  1440.79    105.80   1438.76    103.77   1436.26    103.77  " /><path style="stroke-width: 1.42 ;&st7;   " d=" M  1436.26,   103.77  C  1433.76    103.77   1431.73    105.80   1431.73    108.30  " /><path style="stroke-width: 1.42 ;&st7;   " d=" M  1431.73,   108.30  C  1431.73    110.80   1433.76    112.83   1436.26    112.83  " /><path style="stroke-width: 1.42 ;&st7;   " d=" M  1436.26,   112.83  C  1438.76    112.83   1440.79    110.80   1440.79    108.30  " /><text style="&st18;" transform="matrix(&st16;  1434.15  110.27 )">F</text><text style="&st18;" transform="matrix(&st16;  1430.12  100.07 )">CCS</text></g></g><g ewd:figtype="w2w" ewd:figID="41" ewd:code="CG2"><text style="&st18;" transform="matrix(&st16;  1253.66  271.46 )">9</text><path style="stroke-width: 1.42 ;&st7;  " d=" M  1270.54,   259.58  L  1266.29,   263.82  L  1262.04,   259.58  " /><path style="stroke-width: 1.42 ;&st7;  " d=" M  1262.04,   256.18  L  1266.29,   260.43  L  1270.54,   256.18  " /></g><g ewd:figtype="gp" ewd:figID="52" ewd:code="C1"><path style="stroke-width: 0.85 ;&st7;  " d=" M  1264.87,   710.00  L  1267.70,   710.00  " /><path style="stroke-width: 0.85 ;&st7;  " d=" M  1263.46,   707.17  L  1269.12,   707.17  " /><path style="stroke-width: 0.85 ;&st7;  " d=" M  1262.04,   704.33  L  1270.54,   704.33  " /><path style="stroke-width: 0.85 ;&st7;  " d=" M  1257.79,   701.50  L  1274.79,   701.50  " /><path style="stroke-width: 0.85 ;&st7;  " d=" M  1266.29,   697.25  L  1266.29,   701.50  " /></g></svg>