﻿<?xml version="1.0" encoding="utf-8"?>
<!DOCTYPE svg PUBLIC "-//W3C//DTD SVG 1.0//EN" "http://www.w3.org/TR/2001/REC-SVG-20010904/DTD/svg10.dtd"[
	<!ENTITY ns_flows "http://ns.adobe.com/Flows/1.0/">
	<!ENTITY ns_svg "http://www.w3.org/2000/svg">
	<!ENTITY ns_xlink "http://www.w3.org/1999/xlink">
	<!ENTITY st0 "font-size:7px;font-family:'MS-PGothic';adobe-font-script:japanese;">
	<!ENTITY st1 "font-size:6px;font-family:'ArialMT';">
	<!-- White fill  -->
	<!ENTITY st2 "fill:#FFFFFF;stroke:#000000; stroke-width:1.41;stroke-linecap:round;stroke-linejoin:round;">
	<!-- Yellow fill  -->
	<!ENTITY st3 "fill:#FFFFCC;stroke:#FFFFCC; stroke-width:0.1;stroke-linecap:round;stroke-linejoin:round;">
	<!-- Gray fill  -->
	<!ENTITY st4 "fill:#CCCCCC;stroke:#CCCCCC; stroke-width:0.1;stroke-linecap:round;stroke-linejoin:round;">
	<!-- Light-blue fill -->
	<!ENTITY st5 "fill:#CCECF4;stroke:#000000; stroke-width:1.133;stroke-linecap:round;stroke-linejoin:round;">
	<!ENTITY st6 "fill:none;stroke-linecap:butt; stroke-linejoin:round;">
	<!ENTITY st7 "fill:none;stroke:#000000;stroke-linecap:round;stroke-linejoin:round;">
	<!ENTITY st8 "enable-background:new    ;">
	<!-- Black fill -->
	<!ENTITY st9 "fill:#000000;stroke:#000000; stroke-linecap:round;stroke-linejoin:round;">
	<!-- SRS note   -->
	<!ENTITY st10 "font-size:9px;font-family:'ArialMT';">
	<!ENTITY st11 "font-size:9px;font-family:'Svg Symbol';">
	<!ENTITY st12 "font-size:6px;font-family:'Svg Symbol';">
	<!ENTITY st13 "fill:none;stroke:#ff0000;stroke-linecap:round;stroke-linejoin:round;">
	<!-- Yellow fill  -->
	<!ENTITY st14 "fill:#FFFF00;stroke:#FFFF00; stroke-width:0.1;stroke-linecap:round;stroke-linejoin:round;">
	<!ENTITY st15 "font-size:6px;font-family:'MS-PGothic';adobe-font-script:japanese;">
	<!ENTITY st16 "1.00 0.00 0.00 1.00">
	<!ENTITY st17 "0.00 -1.00 1.00 0.00">
	<!ENTITY st18 "font-size:6px;font-family:'Arial';">
	<!ENTITY st19 "font-size:9px;font-family:'Arial';">
	<!ENTITY st20 "font-size:6px;font-family:'MS-PGothic','MS PGothic';adobe-font-script:japanese;">
	<!ENTITY st21 "font-size:7px;font-family:'MS-PGothic','MS PGothic';adobe-font-script:japanese;">
	<!ATTLIST svg
		xmlns:ewd CDATA #FIXED "http://shcl.co.jp/ewd"
		xmlns:a CDATA #FIXED "http://ns.adobe.com/AdobeSVGViewerExtensions/3.0/"
		ewd:ver CDATA #IMPLIED
	>
	<!ATTLIST a
		ewd:lineID CDATA #IMPLIED
		ewd:groupID CDATA #IMPLIED
		ewd:figtype CDATA #IMPLIED
		ewd:code CDATA #IMPLIED
		ewd:figID CDATA #IMPLIED
		ewd:pinNo CDATA #IMPLIED
		ewd:comment CDATA #IMPLIED >
	<!ATTLIST g
		ewd:lineID CDATA #IMPLIED
		ewd:groupID CDATA #IMPLIED
		ewd:figtype CDATA #IMPLIED
		ewd:code CDATA #IMPLIED
		ewd:figID CDATA #IMPLIED
		ewd:pinNo CDATA #IMPLIED
		ewd:comment CDATA #IMPLIED >
	<!ATTLIST text
		ewd:textID CDATA #IMPLIED >
	<!ATTLIST title
		ewd:textID CDATA #IMPLIED >
]>
<!-- Generator: Shintec Hozumi YS   -->
<svg onload="call_execInitLoadProc_svg('system')" style="overflow:visible;  enable-background:new 0 0 517.876 710.000" viewBox="0 0 517.876 710.000" height="710.000" width="517.876" xml:space="preserve" ewd:ver="2.1.2.7" xmlns="&ns_svg;" xmlns:a="http://ns.adobe.com/AdobeSVGViewerExtensions/3.0/" xmlns:ewd="http://shcl.co.jp/ewd" xmlns:xlink="&ns_xlink;"><script type="text/javascript" xlink:href="../../../../../system/js/ewd/fig/svgfig.js" xmlns:xlink="http://www.w3.org/1999/xlink" />
<g id="ewd_top"><a ewd:figtype="rb" style="cursor:pointer;" ewd:code="FUSE31" ewd:figID="1"><path style="fill:#CCECF4;stroke:#000000; stroke-width:0; stroke-linecap:round;stroke-linejoin:round; " d=" M    38.24,   486.20  L    12.75,   486.20  L    12.75,   443.71  L    38.24,   443.71  L    38.24,   486.20 " /></a><a ewd:figtype="rb" style="cursor:pointer;" ewd:code="FUSE1" ewd:figID="2"><path style="fill:#CCECF4;stroke:#000000; stroke-width:0; stroke-linecap:round;stroke-linejoin:round; " d=" M    97.73,   486.20  L    72.24,   486.20  L    72.24,   443.71  L    97.73,   443.71  L    97.73,   486.20 " /></a><a ewd:figtype="conn" style="cursor:pointer;" ewd:code="C75,C95" ewd:figID="4"><path style="fill:#CCECF4;stroke:#000000; stroke-width:1.133; stroke-linecap:round;stroke-linejoin:round; " d=" M   161.47,   290.74  L   127.48,   290.74  L   127.48,   256.74  L   161.47,   256.74  L   161.47,   290.74 " /><title>ECM</title></a><a ewd:figtype="conn" style="cursor:pointer;" ewd:code="C22,C114,C167" ewd:figID="5"><path style="fill:#CCECF4;stroke:#000000; stroke-width:1.133; stroke-linecap:round;stroke-linejoin:round; " d=" M   220.96,   290.74  L   186.97,   290.74  L   186.97,   256.74  L   220.96,   256.74  L   220.96,   290.74 " /><title>ECM</title></a><a ewd:figtype="conn" style="cursor:pointer;" ewd:code="C50" ewd:figID="6"><path style="fill:#CCECF4;stroke:#000000; stroke-width:1.133; stroke-linecap:round;stroke-linejoin:round; " d=" M   195.47,   392.72  L   212.46,   392.72  L   212.46,   409.72  L   195.47,   409.72  L   195.47,   392.72 " /><title ewd:textID="13">Junction Connector</title></a><a ewd:figtype="conn" style="cursor:pointer;" ewd:code="C34,C35,C154" ewd:figID="7"><path style="fill:#CCECF4;stroke:#000000; stroke-width:1.133; stroke-linecap:round;stroke-linejoin:round; " d=" M   509.91,   528.70  L   186.97,   528.70  L   186.97,   681.67  L   509.91,   681.67  L   509.91,   528.70 " /><title ewd:textID="11">Generator Assembly</title></a><a ewd:figtype="conn" style="cursor:pointer;" ewd:code="G19" ewd:figID="8"><path style="fill:#CCECF4;stroke:#000000; stroke-width:1.133; stroke-linecap:round;stroke-linejoin:round; " d=" M   382.44,   282.24  L   433.43,   282.24  L   433.43,   214.25  L   382.44,   214.25  L   382.44,   282.24 " /><title ewd:textID="10">Combination Meter Assembly</title></a><a ewd:figtype="rb" style="cursor:pointer;" ewd:code="FUSE6" ewd:figID="9"><path style="fill:#CCECF4;stroke:#000000; stroke-width:0; stroke-linecap:round;stroke-linejoin:round; " d=" M   242.21,    69.77  L   242.21,   112.27  L   267.71,   112.27  L   267.71,    69.77  L   242.21,    69.77 " /></a><a ewd:figtype="jb" style="cursor:pointer;" ewd:code="1" ewd:figID="12"><path style="&st4; " d=" M     8.50,   392.72  L     8.50,   401.22  L    33.99,   401.22  L    33.99,   392.72  L     8.50,   392.72  " /></a><a ewd:figtype="jb" style="cursor:pointer;" ewd:code="1" ewd:figID="13"><path style="&st4; " d=" M     8.50,   537.20  L     8.50,   545.69  L    33.99,   545.69  L    33.99,   537.20  L     8.50,   537.20  " /></a><a ewd:figtype="jb" style="cursor:pointer;" ewd:code="2" ewd:figID="14"><path style="&st4; " d=" M   314.45,    69.77  L   314.45,   137.76  L   450.42,   137.76  L   450.42,    69.77  L   314.45,    69.77  " /></a><a ewd:figtype="jb" style="cursor:pointer;" ewd:code="2" ewd:figID="15"><path style="&st4; " d=" M   348.44,   324.73  L   348.44,   375.72  L   373.94,   375.72  L   373.94,   324.73  L   348.44,   324.73  " /></a><a ewd:figtype="fuse" style="cursor:pointer;" ewd:code="FUSE31" ewd:figID="21"><path style="&st7; stroke-width:0;" d=" M    38.24,   486.20  L    12.75,   486.20  L    12.75,   443.71  L    38.24,   443.71  L    38.24,   486.20 " /></a><a ewd:figtype="fuse" style="cursor:pointer;" ewd:code="FUSE1" ewd:figID="22"><path style="&st7; stroke-width:0;" d=" M    97.73,   486.20  L    72.24,   486.20  L    72.24,   443.71  L    97.73,   443.71  L    97.73,   486.20 " /></a><a ewd:figtype="fuse" style="cursor:pointer;" ewd:code="FUSE6" ewd:figID="23"><path style="&st7; stroke-width:0;" d=" M   242.21,    69.77  L   242.21,   112.27  L   267.71,   112.27  L   267.71,    69.77  L   242.21,    69.77 " /></a><a ewd:figtype="fuse" style="cursor:pointer;" ewd:code="FUSE38" ewd:figID="24"><path style="&st7; stroke-width:0;" d=" M   344.19,   112.27  L   344.19,    69.77  L   318.70,    69.77  L   318.70,   112.27  L   344.19,   112.27 " /></a><a ewd:figtype="fuse" style="cursor:pointer;" ewd:code="FUSE34" ewd:figID="25"><path style="&st7; stroke-width:0;" d=" M   420.68,   112.27  L   420.68,    69.77  L   395.18,    69.77  L   395.18,   112.27  L   420.68,   112.27 " /></a><a style="cursor:pointer;" ewd:lineID="1"> d=" M    25.50,   596.69  L    25.50,   545.69 
	
		<path style="stroke:#000000;stroke-width: 5.10 ;&st6;" d=" M    25.50,   596.69  L    25.50,   545.69  " /><path style="stroke:#FFFFFF;stroke-width: 4.53 ;&st6;" d=" M    25.50,   596.69  L    25.50,   545.69  " /></a><a style="cursor:pointer;" ewd:lineID="2"> d=" M    84.99,   392.72  L    84.99,    35.78  L   458.92,    35.78  L   458.92,   403.20 
	
		<path style="stroke:#000000;stroke-width: 5.10 ;&st6;" d=" M    84.99,   392.72  L    84.99,    35.78  L   458.92,    35.78  L   458.92,   403.20  " /><path style="stroke:#FFFFFF;stroke-width: 4.53 ;&st6;" d=" M    84.99,   392.72  L    84.99,    35.78  L   458.92,    35.78  L   458.92,   403.20  " /></a><a ewd:comment="1" style="cursor:pointer;" ewd:lineID="3"><path style="stroke:#008837;stroke-width: 5.10 ;&st6;" d=" M   203.97,   519.63  L   203.97,   511.70  L   195.47,   503.20  L   144.48,   503.20  L   144.48,   308.87  " /></a><a ewd:comment="2" style="cursor:pointer;" ewd:lineID="4"><path style="stroke:#008837;stroke-width: 5.10 ;&st6;" d=" M   203.97,   409.72  L   203.97,   519.63  " /></a><a ewd:comment="2" style="cursor:pointer;" ewd:lineID="5"><path style="stroke:#008837;stroke-width: 5.10 ;&st6;" d=" M   203.97,   392.72  L   203.97,   317.93  " /></a><a ewd:comment="9" style="cursor:pointer;" ewd:lineID="6"><path style="stroke:#FF0000;stroke-width: 5.10 ;&st6;" d=" M   254.96,   519.63  L   254.96,   511.70  L   271.95,   494.70  L   271.95,   452.21  L   331.44,   452.21  L   331.44,   418.22  " /><path style="stroke:#FFFFFF;stroke-width: 2.27 ;&st6;" d=" M   254.96,   519.63  L   254.96,   511.70  L   271.95,   494.70  L   271.95,   452.21  L   331.44,   452.21  L   331.44,   418.22  " /><path style="stroke:#00A0C6;stroke-width: 1.13 ;&st6;" d=" M   254.96,   519.63  L   254.96,   511.70  L   271.95,   494.70  L   271.95,   452.21  L   331.44,   452.21  L   331.44,   418.22  " /></a><a ewd:comment="10" style="cursor:pointer;" ewd:lineID="7"><path style="stroke:#FF0000;stroke-width: 5.10 ;&st6;" d=" M   254.96,   418.22  L   254.96,   519.63  " /><path style="stroke:#FFFFFF;stroke-width: 2.27 ;&st6;" d=" M   254.96,   418.22  L   254.96,   519.63  " /><path style="stroke:#00A0C6;stroke-width: 1.13 ;&st6;" d=" M   254.96,   418.22  L   254.96,   519.63  " /></a><a ewd:comment="10" style="cursor:pointer;" ewd:lineID="8"><path style="stroke:#FF0000;stroke-width: 5.10 ;&st6;" d=" M   254.96,   231.25  L   254.96,   403.20  " /><path style="stroke:#FFFFFF;stroke-width: 2.27 ;&st6;" d=" M   254.96,   231.25  L   254.96,   403.20  " /><path style="stroke:#00A0C6;stroke-width: 1.13 ;&st6;" d=" M   254.96,   231.25  L   254.96,   403.20  " /></a><a ewd:comment="10" style="cursor:pointer;" ewd:lineID="9"><path style="stroke:#FF0000;stroke-width: 5.10 ;&st6;" d=" M   254.96,   137.76  L   254.96,   214.25  " /><path style="stroke:#FFFFFF;stroke-width: 2.27 ;&st6;" d=" M   254.96,   137.76  L   254.96,   214.25  " /><path style="stroke:#00A0C6;stroke-width: 1.13 ;&st6;" d=" M   254.96,   137.76  L   254.96,   214.25  " /></a><a style="cursor:pointer;" ewd:lineID="10"><path style="stroke:#999999;stroke-width: 5.10 ;&st6;" d=" M   288.95,   519.63  L   288.95,   469.21  L   407.93,   469.21  L   407.93,   418.22  " /></a><a style="cursor:pointer;" ewd:lineID="11"> d=" M   314.45,   519.63  L   314.45,   494.70  L   458.92,   494.70  L   458.92,   418.22 
	
		<path style="stroke:#000000;stroke-width: 5.10 ;&st6;" d=" M   314.45,   519.63  L   314.45,   494.70  L   458.92,   494.70  L   458.92,   418.22  " /><path style="stroke:#FFFFFF;stroke-width: 4.53 ;&st6;" d=" M   314.45,   519.63  L   314.45,   494.70  L   458.92,   494.70  L   458.92,   418.22  " /></a><a ewd:comment="9" style="cursor:pointer;" ewd:lineID="12"><path style="stroke:#FF0000;stroke-width: 5.10 ;&st6;" d=" M   331.44,   137.76  L   331.44,   403.20  " /><path style="stroke:#FFFFFF;stroke-width: 2.27 ;&st6;" d=" M   331.44,   137.76  L   331.44,   403.20  " /><path style="stroke:#00A0C6;stroke-width: 1.13 ;&st6;" d=" M   331.44,   137.76  L   331.44,   403.20  " /></a><a ewd:comment="11" style="cursor:pointer;" ewd:lineID="13"><path style="stroke:#999999;stroke-width: 5.10 ;&st6;" d=" M   407.93,   403.48  L   407.93,   401.22  L   399.43,   392.72  L   365.44,   392.72  L   365.44,   375.72  " /></a><a ewd:comment="11" style="cursor:pointer;" ewd:lineID="14"><path style="stroke:#999999;stroke-width: 5.10 ;&st6;" d=" M   407.93,   291.30  L   407.93,   299.24  L   399.43,   307.73  L   365.44,   307.73  L   365.44,   324.73  " /></a><a ewd:comment="12" style="cursor:pointer;" ewd:lineID="15"><path style="stroke:#999999;stroke-width: 5.10 ;&st6;" d=" M   407.93,   291.30  L   407.93,   403.48  " /></a><a style="cursor:pointer;" ewd:lineID="16"><path style="stroke:#000000;stroke-width: 5.10 ;&st6;" d=" M   407.93,   137.76  L   407.93,   205.18  " /><path style="stroke:#FFFFFF;stroke-width: 2.27 ;&st6;" d=" M   407.93,   137.76  L   407.93,   205.18  " /><path style="stroke:#FF7F00;stroke-width: 1.13 ;&st6;" d=" M   407.93,   137.76  L   407.93,   205.18  " /></a><a style="cursor:pointer;" ewd:lineID="17"><path style="stroke:#000000;stroke-width: 5.10 ;&st6;" d=" M   484.42,   510.57  L   484.42,    18.78  L    25.50,    18.78  L    25.50,   392.72  " /></a><a ewd:figtype="w2w" style="cursor:pointer;" ewd:pinNo="4" ewd:code="CA1" ewd:figID="16"><path style="&st2;" d=" M   263.46,   409.72  L   246.46,   409.72  L   246.46,   418.22  L   263.46,   418.22  L   263.46,   409.72 " /><text style="&st8;" transform="matrix(&st16;  249.35  416.09 )"><tspan x="0" style="&st18;" y="0">CA1</tspan></text></a><a ewd:figtype="w2w" style="cursor:pointer;" ewd:pinNo="3" ewd:code="CG1" ewd:figID="17"><path style="&st2;" d=" M   339.94,   409.72  L   322.95,   409.72  L   322.95,   418.22  L   339.94,   418.22  L   339.94,   409.72 " /><text style="&st8;" transform="matrix(&st16;  325.69  416.09 )"><tspan x="0" style="&st18;" y="0">CG1</tspan></text></a><a ewd:figtype="w2w" style="cursor:pointer;" ewd:pinNo="4" ewd:code="CG1" ewd:figID="18"><path style="&st2;" d=" M   416.43,   409.72  L   399.43,   409.72  L   399.43,   418.22  L   416.43,   418.22  L   416.43,   409.72 " /><text style="&st8;" transform="matrix(&st16;  402.18  416.09 )"><tspan x="0" style="&st18;" y="0">CG1</tspan></text></a><a ewd:figtype="w2w" style="cursor:pointer;" ewd:pinNo="13" ewd:code="CA1" ewd:figID="19"><path style="&st2;" d=" M   467.42,   409.72  L   450.42,   409.72  L   450.42,   418.22  L   467.42,   418.22  L   467.42,   409.72 " /><text style="&st8;" transform="matrix(&st16;  453.32  416.09 )"><tspan x="0" style="&st18;" y="0">CA1</tspan></text></a><a ewd:figtype="sp" style="cursor:pointer;" ewd:code="SP150" ewd:figID="20"><path style="&st2;" d=" M   250.71,   214.25  L   259.21,   214.25  L   263.46,   218.50  L   263.46,   227.00  L   259.21,   231.25  L   250.71,   231.25  L   246.46,   227.00  L   246.46,   218.50  L   250.71,   214.25 " /></a></g></svg>