﻿<?xml version="1.0" encoding="utf-8"?>
<!DOCTYPE svg PUBLIC "-//W3C//DTD SVG 1.0//EN" "http://www.w3.org/TR/2001/REC-SVG-20010904/DTD/svg10.dtd"[
	<!ENTITY ns_flows "http://ns.adobe.com/Flows/1.0/">
	<!ENTITY ns_svg "http://www.w3.org/2000/svg">
	<!ENTITY ns_xlink "http://www.w3.org/1999/xlink">
	<!ENTITY st0 "font-size:7px;font-family:'MS-PGothic';adobe-font-script:japanese;">
	<!ENTITY st1 "font-size:6px;font-family:'ArialMT';">
	<!-- White fill  -->
	<!ENTITY st2 "fill:#FFFFFF;stroke:#000000; stroke-width:1.41;stroke-linecap:round;stroke-linejoin:round;">
	<!-- Yellow fill  -->
	<!ENTITY st3 "fill:#FFFFCC;stroke:#FFFFCC; stroke-width:0.1;stroke-linecap:round;stroke-linejoin:round;">
	<!-- Gray fill  -->
	<!ENTITY st4 "fill:#CCCCCC;stroke:#CCCCCC; stroke-width:0.1;stroke-linecap:round;stroke-linejoin:round;">
	<!-- Light-blue fill -->
	<!ENTITY st5 "fill:#CCECF4;stroke:#000000; stroke-width:1.133;stroke-linecap:round;stroke-linejoin:round;">
	<!ENTITY st6 "fill:none;stroke-linecap:butt; stroke-linejoin:round;">
	<!ENTITY st7 "fill:none;stroke:#000000;stroke-linecap:round;stroke-linejoin:round;">
	<!ENTITY st8 "enable-background:new    ;">
	<!-- Black fill -->
	<!ENTITY st9 "fill:#000000;stroke:#000000; stroke-linecap:round;stroke-linejoin:round;">
	<!-- SRS note   -->
	<!ENTITY st10 "font-size:9px;font-family:'ArialMT';">
	<!ENTITY st11 "font-size:9px;font-family:'Svg Symbol';">
	<!ENTITY st12 "font-size:6px;font-family:'Svg Symbol';">
	<!ENTITY st13 "fill:none;stroke:#ff0000;stroke-linecap:round;stroke-linejoin:round;">
	<!-- Yellow fill  -->
	<!ENTITY st14 "fill:#FFFF00;stroke:#FFFF00; stroke-width:0.1;stroke-linecap:round;stroke-linejoin:round;">
	<!ENTITY st15 "font-size:6px;font-family:'MS-PGothic';adobe-font-script:japanese;">
	<!ENTITY st16 "1.00 0.00 0.00 1.00">
	<!ENTITY st17 "0.00 -1.00 1.00 0.00">
	<!ENTITY st18 "font-size:6px;font-family:'Arial';">
	<!ENTITY st19 "font-size:9px;font-family:'Arial';">
	<!ENTITY st20 "font-size:6px;font-family:'MS-PGothic','MS PGothic';adobe-font-script:japanese;">
	<!ENTITY st21 "font-size:7px;font-family:'MS-PGothic','MS PGothic';adobe-font-script:japanese;">
	<!ATTLIST svg
		xmlns:ewd CDATA #FIXED "http://shcl.co.jp/ewd"
		xmlns:a CDATA #FIXED "http://ns.adobe.com/AdobeSVGViewerExtensions/3.0/"
		ewd:ver CDATA #IMPLIED
	>
	<!ATTLIST a
		ewd:lineID CDATA #IMPLIED
		ewd:groupID CDATA #IMPLIED
		ewd:figtype CDATA #IMPLIED
		ewd:code CDATA #IMPLIED
		ewd:figID CDATA #IMPLIED
		ewd:pinNo CDATA #IMPLIED
		ewd:comment CDATA #IMPLIED >
	<!ATTLIST g
		ewd:lineID CDATA #IMPLIED
		ewd:groupID CDATA #IMPLIED
		ewd:figtype CDATA #IMPLIED
		ewd:code CDATA #IMPLIED
		ewd:figID CDATA #IMPLIED
		ewd:pinNo CDATA #IMPLIED
		ewd:comment CDATA #IMPLIED >
	<!ATTLIST text
		ewd:textID CDATA #IMPLIED >
	<!ATTLIST title
		ewd:textID CDATA #IMPLIED >
]>
<!-- Generator: Shintec Hozumi YS   -->
<svg onload="call_execInitLoadProc_svg('system')" style="overflow:visible;  enable-background:new 0 0 9272.659 710.000" viewBox="0 0 9272.659 710.000" height="710.000" width="9272.659" xml:space="preserve" ewd:ver="2.1.2.7" xmlns="&ns_svg;" xmlns:a="http://ns.adobe.com/AdobeSVGViewerExtensions/3.0/" xmlns:ewd="http://shcl.co.jp/ewd" xmlns:xlink="&ns_xlink;">
<text style="&st18;" transform="matrix(&st17;  5112.45  411.41 )">B</text><text style="&st18;" transform="matrix(&st17;  5086.95  411.41 )">B</text><text style="&st18;" transform="matrix(&st17;  5061.46  411.41 )">B</text><text style="&st18;" transform="matrix(&st17;  5137.94  122.45 )">B</text><text style="&st18;" transform="matrix(&st17;  5061.46  504.89 )">B</text><text style="&st18;" transform="matrix(&st16;  5153.43  575.99 )">(*1)</text><text style="&st18;" transform="matrix(&st16;  5204.42  575.99 )">(*1)</text><text style="&st18;" transform="matrix(&st16;  5205.58  558.99 )">BR</text><text style="&st18;" transform="matrix(&st16;  5154.59  558.99 )">BR</text><text style="&st18;" transform="matrix(&st16;  5152.18  643.98 )">W-B</text><text style="&st18;" transform="matrix(&st16;  5203.18  643.98 )">W-B</text><text style="&st18;" transform="matrix(&st17;  5265.42  232.82 )">L</text><text style="&st18;" transform="matrix(&st17;  5027.46  506.75 )">BR</text><text style="&st18;" transform="matrix(&st16;  5204.42  134.07 )">(*1)</text><text style="&st18;" transform="matrix(&st17;  5367.41  124.32 )">BR</text><text style="&st18;" transform="matrix(&st17;  5307.92  122.34 )">L</text><text style="&st18;" transform="matrix(&st17;  5265.42  122.45 )">Y</text><text style="&st18;" transform="matrix(&st17;  5486.39  122.45 )">Y</text><text style="&st18;" transform="matrix(&st17;  5001.97  507.91 )">(*1)</text><text style="&st18;" transform="matrix(&st17;  5027.46  414.43 )">(*1)</text><text style="&st18;" transform="matrix(&st17;  5001.97  414.43 )">(*1)</text><text style="&st18;" transform="matrix(&st17;  5435.4  235.96 )">(*1)</text><text style="&st18;" transform="matrix(&st16;  5153.43  134.07 )">(*1)</text><text style="&st18;" transform="matrix(&st17;  5086.95  504.89 )">B</text><path style="stroke-width: 1.42 ;&st7;  " d=" M  5447.59,   134.24  L  5442.62,   129.26  " /><path style="stroke-width: 1.42 ;&st7;  " d=" M  5430.59,   141.29  L  5435.56,   146.26  " /><path style="stroke-width: 1.42 ;&st7;  " d=" M  5442.62,   146.26  L  5447.59,   141.29  " /><path style="stroke-width: 1.42 ;&st7;  " d=" M  5435.56,   129.26  L  5430.59,   134.24  " /><text style="&st18;" transform="matrix(&st16;  5367.69  24.98 )">C163(A),C164(B),C166(C),C167(D),G156(E),G157(F)</text><text style="&st18;" transform="matrix(&st16;  5367.7  32.08 )">ECM</text><g ewd:figtype="conn" ewd:figID="33" ewd:code="C7"><path style="stroke-width: 0.85 ;&st7;   " d=" M  5266.59,   191.23  C  5267.96    192.63   5270.20    192.65   5271.60    191.28  " /><path style="stroke-width: 0.85 ;&st7;   " d=" M  5271.60,   191.28  C  5273.00    189.91   5273.02    187.67   5271.65    186.28  " /><path style="stroke-width: 0.85 ;&st7;   " d=" M  5271.65,   186.28  C  5270.28    184.88   5268.04    184.86   5266.64    186.22  " /><path style="stroke-width: 0.85 ;&st7;   " d=" M  5266.64,   186.22  C  5266.62    186.24   5266.61    186.26   5266.59    186.28  " /><path style="stroke-width: 0.85 ;&st7;   " d=" M  5266.59,   186.28  C  5267.96    187.67   5270.20    187.69   5271.60    186.33  " /><path style="stroke-width: 0.85 ;&st7;   " d=" M  5271.60,   186.33  C  5273.00    184.96   5273.02    182.71   5271.65    181.32  " /><path style="stroke-width: 0.85 ;&st7;   " d=" M  5271.65,   181.32  C  5270.96    180.61   5270.11    180.25   5269.12    180.25  " /><path style="stroke-width: 1.42 ;&st7;   " d=" M  5260.62,   197.25  C  5260.62    201.95   5264.43    205.75   5269.12    205.75  " /><path style="stroke-width: 1.42 ;&st7;   " d=" M  5269.12,   205.75  C  5273.81    205.75   5277.62    201.95   5277.62    197.25  " /><path style="stroke-width: 1.42 ;&st7;   " d=" M  5277.62,   180.26  C  5277.62    175.56   5273.81    171.76   5269.12    171.76  " /><path style="stroke-width: 1.42 ;&st7;   " d=" M  5269.12,   171.76  C  5264.43    171.76   5260.62    175.56   5260.62    180.26  " /><path style="stroke-width: 0.85 ;&st7;   " d=" M  5269.12,   197.25  C  5271.08    197.25   5272.66    195.67   5272.66    193.71  " /><path style="stroke-width: 0.85 ;&st7;   " d=" M  5272.66,   193.71  C  5272.66    191.76   5271.08    190.17   5269.12    190.17  " /><path style="stroke-width: 0.85 ;&st7;   " d=" M  5269.12,   190.17  C  5268.13    190.17   5267.28    190.53   5266.59    191.23  " /><path style="stroke-width: 0.85 ;&st7;  " d=" M  5269.12,   197.25  L  5269.12,   205.75  " /><path style="stroke-width: 0.85 ;&st7;  " d=" M  5269.12,   171.76  L  5269.12,   180.26  " /><path style="stroke-width: 1.42 ;&st7;  " d=" M  5277.62,   197.25  L  5277.62,   188.75  " /><path style="stroke-width: 1.42 ;&st7;  " d=" M  5260.62,   197.25  L  5260.62,   188.75  " /><path style="stroke-width: 1.42 ;&st7;  " d=" M  5277.62,   180.26  L  5277.62,   188.75  " /><path style="stroke-width: 1.42 ;&st7;  " d=" M  5260.62,   180.26  L  5260.62,   188.75  " /><text style="&st18;" transform="matrix(&st16;  5262.94  213.94 )">2</text><text style="&st18;" transform="matrix(&st16;  5262.94  168.07 )">1</text><g ewd:figtype="title"><text style="&st18;" transform="matrix(&st17;  5285.23  208.65 )">C7</text><text style="&st18;" transform="matrix(&st17;  5292.34  208.66 )" ewd:textID="13">Cam Position <tspan x="0 " dy="6.0">Sensor</tspan></text></g></g><g ewd:figtype="conn" ewd:figID="37" ewd:code="C6"><path style="stroke-width: 1.42 ;&st7;  " d=" M  5541.07,   171.76  L  5473.08,   171.76  L  5473.08,   205.75  L  5541.07,   205.75  L  5541.07,   171.76  " /><g ewd:lineID="123"><text style="&st18;" transform="matrix(&st16;  5481.39  169.19 )">1</text><path style="stroke-width: 1.42 ;&st7;   " d=" M  5494.62,   167.22  C  5494.62    164.72   5492.59    162.69   5490.08    162.69  " /><path style="stroke-width: 1.42 ;&st7;   " d=" M  5490.08,   162.69  C  5487.58    162.69   5485.55    164.72   5485.55    167.22  " /><path style="stroke-width: 1.42 ;&st7;   " d=" M  5485.55,   167.22  C  5485.55    169.73   5487.58    171.76   5490.08    171.76  " /><path style="stroke-width: 1.42 ;&st7;   " d=" M  5490.08,   171.76  C  5492.59    171.76   5494.62    169.73   5494.62    167.22  " /><text style="&st18;" transform="matrix(&st16;  5487.78  169.19 )">A</text><text style="&st18;" transform="matrix(&st16;  5484.37  179.39 )">NE+</text></g></g><g ewd:figtype="conn" ewd:figID="53" ewd:code="C163,C164,C166,C167,G156,G157"><g ewd:lineID="116"><text style="&st18;" transform="matrix(&st16;  5362.44  84.77 )">6</text><path style="stroke-width: 1.42 ;&st7;   " d=" M  5375.64,    82.80  C  5375.64     80.30   5373.61     78.27   5371.10     78.27  " /><path style="stroke-width: 1.42 ;&st7;   " d=" M  5371.10,    78.27  C  5368.60     78.27   5366.57     80.30   5366.57     82.80  " /><path style="stroke-width: 1.42 ;&st7;   " d=" M  5366.57,    82.80  C  5366.57     85.31   5368.60     87.34   5371.10     87.34  " /><path style="stroke-width: 1.42 ;&st7;   " d=" M  5371.10,    87.34  C  5373.61     87.34   5375.64     85.31   5375.64     82.80  " /><text style="&st18;" transform="matrix(&st16;  5368.91  84.77 )">B</text><text style="&st18;" transform="matrix(&st16;  5367.44  74.58 )">E1</text></g><g ewd:lineID="118"><text style="&st18;" transform="matrix(&st16;  5129.87  84.77 )">22</text><path style="stroke-width: 1.42 ;&st7;   " d=" M  5146.17,    82.80  C  5146.17     80.30   5144.14     78.27   5141.64     78.27  " /><path style="stroke-width: 1.42 ;&st7;   " d=" M  5141.64,    78.27  C  5139.14     78.27   5137.11     80.30   5137.11     82.80  " /><path style="stroke-width: 1.42 ;&st7;   " d=" M  5137.11,    82.80  C  5137.11     85.31   5139.14     87.34   5141.64     87.34  " /><path style="stroke-width: 1.42 ;&st7;   " d=" M  5141.64,    87.34  C  5144.14     87.34   5146.17     85.31   5146.17     82.80  " /><text style="&st18;" transform="matrix(&st16;  5139.26  84.77 )">D</text><text style="&st18;" transform="matrix(&st16;  5135.07  74.58 )">CINJ</text></g><g ewd:lineID="121"><text style="&st18;" transform="matrix(&st16;  5299.84  84.77 )">14</text><path style="stroke-width: 1.42 ;&st7;   " d=" M  5316.15,    82.80  C  5316.15     80.30   5314.12     78.27   5311.61     78.27  " /><path style="stroke-width: 1.42 ;&st7;   " d=" M  5311.61,    78.27  C  5309.11     78.27   5307.08     80.30   5307.08     82.80  " /><path style="stroke-width: 1.42 ;&st7;   " d=" M  5307.08,    82.80  C  5307.08     85.31   5309.11     87.34   5311.61     87.34  " /><path style="stroke-width: 1.42 ;&st7;   " d=" M  5311.61,    87.34  C  5314.12     87.34   5316.15     85.31   5316.15     82.80  " /><text style="&st18;" transform="matrix(&st16;  5309.31  84.77 )">A</text><text style="&st18;" transform="matrix(&st16;  5307.6  74.58 )">G-</text></g><g ewd:lineID="122"><text style="&st18;" transform="matrix(&st16;  5257.35  84.77 )">13</text><path style="stroke-width: 1.42 ;&st7;   " d=" M  5273.65,    82.80  C  5273.65     80.30   5271.62     78.27   5269.12     78.27  " /><path style="stroke-width: 1.42 ;&st7;   " d=" M  5269.12,    78.27  C  5266.62     78.27   5264.59     80.30   5264.59     82.80  " /><path style="stroke-width: 1.42 ;&st7;   " d=" M  5264.59,    82.80  C  5264.59     85.31   5266.62     87.34   5269.12     87.34  " /><path style="stroke-width: 1.42 ;&st7;   " d=" M  5269.12,    87.34  C  5271.62     87.34   5273.65     85.31   5273.65     82.80  " /><text style="&st18;" transform="matrix(&st16;  5266.82  84.77 )">A</text><text style="&st18;" transform="matrix(&st16;  5265.11  74.58 )">G+</text></g><g ewd:lineID="123"><text style="&st18;" transform="matrix(&st16;  5481.42  84.77 )">7</text><text style="&st18;" transform="matrix(&st16;  5487.78  84.77 )">A</text><path style="stroke-width: 1.42 ;&st7;   " d=" M  5494.62,    82.80  C  5494.62     80.30   5492.59     78.27   5490.08     78.27  " /><path style="stroke-width: 1.42 ;&st7;   " d=" M  5490.08,    78.27  C  5487.58     78.27   5485.55     80.30   5485.55     82.80  " /><path style="stroke-width: 1.42 ;&st7;   " d=" M  5485.55,    82.80  C  5485.55     85.31   5487.58     87.34   5490.08     87.34  " /><path style="stroke-width: 1.42 ;&st7;   " d=" M  5490.08,    87.34  C  5492.59     87.34   5494.62     85.31   5494.62     82.80  " /><text style="&st18;" transform="matrix(&st16;  5484.37  74.58 )">NE+</text></g></g><g ewd:code=" " ewd:figID="141" ewd:comment="1" ewd:figtype="sh"><path style="stroke-width: 0.85 ;&st7; stroke-dasharray:3, 1.5;" d=" M  5328.61,   137.76  L  5243.62,   137.76  L  5243.62,   103.77  L  5328.61,   103.77  L  5328.61,   137.76  " /><path style="stroke-width: 0.85 ;&st7;  " d=" M  5242.43,   136.76  L  5242.16,   137.23  L  5242.06,   137.76  L  5242.16,   138.30  L  5242.43,   138.77  L  5242.84,   139.11  L  5243.35,   139.30  L  5243.89,   139.30  L  5244.40,   139.11  L  5244.81,   138.77  L  5245.09,   138.30  L  5245.18,   137.76  L  5245.09,   137.23  L  5244.81,   136.76  L  5244.40,   136.41  L  5243.89,   136.23  L  5243.35,   136.23  L  5242.84,   136.41  L  5242.43,   136.76  L  5242.82,   137.47  L  5242.82,   138.05  L  5243.20,   138.50  L  5243.77,   138.60  L  5244.27,   138.31  L  5244.47,   137.76  L  5244.27,   137.22  L  5243.77,   136.93  L  5243.20,   137.03  L  5243.62,   137.76  " /><g ewd:code="" ewd:figID="131" ewd:comment="1" ewd:figtype="commref"><text style="&st18;" transform="matrix(&st17;  5324.91  125.48 )">(*1)</text></g></g><g ewd:code=" " ewd:figID="140" ewd:comment="1" ewd:figtype="sh"><path style="stroke-width: 0.85 ;&st7; stroke-dasharray:3, 1.5;" d=" M  5447.59,   137.76  L  5541.07,   137.76  L  5541.07,   103.77  L  5439.09,   103.77  L  5439.09,   129.26  " /><g ewd:code="" ewd:figID="132" ewd:comment="1" ewd:figtype="commref"><text style="&st18;" transform="matrix(&st17;  5537.38  125.48 )">(*1)</text></g></g><g ewd:code="1" ewd:figID="154" ewd:comment="" ewd:figtype="comment"><text style="&st18;" transform="matrix(&st16;  5240.22  335.2 )" ewd:textID="1">* 1 :Shielded</text></g></svg>