﻿<?xml version="1.0" encoding="utf-8"?>
<!DOCTYPE svg PUBLIC "-//W3C//DTD SVG 1.0//EN" "http://www.w3.org/TR/2001/REC-SVG-20010904/DTD/svg10.dtd"[
	<!ENTITY ns_flows "http://ns.adobe.com/Flows/1.0/">
	<!ENTITY ns_svg "http://www.w3.org/2000/svg">
	<!ENTITY ns_xlink "http://www.w3.org/1999/xlink">
	<!ENTITY st0 "font-size:7px;font-family:'MS-PGothic';adobe-font-script:japanese;">
	<!ENTITY st1 "font-size:6px;font-family:'ArialMT';">
	<!-- White fill  -->
	<!ENTITY st2 "fill:#FFFFFF;stroke:#000000; stroke-width:1.41;stroke-linecap:round;stroke-linejoin:round;">
	<!-- Yellow fill  -->
	<!ENTITY st3 "fill:#FFFFCC;stroke:#FFFFCC; stroke-width:0.1;stroke-linecap:round;stroke-linejoin:round;">
	<!-- Gray fill  -->
	<!ENTITY st4 "fill:#CCCCCC;stroke:#CCCCCC; stroke-width:0.1;stroke-linecap:round;stroke-linejoin:round;">
	<!-- Light-blue fill -->
	<!ENTITY st5 "fill:#CCECF4;stroke:#000000; stroke-width:1.133;stroke-linecap:round;stroke-linejoin:round;">
	<!ENTITY st6 "fill:none;stroke-linecap:butt; stroke-linejoin:round;">
	<!ENTITY st7 "fill:none;stroke:#000000;stroke-linecap:round;stroke-linejoin:round;">
	<!ENTITY st8 "enable-background:new    ;">
	<!-- Black fill -->
	<!ENTITY st9 "fill:#000000;stroke:#000000; stroke-linecap:round;stroke-linejoin:round;">
	<!-- SRS note   -->
	<!ENTITY st10 "font-size:9px;font-family:'ArialMT';">
	<!ENTITY st11 "font-size:9px;font-family:'Svg Symbol';">
	<!ENTITY st12 "font-size:6px;font-family:'Svg Symbol';">
	<!ENTITY st13 "fill:none;stroke:#ff0000;stroke-linecap:round;stroke-linejoin:round;">
	<!-- Yellow fill  -->
	<!ENTITY st14 "fill:#FFFF00;stroke:#FFFF00; stroke-width:0.1;stroke-linecap:round;stroke-linejoin:round;">
	<!ENTITY st15 "font-size:6px;font-family:'MS-PGothic';adobe-font-script:japanese;">
	<!ENTITY st16 "1.00 0.00 0.00 1.00">
	<!ENTITY st17 "0.00 -1.00 1.00 0.00">
	<!ENTITY st18 "font-size:6px;font-family:'Arial';">
	<!ENTITY st19 "font-size:9px;font-family:'Arial';">
	<!ENTITY st20 "font-size:6px;font-family:'MS-PGothic','MS PGothic';adobe-font-script:japanese;">
	<!ENTITY st21 "font-size:7px;font-family:'MS-PGothic','MS PGothic';adobe-font-script:japanese;">
	<!ATTLIST svg
		xmlns:ewd CDATA #FIXED "http://shcl.co.jp/ewd"
		xmlns:a CDATA #FIXED "http://ns.adobe.com/AdobeSVGViewerExtensions/3.0/"
		ewd:ver CDATA #IMPLIED
	>
	<!ATTLIST a
		ewd:lineID CDATA #IMPLIED
		ewd:groupID CDATA #IMPLIED
		ewd:figtype CDATA #IMPLIED
		ewd:code CDATA #IMPLIED
		ewd:figID CDATA #IMPLIED
		ewd:pinNo CDATA #IMPLIED
		ewd:comment CDATA #IMPLIED >
	<!ATTLIST g
		ewd:lineID CDATA #IMPLIED
		ewd:groupID CDATA #IMPLIED
		ewd:figtype CDATA #IMPLIED
		ewd:code CDATA #IMPLIED
		ewd:figID CDATA #IMPLIED
		ewd:pinNo CDATA #IMPLIED
		ewd:comment CDATA #IMPLIED >
	<!ATTLIST text
		ewd:textID CDATA #IMPLIED >
	<!ATTLIST title
		ewd:textID CDATA #IMPLIED >
]>
<!-- Generator: Shintec Hozumi YS   -->
<svg onload="call_execInitLoadProc_svg('system')" style="overflow:visible;  enable-background:new 0 0 8805.054 710.000" viewBox="0 0 8805.054 710.000" height="710.000" width="8805.054" xml:space="preserve" ewd:ver="2.1.2.7" xmlns="&ns_svg;" xmlns:a="http://ns.adobe.com/AdobeSVGViewerExtensions/3.0/" xmlns:ewd="http://shcl.co.jp/ewd" xmlns:xlink="&ns_xlink;">
<text style="&st18;" transform="matrix(&st17;  4033.13  288.19 )">B-W</text><text style="&st18;" transform="matrix(&st17;  4033.13  134.44 )">B-Y</text><text style="&st18;" transform="matrix(&st17;  4194.6  275.43 )">B</text><text style="&st18;" transform="matrix(&st16;  4330.86  24.98 )">C111(A),C112(B),C113(C),C114(D),G148(E),G149(F)</text><text style="&st18;" transform="matrix(&st17;  4271.09  492.16 )">W-B</text><text style="&st18;" transform="matrix(&st17;  4271.09  326.42 )">B</text><text style="&st18;" transform="matrix(&st17;  4322.08  130.76 )">P</text><text style="&st18;" transform="matrix(&st17;  4364.57  135.22 )">B-W</text><text style="&st18;" transform="matrix(&st17;  4407.07  130.88 )">R</text><text style="&st18;" transform="matrix(&st17;  4492.05  134.36 )">Y-R</text><text style="&st18;" transform="matrix(&st17;  4449.56  131.07 )">V</text><text style="&st18;" transform="matrix(&st17;  4271.09  241.43 )">B</text><text style="&st18;" transform="matrix(&st16;  4330.87  32.08 )">ECM</text><path style="stroke-width: 1.42 ;&st7;  " d=" M  4266.29,   282.24  L  4274.79,   282.24  " /><path style="stroke-width: 1.42 ;&st7;  " d=" M  4215.30,   282.24  L  4223.79,   282.24  " /><text style="&st18;" transform="matrix(&st16;  4116.6  457.01 )">(*4)</text><text style="&st18;" transform="matrix(&st16;  4119.62  575.99 )">B</text><text style="&st18;" transform="matrix(&st16;  4170.61  575.99 )">B</text><text style="&st18;" transform="matrix(&st16;  4167.59  457.01 )">(*4)</text><path style="stroke-width: 1.42 ;&st7;  " d=" M  4283.28,   525.17  L  4278.31,   520.20  " /><path style="stroke-width: 1.42 ;&st7;  " d=" M  4266.29,   532.23  L  4271.26,   537.20  " /><path style="stroke-width: 1.42 ;&st7;  " d=" M  4278.31,   537.20  L  4283.28,   532.23  " /><path style="stroke-width: 1.42 ;&st7;  " d=" M  4271.26,   520.20  L  4266.29,   525.17  " /><text style="&st18;" transform="matrix(&st17;  4271.09  577.14 )">W-B</text><g ewd:figtype="conn" ewd:figID="13" ewd:code="C111,C112,C113,C114,G148,G149"><g ewd:lineID="112"><text style="&st18;" transform="matrix(&st16;  4028.13  84.77 )">1</text><path style="stroke-width: 1.42 ;&st7;   " d=" M  4041.36,    82.80  C  4041.36     80.30   4039.33     78.27   4036.83     78.27  " /><path style="stroke-width: 1.42 ;&st7;   " d=" M  4036.83,    78.27  C  4034.32     78.27   4032.29     80.30   4032.29     82.80  " /><path style="stroke-width: 1.42 ;&st7;   " d=" M  4032.29,    82.80  C  4032.29     85.31   4034.32     87.34   4036.83     87.34  " /><path style="stroke-width: 1.42 ;&st7;   " d=" M  4036.83,    87.34  C  4039.33     87.34   4041.36     85.31   4041.36     82.80  " /><text style="&st18;" transform="matrix(&st16;  4034.44  84.77 )">D</text><text style="&st18;" transform="matrix(&st16;  4027.85  74.58 )">THCO</text></g><g ewd:lineID="117"><text style="&st18;" transform="matrix(&st16;  4314.01  84.77 )">20</text><text style="&st18;" transform="matrix(&st16;  4323.36  84.77 )">C</text><path style="stroke-width: 1.42 ;&st7;   " d=" M  4330.31,    82.80  C  4330.31     80.30   4328.28     78.27   4325.78     78.27  " /><path style="stroke-width: 1.42 ;&st7;   " d=" M  4325.78,    78.27  C  4323.27     78.27   4321.24     80.30   4321.24     82.80  " /><path style="stroke-width: 1.42 ;&st7;   " d=" M  4321.24,    82.80  C  4321.24     85.31   4323.27     87.34   4325.78     87.34  " /><path style="stroke-width: 1.42 ;&st7;   " d=" M  4325.78,    87.34  C  4328.28     87.34   4330.31     85.31   4330.31     82.80  " /><text style="&st18;" transform="matrix(&st16;  4319.52  74.58 )">INJF</text></g><g ewd:lineID="118"><text style="&st18;" transform="matrix(&st16;  4356.5  84.77 )">21</text><path style="stroke-width: 1.42 ;&st7;   " d=" M  4372.80,    82.80  C  4372.80     80.30   4370.77     78.27   4368.27     78.27  " /><path style="stroke-width: 1.42 ;&st7;   " d=" M  4368.27,    78.27  C  4365.77     78.27   4363.74     80.30   4363.74     82.80  " /><path style="stroke-width: 1.42 ;&st7;   " d=" M  4363.74,    82.80  C  4363.74     85.31   4365.77     87.34   4368.27     87.34  " /><path style="stroke-width: 1.42 ;&st7;   " d=" M  4368.27,    87.34  C  4370.77     87.34   4372.80     85.31   4372.80     82.80  " /><text style="&st18;" transform="matrix(&st16;  4365.85  84.77 )">C</text><text style="&st18;" transform="matrix(&st16;  4364.92  74.58 )">#1</text></g><g ewd:lineID="119"><text style="&st18;" transform="matrix(&st16;  4399.0  84.77 )">22</text><text style="&st18;" transform="matrix(&st16;  4408.34  84.77 )">C</text><path style="stroke-width: 1.42 ;&st7;   " d=" M  4415.30,    82.80  C  4415.30     80.30   4413.27     78.27   4410.76     78.27  " /><path style="stroke-width: 1.42 ;&st7;   " d=" M  4410.76,    78.27  C  4408.26     78.27   4406.23     80.30   4406.23     82.80  " /><path style="stroke-width: 1.42 ;&st7;   " d=" M  4406.23,    82.80  C  4406.23     85.31   4408.26     87.34   4410.76     87.34  " /><path style="stroke-width: 1.42 ;&st7;   " d=" M  4410.76,    87.34  C  4413.27     87.34   4415.30     85.31   4415.30     82.80  " /><text style="&st18;" transform="matrix(&st16;  4407.41  74.58 )">#2</text></g><g ewd:lineID="120"><text style="&st18;" transform="matrix(&st16;  4441.49  84.77 )">23</text><path style="stroke-width: 1.42 ;&st7;   " d=" M  4457.79,    82.80  C  4457.79     80.30   4455.76     78.27   4453.26     78.27  " /><path style="stroke-width: 1.42 ;&st7;   " d=" M  4453.26,    78.27  C  4450.75     78.27   4448.72     80.30   4448.72     82.80  " /><path style="stroke-width: 1.42 ;&st7;   " d=" M  4448.72,    82.80  C  4448.72     85.31   4450.75     87.34   4453.26     87.34  " /><path style="stroke-width: 1.42 ;&st7;   " d=" M  4453.26,    87.34  C  4455.76     87.34   4457.79     85.31   4457.79     82.80  " /><text style="&st18;" transform="matrix(&st16;  4450.84  84.77 )">C</text><text style="&st18;" transform="matrix(&st16;  4449.9  74.58 )">#3</text></g><g ewd:lineID="121"><text style="&st18;" transform="matrix(&st16;  4483.98  84.77 )">24</text><path style="stroke-width: 1.42 ;&st7;   " d=" M  4495.75,    78.27  C  4493.25     78.27   4491.22     80.30   4491.22     82.80  " /><path style="stroke-width: 1.42 ;&st7;   " d=" M  4491.22,    82.80  C  4491.22     85.31   4493.25     87.34   4495.75     87.34  " /><path style="stroke-width: 1.42 ;&st7;   " d=" M  4495.75,    87.34  C  4498.25     87.34   4500.28     85.31   4500.28     82.80  " /><text style="&st18;" transform="matrix(&st16;  4493.33  84.77 )">C</text><text style="&st18;" transform="matrix(&st16;  4492.4  74.58 )">#4</text></g></g><g ewd:figtype="conn" ewd:figID="41" ewd:code="C123"><path style="stroke-width: 1.42 ;&st7;  " d=" M  4019.83,   205.75  L  4019.83,   239.75  L  4053.82,   239.75  L  4053.82,   205.75  L  4019.83,   205.75  " /><g ewd:lineID="111"><text style="&st18;" transform="matrix(&st16;  4030.64  247.94 )">2</text><text style="&st18;" transform="matrix(&st16;  4033.16  236.05 )">E2</text></g><g ewd:lineID="112"><text style="&st18;" transform="matrix(&st16;  4030.64  202.06 )">1</text><text style="&st18;" transform="matrix(&st16;  4027.85  213.39 )">THCO</text></g><g ewd:figtype="title"><text style="&st18;" transform="matrix(&st17;  4061.43  242.64 )">C123</text><text style="&st18;" transform="matrix(&st17;  4068.54  242.65 )" ewd:textID="39">No. 3 Exhaust Gas <tspan x="0 " dy="6.0">Temperature Sensor</tspan></text></g></g><g ewd:figtype="conn" ewd:figID="44" ewd:code="C107,C108,C109,C110"><path style="stroke-width: 1.42 ;&st7;  " d=" M  4257.79,   375.72  L  5141.64,   375.72  L  5141.64,   409.72  L  4257.79,   409.72  L  4257.79,   375.72  " /><g ewd:lineID="114"><text style="&st18;" transform="matrix(&st16;  4266.09  416.22 )">4</text><text style="&st18;" transform="matrix(&st16;  4272.48  416.22 )">A</text><path style="stroke-width: 1.42 ;&st7;   " d=" M  4279.32,   414.25  C  4279.32    411.75   4277.29    409.72   4274.79    409.72  " /><path style="stroke-width: 1.42 ;&st7;   " d=" M  4274.79,   409.72  C  4272.28    409.72   4270.25    411.75   4270.25    414.25  " /><path style="stroke-width: 1.42 ;&st7;   " d=" M  4270.25,   414.25  C  4270.25    416.75   4272.28    418.78   4274.79    418.78  " /><path style="stroke-width: 1.42 ;&st7;   " d=" M  4274.79,   418.78  C  4277.29    418.78   4279.32    416.75   4279.32    414.25  " /><text style="&st18;" transform="matrix(&st16;  4268.14  406.02 )">GND</text></g><g ewd:lineID="115"><text style="&st18;" transform="matrix(&st16;  4266.09  373.16 )">2</text><text style="&st18;" transform="matrix(&st16;  4272.48  373.16 )">A</text><path style="stroke-width: 1.42 ;&st7;   " d=" M  4279.32,   371.19  C  4279.32    368.69   4277.29    366.66   4274.79    366.66  " /><path style="stroke-width: 1.42 ;&st7;   " d=" M  4274.79,   366.66  C  4272.28    366.66   4270.25    368.69   4270.25    371.19  " /><path style="stroke-width: 1.42 ;&st7;   " d=" M  4270.25,   371.19  C  4270.25    373.69   4272.28    375.72   4274.79    375.72  " /><path style="stroke-width: 1.42 ;&st7;   " d=" M  4274.79,   375.72  C  4277.29    375.72   4279.32    373.69   4279.32    371.19  " /><text style="&st18;" transform="matrix(&st16;  4271.05  383.36 )">+B</text></g><g ewd:lineID="117"><text style="&st18;" transform="matrix(&st16;  4317.08  373.16 )">8</text><path style="stroke-width: 1.42 ;&st7;   " d=" M  4330.31,   371.19  C  4330.31    368.69   4328.28    366.66   4325.78    366.66  " /><path style="stroke-width: 1.42 ;&st7;   " d=" M  4325.78,   366.66  C  4323.27    366.66   4321.24    368.69   4321.24    371.19  " /><path style="stroke-width: 1.42 ;&st7;   " d=" M  4321.24,   371.19  C  4321.24    373.69   4323.27    375.72   4325.78    375.72  " /><path style="stroke-width: 1.42 ;&st7;   " d=" M  4325.78,   375.72  C  4328.28    375.72   4330.31    373.69   4330.31    371.19  " /><text style="&st18;" transform="matrix(&st16;  4323.36  373.16 )">C</text><text style="&st18;" transform="matrix(&st16;  4319.52  383.36 )">INJF</text></g><g ewd:lineID="118"><text style="&st18;" transform="matrix(&st16;  4359.58  373.16 )">7</text><path style="stroke-width: 1.42 ;&st7;   " d=" M  4372.80,   371.19  C  4372.80    368.69   4370.77    366.66   4368.27    366.66  " /><path style="stroke-width: 1.42 ;&st7;   " d=" M  4368.27,   366.66  C  4365.77    366.66   4363.74    368.69   4363.74    371.19  " /><path style="stroke-width: 1.42 ;&st7;   " d=" M  4363.74,   371.19  C  4363.74    373.69   4365.77    375.72   4368.27    375.72  " /><path style="stroke-width: 1.42 ;&st7;   " d=" M  4368.27,   375.72  C  4370.77    375.72   4372.80    373.69   4372.80    371.19  " /><text style="&st18;" transform="matrix(&st16;  4365.85  373.16 )">C</text><text style="&st18;" transform="matrix(&st16;  4363.37  383.36 )">#10</text></g><g ewd:lineID="119"><text style="&st18;" transform="matrix(&st16;  4402.07  373.16 )">3</text><text style="&st18;" transform="matrix(&st16;  4408.34  373.16 )">C</text><path style="stroke-width: 1.42 ;&st7;   " d=" M  4415.30,   371.19  C  4415.30    368.69   4413.27    366.66   4410.76    366.66  " /><path style="stroke-width: 1.42 ;&st7;   " d=" M  4410.76,   366.66  C  4408.26    366.66   4406.23    368.69   4406.23    371.19  " /><path style="stroke-width: 1.42 ;&st7;   " d=" M  4406.23,   371.19  C  4406.23    373.69   4408.26    375.72   4410.76    375.72  " /><path style="stroke-width: 1.42 ;&st7;   " d=" M  4410.76,   375.72  C  4413.27    375.72   4415.30    373.69   4415.30    371.19  " /><text style="&st18;" transform="matrix(&st16;  4405.86  383.36 )">#20</text></g><g ewd:lineID="120"><text style="&st18;" transform="matrix(&st16;  4444.56  373.16 )">6</text><text style="&st18;" transform="matrix(&st16;  4450.84  373.16 )">C</text><path style="stroke-width: 1.42 ;&st7;   " d=" M  4457.79,   371.19  C  4457.79    368.69   4455.76    366.66   4453.26    366.66  " /><path style="stroke-width: 1.42 ;&st7;   " d=" M  4453.26,   366.66  C  4450.75    366.66   4448.72    368.69   4448.72    371.19  " /><path style="stroke-width: 1.42 ;&st7;   " d=" M  4448.72,   371.19  C  4448.72    373.69   4450.75    375.72   4453.26    375.72  " /><path style="stroke-width: 1.42 ;&st7;   " d=" M  4453.26,   375.72  C  4455.76    375.72   4457.79    373.69   4457.79    371.19  " /><text style="&st18;" transform="matrix(&st16;  4448.35  383.36 )">#30</text></g><g ewd:lineID="121"><text style="&st18;" transform="matrix(&st16;  4487.05  373.16 )">4</text><path style="stroke-width: 1.42 ;&st7;   " d=" M  4495.75,   366.66  C  4493.25    366.66   4491.22    368.69   4491.22    371.19  " /><path style="stroke-width: 1.42 ;&st7;   " d=" M  4491.22,   371.19  C  4491.22    373.69   4493.25    375.72   4495.75    375.72  " /><path style="stroke-width: 1.42 ;&st7;   " d=" M  4495.75,   375.72  C  4498.25    375.72   4500.28    373.69   4500.28    371.19  " /><text style="&st18;" transform="matrix(&st16;  4493.33  373.16 )">C</text><text style="&st18;" transform="matrix(&st16;  4490.85  383.36 )">#40</text></g><g ewd:figtype="title"><text style="&st18;" transform="matrix(&st16;  4313.87  424.43 )" ewd:textID="32">Injector Driver</text><text style="&st18;" transform="matrix(&st16;  4313.87  417.33 )">C107(A),C108(B),C109(C),C110(D)</text></g></g><g ewd:figtype="w2w" ewd:figID="82" ewd:code="CA1"><text style="&st18;" transform="matrix(&st16;  4211.16  288.46 )">3</text><path style="stroke-width: 1.42 ;&st7;  " d=" M  4219.54,   273.17  L  4223.79,   277.42  L  4228.04,   273.17  " /><path style="stroke-width: 1.42 ;&st7;  " d=" M  4228.04,   276.57  L  4223.79,   280.82  L  4219.54,   276.57  " /></g><g ewd:figtype="w2w" ewd:figID="83" ewd:code="CA1"><text style="&st18;" transform="matrix(&st16;  4262.15  288.46 )">2</text><path style="stroke-width: 1.42 ;&st7;  " d=" M  4270.53,   273.17  L  4274.78,   277.42  L  4279.03,   273.17  " /><path style="stroke-width: 1.42 ;&st7;  " d=" M  4279.03,   276.57  L  4274.78,   280.82  L  4270.53,   276.57  " /></g><g ewd:figtype="gp" ewd:figID="92" ewd:code="C1"><path style="stroke-width: 0.85 ;&st7;  " d=" M  4273.37,   710.00  L  4276.20,   710.00  " /><path style="stroke-width: 0.85 ;&st7;  " d=" M  4271.95,   707.17  L  4277.62,   707.17  " /><path style="stroke-width: 0.85 ;&st7;  " d=" M  4270.53,   704.33  L  4279.03,   704.33  " /><path style="stroke-width: 0.85 ;&st7;  " d=" M  4266.29,   701.50  L  4283.28,   701.50  " /><path style="stroke-width: 0.85 ;&st7;  " d=" M  4274.78,   697.25  L  4274.78,   701.50  " /></g><g ewd:code=" " ewd:figID="156" ewd:comment="4" ewd:figtype="sh"><path style="stroke-width: 0.85 ;&st7; stroke-dasharray:3, 1.5;" d=" M  4223.79,   307.73  L  4291.78,   307.73  L  4291.78,   341.73  L  4223.79,   341.73  L  4223.79,   307.73  " /><path style="stroke-width: 0.85 ;&st7;  " d=" M  4222.60,   306.73  L  4222.33,   307.20  L  4222.23,   307.73  L  4222.33,   308.27  L  4222.60,   308.74  L  4223.01,   309.08  L  4223.52,   309.27  L  4224.06,   309.27  L  4224.57,   309.08  L  4224.99,   308.74  L  4225.26,   308.27  L  4225.35,   307.73  L  4225.26,   307.20  L  4224.99,   306.73  L  4224.57,   306.39  L  4224.06,   306.20  L  4223.52,   306.20  L  4223.01,   306.39  L  4222.60,   306.73  L  4222.99,   307.44  L  4222.99,   308.03  L  4223.37,   308.47  L  4223.94,   308.57  L  4224.44,   308.28  L  4224.64,   307.73  L  4224.44,   307.19  L  4223.94,   306.90  L  4223.37,   307.00  L  4223.79,   307.73  " /><path style="stroke-width: 0.85 ;&st7;  " d=" M  4222.60,   340.73  L  4222.33,   341.20  L  4222.23,   341.73  L  4222.33,   342.26  L  4222.60,   342.73  L  4223.01,   343.08  L  4223.52,   343.26  L  4224.06,   343.26  L  4224.57,   343.08  L  4224.99,   342.73  L  4225.26,   342.26  L  4225.35,   341.73  L  4225.26,   341.20  L  4224.99,   340.73  L  4224.57,   340.38  L  4224.06,   340.19  L  4223.52,   340.19  L  4223.01,   340.38  L  4222.60,   340.73  L  4222.99,   341.44  L  4222.99,   342.02  L  4223.37,   342.46  L  4223.94,   342.56  L  4224.44,   342.28  L  4224.64,   341.73  L  4224.44,   341.18  L  4223.94,   340.89  L  4223.37,   340.99  L  4223.79,   341.73  " /><g ewd:code="" ewd:figID="150" ewd:comment="4" ewd:figtype="commref"><text style="&st18;" transform="matrix(&st17;  4220.1  329.44 )">(*4)</text></g></g><g ewd:code=" " ewd:figID="168" ewd:comment="4" ewd:figtype="sh"><path style="stroke-width: 0.85 ;&st7; stroke-dasharray:3, 1.5;" d=" M  4223.79,   256.74  L  4291.78,   256.74  L  4291.78,   222.75  L  4223.79,   222.75  L  4223.79,   256.74  " /><path style="stroke-width: 0.85 ;&st7;  " d=" M  4222.60,   255.74  L  4222.33,   256.21  L  4222.23,   256.74  L  4222.33,   257.28  L  4222.60,   257.75  L  4223.01,   258.09  L  4223.52,   258.28  L  4224.06,   258.28  L  4224.57,   258.09  L  4224.99,   257.75  L  4225.26,   257.28  L  4225.35,   256.74  L  4225.26,   256.21  L  4224.99,   255.74  L  4224.57,   255.39  L  4224.06,   255.21  L  4223.52,   255.21  L  4223.01,   255.39  L  4222.60,   255.74  L  4222.99,   256.45  L  4222.99,   257.03  L  4223.37,   257.48  L  4223.94,   257.58  L  4224.44,   257.29  L  4224.64,   256.74  L  4224.44,   256.20  L  4223.94,   255.91  L  4223.37,   256.01  L  4223.79,   256.74  " /><g ewd:code="" ewd:figID="151" ewd:comment="4" ewd:figtype="commref"><text style="&st18;" transform="matrix(&st17;  4220.1  244.46 )">(*4)</text></g></g><g ewd:code="4" ewd:figID="152" ewd:comment="" ewd:figtype="comment"><text style="&st18;" transform="matrix(&st16;  4398.86  547.66 )" ewd:textID="1">* 4 :Shielded</text></g></svg>