﻿<?xml version="1.0" encoding="utf-8"?>
<!DOCTYPE svg PUBLIC "-//W3C//DTD SVG 1.0//EN" "http://www.w3.org/TR/2001/REC-SVG-20010904/DTD/svg10.dtd"[
	<!ENTITY ns_flows "http://ns.adobe.com/Flows/1.0/">
	<!ENTITY ns_svg "http://www.w3.org/2000/svg">
	<!ENTITY ns_xlink "http://www.w3.org/1999/xlink">
	<!ENTITY st0 "font-size:7px;font-family:'MS-PGothic';adobe-font-script:japanese;">
	<!ENTITY st1 "font-size:6px;font-family:'ArialMT';">
	<!-- White fill  -->
	<!ENTITY st2 "fill:#FFFFFF;stroke:#000000; stroke-width:1.41;stroke-linecap:round;stroke-linejoin:round;">
	<!-- Yellow fill  -->
	<!ENTITY st3 "fill:#FFFFCC;stroke:#FFFFCC; stroke-width:0.1;stroke-linecap:round;stroke-linejoin:round;">
	<!-- Gray fill  -->
	<!ENTITY st4 "fill:#CCCCCC;stroke:#CCCCCC; stroke-width:0.1;stroke-linecap:round;stroke-linejoin:round;">
	<!-- Light-blue fill -->
	<!ENTITY st5 "fill:#CCECF4;stroke:#000000; stroke-width:1.133;stroke-linecap:round;stroke-linejoin:round;">
	<!ENTITY st6 "fill:none;stroke-linecap:butt; stroke-linejoin:round;">
	<!ENTITY st7 "fill:none;stroke:#000000;stroke-linecap:round;stroke-linejoin:round;">
	<!ENTITY st8 "enable-background:new    ;">
	<!-- Black fill -->
	<!ENTITY st9 "fill:#000000;stroke:#000000; stroke-linecap:round;stroke-linejoin:round;">
	<!-- SRS note   -->
	<!ENTITY st10 "font-size:9px;font-family:'ArialMT';">
	<!ENTITY st11 "font-size:9px;font-family:'Svg Symbol';">
	<!ENTITY st12 "font-size:6px;font-family:'Svg Symbol';">
	<!ENTITY st13 "fill:none;stroke:#ff0000;stroke-linecap:round;stroke-linejoin:round;">
	<!-- Yellow fill  -->
	<!ENTITY st14 "fill:#FFFF00;stroke:#FFFF00; stroke-width:0.1;stroke-linecap:round;stroke-linejoin:round;">
	<!ENTITY st15 "font-size:6px;font-family:'MS-PGothic';adobe-font-script:japanese;">
	<!ENTITY st16 "1.00 0.00 0.00 1.00">
	<!ENTITY st17 "0.00 -1.00 1.00 0.00">
	<!ENTITY st18 "font-size:6px;font-family:'Arial';">
	<!ENTITY st19 "font-size:9px;font-family:'Arial';">
	<!ENTITY st20 "font-size:6px;font-family:'MS-PGothic','MS PGothic';adobe-font-script:japanese;">
	<!ENTITY st21 "font-size:7px;font-family:'MS-PGothic','MS PGothic';adobe-font-script:japanese;">
	<!ATTLIST svg
		xmlns:ewd CDATA #FIXED "http://shcl.co.jp/ewd"
		xmlns:a CDATA #FIXED "http://ns.adobe.com/AdobeSVGViewerExtensions/3.0/"
		ewd:ver CDATA #IMPLIED
	>
	<!ATTLIST a
		ewd:lineID CDATA #IMPLIED
		ewd:groupID CDATA #IMPLIED
		ewd:figtype CDATA #IMPLIED
		ewd:code CDATA #IMPLIED
		ewd:figID CDATA #IMPLIED
		ewd:pinNo CDATA #IMPLIED
		ewd:comment CDATA #IMPLIED >
	<!ATTLIST g
		ewd:lineID CDATA #IMPLIED
		ewd:groupID CDATA #IMPLIED
		ewd:figtype CDATA #IMPLIED
		ewd:code CDATA #IMPLIED
		ewd:figID CDATA #IMPLIED
		ewd:pinNo CDATA #IMPLIED
		ewd:comment CDATA #IMPLIED >
	<!ATTLIST text
		ewd:textID CDATA #IMPLIED >
	<!ATTLIST title
		ewd:textID CDATA #IMPLIED >
]>
<!-- Generator: Shintec Hozumi YS   -->
<svg onload="call_execInitLoadProc_svg('system')" style="overflow:visible;  enable-background:new 0 0 4581.443 710.000" viewBox="0 0 4581.443 710.000" height="710.000" width="4581.443" xml:space="preserve" ewd:ver="2.1.2.7" xmlns="&ns_svg;" xmlns:a="http://ns.adobe.com/AdobeSVGViewerExtensions/3.0/" xmlns:ewd="http://shcl.co.jp/ewd" xmlns:xlink="&ns_xlink;">
<text style="&st18;" transform="matrix(&st17;  2647.86  304.22 )">R-L</text><text style="&st18;" transform="matrix(&st17;  2766.84  364.18 )">G-B</text><text style="&st18;" transform="matrix(&st17;  2792.34  363.83 )">R-B</text><text style="&st18;" transform="matrix(&st17;  2902.82  313.61 )">R-W</text><text style="&st18;" transform="matrix(&st17;  2928.31  313.18 )">G-Y</text><text style="&st18;" transform="matrix(&st17;  2979.31  309.31 )">L</text><text style="&st18;" transform="matrix(&st17;  2902.82  228.62 )">R-W</text><text style="&st18;" transform="matrix(&st17;  2928.31  228.2 )">G-Y</text><text style="&st18;" transform="matrix(&st17;  2979.31  224.32 )">L</text><text style="&st18;" transform="matrix(&st17;  2817.83  295.84 )">R-Y</text><text style="&st18;" transform="matrix(&st17;  2647.86  372.21 )">R-L</text><text style="&st18;" transform="matrix(&st17;  2851.83  176.86 )">R-Y</text><text style="&st18;" transform="matrix(&st16;  2560.85  643.98 )">V-R</text><text style="&st18;" transform="matrix(&st16;  2611.85  643.98 )">V-R</text><text style="&st18;" transform="matrix(&st16;  2564.58  618.48 )">P</text><text style="&st18;" transform="matrix(&st16;  2615.57  618.48 )">P</text><text style="&st18;" transform="matrix(&st16;  2560.2  601.49 )">G-O</text><text style="&st18;" transform="matrix(&st16;  2611.19  601.49 )">G-O</text><text style="&st18;" transform="matrix(&st16;  2560.62  202.05 )">G-Y</text><text style="&st18;" transform="matrix(&st16;  2611.61  202.05 )">G-Y</text><text style="&st18;" transform="matrix(&st17;  2537.38  314.93 )">GR-L</text><text style="&st18;" transform="matrix(&st17;  2503.39  312.83 )">R-Y</text><text style="&st18;" transform="matrix(&st17;  2537.38  441.09 )">G-O</text><text style="&st18;" transform="matrix(&st17;  2953.81  228.2 )">G-Y</text><text style="&st18;" transform="matrix(&st16;  2558.88  185.06 )">GR-L</text><text style="&st18;" transform="matrix(&st16;  2609.87  185.06 )">GR-L</text><text style="&st18;" transform="matrix(&st16;  2560.97  168.06 )">R-Y</text><text style="&st18;" transform="matrix(&st16;  2611.96  168.06 )">R-Y</text><text style="&st18;" transform="matrix(&st16;  2560.62  151.06 )">G-Y</text><text style="&st18;" transform="matrix(&st16;  2611.61  151.06 )">G-Y</text><text style="&st18;" transform="matrix(&st17;  2766.84  279.19 )">G-B</text><text style="&st18;" transform="matrix(&st16;  2564.5  134.07 )">L</text><path style="stroke-width: 1.42 ;&st7;  " d=" M  2643.06,   333.23  L  2651.56,   333.23  " /><path style="stroke-width: 1.42 ;&st7;  " d=" M  2779.04,   307.73  L  2770.54,   307.73  " /><path style="stroke-width: 1.42 ;&st7;  " d=" M  2830.03,   307.73  L  2821.53,   307.73  " /><text style="&st18;" transform="matrix(&st16;  2615.49  134.07 )">L</text><text style="&st18;" transform="matrix(&st16;  2560.7  117.07 )">G-R</text><text style="&st18;" transform="matrix(&st16;  2611.69  117.07 )">G-R</text><text style="&st18;" transform="matrix(&st17;  2506.22  443.22 )">(4WD)</text><text style="&st18;" transform="matrix(&st16;  2558.06  629.82 )">(4WD)</text><text style="&st18;" transform="matrix(&st16;  2609.05  629.82 )">(4WD)</text><g ewd:figtype="conn" ewd:figID="24" ewd:code="C24,G40,G41"><g ewd:lineID="107"><path style="stroke-width: 1.42 ;&st7;   " d=" M  2503.12,   405.75  C  2503.12    403.25   2501.09    401.22   2498.58    401.22  " /></g><g ewd:lineID="108"><text style="&st18;" transform="matrix(&st16;  2529.28  407.72 )">13</text><path style="stroke-width: 1.42 ;&st7;   " d=" M  2545.61,   405.75  C  2545.61    403.25   2543.58    401.22   2541.08    401.22  " /><path style="stroke-width: 1.42 ;&st7;   " d=" M  2541.08,   401.22  C  2538.57    401.22   2536.54    403.25   2536.54    405.75  " /><path style="stroke-width: 1.42 ;&st7;   " d=" M  2536.54,   405.75  C  2536.54    408.25   2538.57    410.28   2541.08    410.28  " /><path style="stroke-width: 1.42 ;&st7;   " d=" M  2541.08,   410.28  C  2543.58    410.28   2545.61    408.25   2545.61    405.75  " /><text style="&st18;" transform="matrix(&st16;  2538.89  407.72 )">B</text><text style="&st18;" transform="matrix(&st16;  2539.27  397.52 )">4</text></g><g ewd:lineID="115"><text style="&st18;" transform="matrix(&st16;  2504.89  356.16 )">B</text><path style="stroke-width: 1.42 ;&st7;   " d=" M  2511.61,   354.19  C  2511.61    351.69   2509.58    349.66   2507.08    349.66  " /><path style="stroke-width: 1.42 ;&st7;   " d=" M  2507.08,   349.66  C  2504.58    349.66   2502.55    351.69   2502.55    354.19  " /><path style="stroke-width: 1.42 ;&st7;   " d=" M  2502.55,   354.19  C  2502.55    356.70   2504.58    358.73   2507.08    358.73  " /><path style="stroke-width: 1.42 ;&st7;   " d=" M  2507.08,   358.73  C  2509.58    358.73   2511.61    356.70   2511.61    354.19  " /><text style="&st18;" transform="matrix(&st16;  2504.97  366.36 )">R</text></g><g ewd:lineID="131"><text style="&st18;" transform="matrix(&st16;  2529.28  356.16 )">10</text><path style="stroke-width: 1.42 ;&st7;   " d=" M  2545.61,   354.19  C  2545.61    351.69   2543.58    349.66   2541.08    349.66  " /><path style="stroke-width: 1.42 ;&st7;   " d=" M  2541.08,   349.66  C  2538.57    349.66   2536.54    351.69   2536.54    354.19  " /><path style="stroke-width: 1.42 ;&st7;   " d=" M  2536.54,   354.19  C  2536.54    356.70   2538.57    358.73   2541.08    358.73  " /><path style="stroke-width: 1.42 ;&st7;   " d=" M  2541.08,   358.73  C  2543.58    358.73   2545.61    356.70   2545.61    354.19  " /><text style="&st18;" transform="matrix(&st16;  2538.89  356.16 )">B</text><text style="&st18;" transform="matrix(&st16;  2539.0  366.36 )">L</text></g></g><g ewd:figtype="conn" ewd:figID="32" ewd:code="C55,G55"><path style="stroke-width: 0.85 ;&st7;  " d=" M  2930.82,   264.24  L  2930.54,   264.71  L  2930.45,   265.24  L  2930.54,   265.77  L  2930.82,   266.24  L  2931.23,   266.59  L  2931.74,   266.78  L  2932.28,   266.78  L  2932.79,   266.59  L  2933.20,   266.24  L  2933.47,   265.77  L  2933.57,   265.24  L  2933.47,   264.71  L  2933.20,   264.24  L  2932.79,   263.89  L  2932.28,   263.71  L  2931.74,   263.71  L  2931.23,   263.89  L  2930.82,   264.24  L  2931.21,   264.95  L  2931.21,   265.53  L  2931.58,   265.98  L  2932.16,   266.08  L  2932.66,   265.79  L  2932.86,   265.24  L  2932.66,   264.69  L  2932.16,   264.41  L  2931.58,   264.50  L  2932.01,   265.24  " /><path style="stroke-width: 0.85 ;&st7;  " d=" M  2957.50,   248.24  L  2957.50,   265.24  L  2932.01,   265.24  " /><path style="stroke-width: 0.85 ;&st7;  " d=" M  3059.49,   248.24  L  3059.49,   265.24  L  3033.99,   265.24  " /><path style="stroke-width: 0.85 ;&st7;  " d=" M  3032.80,   266.24  L  3032.53,   265.77  L  3032.43,   265.24  L  3032.53,   264.71  L  3032.80,   264.24  L  3033.21,   263.89  L  3033.72,   263.71  L  3034.26,   263.71  L  3034.77,   263.89  L  3035.18,   264.24  L  3035.46,   264.71  L  3035.55,   265.24  L  3035.46,   265.77  L  3035.18,   266.24  L  3034.77,   266.59  L  3034.26,   266.78  L  3033.72,   266.78  L  3033.21,   266.59  L  3032.80,   266.24  L  3033.19,   265.53  L  3033.19,   264.95  L  3033.57,   264.50  L  3034.14,   264.41  L  3034.64,   264.69  L  3034.84,   265.24  L  3034.64,   265.79  L  3034.14,   266.08  L  3033.57,   265.98  L  3033.99,   265.24  " /><path style="stroke-width: 0.85 ;&st7;  " d=" M  3008.50,   248.24  L  3008.50,   265.24  L  2983.00,   265.24  " /><path style="stroke-width: 0.85 ;&st7;  " d=" M  2981.81,   266.24  L  2981.54,   265.77  L  2981.44,   265.24  L  2981.54,   264.71  L  2981.81,   264.24  L  2982.22,   263.89  L  2982.73,   263.71  L  2983.27,   263.71  L  2983.78,   263.89  L  2984.19,   264.24  L  2984.46,   264.71  L  2984.56,   265.24  L  2984.46,   265.77  L  2984.19,   266.24  L  2983.78,   266.59  L  2983.27,   266.78  L  2982.73,   266.78  L  2982.22,   266.59  L  2981.81,   266.24  L  2982.20,   265.53  L  2982.20,   264.95  L  2982.58,   264.50  L  2983.15,   264.41  L  2983.65,   264.69  L  2983.85,   265.24  L  2983.65,   265.79  L  2983.15,   266.08  L  2982.58,   265.98  L  2983.00,   265.24  " /><path style="stroke-width: 0.85 ;&st7;  " d=" M  2906.51,   248.24  L  2906.51,   282.24  " /><path style="stroke-width: 1.13 ;&st7; stroke-dasharray:3, 3;" d=" M  3067.99,   256.74  L  2898.01,   256.74  " /><path style="stroke-width: 1.13 ;&st7; stroke-dasharray:3, 3;" d=" M  3067.99,   273.74  L  2898.01,   273.74  " /><path style="stroke-width: 1.42 ;&st7;  " d=" M  2898.01,   282.24  L  3067.99,   282.24  L  3067.99,   248.24  L  2898.01,   248.24  L  2898.01,   282.24  " /><path style="stroke-width: 0.85 ;&st7;  " d=" M  2932.01,   282.24  L  2932.01,   248.24  " /><path style="stroke-width: 0.85 ;&st7;  " d=" M  2983.00,   248.24  L  2983.00,   282.24  " /><path style="stroke-width: 0.85 ;&st7;  " d=" M  3033.99,   248.24  L  3033.99,   282.24  " /><text style="&st18;" transform="matrix(&st16;  2897.82  288.74 )">9</text><text style="&st18;" transform="matrix(&st16;  2904.21  288.74 )">A</text><path style="stroke-width: 1.42 ;&st7;   " d=" M  2911.05,   286.77  C  2911.05    284.27   2909.02    282.24   2906.51    282.24  " /><path style="stroke-width: 1.42 ;&st7;   " d=" M  2906.51,   282.24  C  2904.01    282.24   2901.98    284.27   2901.98    286.77  " /><path style="stroke-width: 1.42 ;&st7;   " d=" M  2901.98,   286.77  C  2901.98    289.27   2904.01    291.30   2906.51    291.30  " /><path style="stroke-width: 1.42 ;&st7;   " d=" M  2906.51,   291.30  C  2909.02    291.30   2911.05    289.27   2911.05    286.77  " /><text style="&st18;" transform="matrix(&st16;  2894.72  245.68 )">10</text><text style="&st18;" transform="matrix(&st16;  2904.33  245.68 )">B</text><path style="stroke-width: 1.42 ;&st7;   " d=" M  2911.05,   243.71  C  2911.05    241.21   2909.02    239.18   2906.51    239.18  " /><path style="stroke-width: 1.42 ;&st7;   " d=" M  2906.51,   239.18  C  2904.01    239.18   2901.98    241.21   2901.98    243.71  " /><path style="stroke-width: 1.42 ;&st7;   " d=" M  2901.98,   243.71  C  2901.98    246.21   2904.01    248.24   2906.51    248.24  " /><path style="stroke-width: 1.42 ;&st7;   " d=" M  2906.51,   248.24  C  2909.02    248.24   2911.05    246.21   2911.05    243.71  " /><text style="&st18;" transform="matrix(&st16;  2923.32  288.74 )">1</text><path style="stroke-width: 1.42 ;&st7;   " d=" M  2936.54,   286.77  C  2936.54    284.27   2934.51    282.24   2932.01    282.24  " /><path style="stroke-width: 1.42 ;&st7;   " d=" M  2932.01,   282.24  C  2929.51    282.24   2927.48    284.27   2927.48    286.77  " /><path style="stroke-width: 1.42 ;&st7;   " d=" M  2927.48,   286.77  C  2927.48    289.27   2929.51    291.30   2932.01    291.30  " /><path style="stroke-width: 1.42 ;&st7;   " d=" M  2932.01,   291.30  C  2934.51    291.30   2936.54    289.27   2936.54    286.77  " /><text style="&st18;" transform="matrix(&st16;  2929.71  288.74 )">A</text><text style="&st18;" transform="matrix(&st16;  2923.32  245.68 )">5</text><path style="stroke-width: 1.42 ;&st7;   " d=" M  2936.54,   243.71  C  2936.54    241.21   2934.51    239.18   2932.01    239.18  " /><path style="stroke-width: 1.42 ;&st7;   " d=" M  2932.01,   239.18  C  2929.51    239.18   2927.48    241.21   2927.48    243.71  " /><path style="stroke-width: 1.42 ;&st7;   " d=" M  2927.48,   243.71  C  2927.48    246.21   2929.51    248.24   2932.01    248.24  " /><path style="stroke-width: 1.42 ;&st7;   " d=" M  2932.01,   248.24  C  2934.51    248.24   2936.54    246.21   2936.54    243.71  " /><text style="&st18;" transform="matrix(&st16;  2929.82  245.68 )">B</text><text style="&st18;" transform="matrix(&st16;  2948.81  245.68 )">6</text><path style="stroke-width: 1.42 ;&st7;   " d=" M  2962.04,   243.71  C  2962.04    241.21   2960.01    239.18   2957.51    239.18  " /><path style="stroke-width: 1.42 ;&st7;   " d=" M  2957.51,   239.18  C  2955.00    239.18   2952.97    241.21   2952.97    243.71  " /><path style="stroke-width: 1.42 ;&st7;   " d=" M  2952.97,   243.71  C  2952.97    246.21   2955.00    248.24   2957.51    248.24  " /><path style="stroke-width: 1.42 ;&st7;   " d=" M  2957.51,   248.24  C  2960.01    248.24   2962.04    246.21   2962.04    243.71  " /><text style="&st18;" transform="matrix(&st16;  2955.32  245.68 )">B</text><text style="&st18;" transform="matrix(&st16;  2974.31  288.74 )">3</text><text style="&st18;" transform="matrix(&st16;  2980.7  288.74 )">A</text><path style="stroke-width: 1.42 ;&st7;   " d=" M  2987.53,   286.77  C  2987.53    284.27   2985.50    282.24   2983.00    282.24  " /><path style="stroke-width: 1.42 ;&st7;   " d=" M  2983.00,   282.24  C  2980.50    282.24   2978.47    284.27   2978.47    286.77  " /><path style="stroke-width: 1.42 ;&st7;   " d=" M  2978.47,   286.77  C  2978.47    289.27   2980.50    291.30   2983.00    291.30  " /><path style="stroke-width: 1.42 ;&st7;   " d=" M  2983.00,   291.30  C  2985.50    291.30   2987.53    289.27   2987.53    286.77  " /><text style="&st18;" transform="matrix(&st16;  2974.31  245.68 )">3</text><path style="stroke-width: 1.42 ;&st7;   " d=" M  2987.53,   243.71  C  2987.53    241.21   2985.50    239.18   2983.00    239.18  " /><path style="stroke-width: 1.42 ;&st7;   " d=" M  2983.00,   239.18  C  2980.50    239.18   2978.47    241.21   2978.47    243.71  " /><path style="stroke-width: 1.42 ;&st7;   " d=" M  2978.47,   243.71  C  2978.47    246.21   2980.50    248.24   2983.00    248.24  " /><path style="stroke-width: 1.42 ;&st7;   " d=" M  2983.00,   248.24  C  2985.50    248.24   2987.53    246.21   2987.53    243.71  " /><text style="&st18;" transform="matrix(&st16;  2980.81  245.68 )">B</text><text style="&st18;" transform="matrix(&st16;  2999.8  245.68 )">4</text><text style="&st18;" transform="matrix(&st16;  3006.31  245.68 )">B</text><path style="stroke-width: 1.42 ;&st7;   " d=" M  3013.03,   243.71  C  3013.03    241.21   3011.00    239.18   3008.50    239.18  " /><path style="stroke-width: 1.42 ;&st7;   " d=" M  3008.50,   239.18  C  3005.99    239.18   3003.96    241.21   3003.96    243.71  " /><path style="stroke-width: 1.42 ;&st7;   " d=" M  3003.96,   243.71  C  3003.96    246.21   3005.99    248.24   3008.50    248.24  " /><path style="stroke-width: 1.42 ;&st7;   " d=" M  3008.50,   248.24  C  3011.00    248.24   3013.03    246.21   3013.03    243.71  " /><text style="&st18;" transform="matrix(&st16;  3025.3  288.74 )">5</text><text style="&st18;" transform="matrix(&st16;  3031.69  288.74 )">A</text><path style="stroke-width: 1.42 ;&st7;   " d=" M  3038.53,   286.77  C  3038.53    284.27   3036.50    282.24   3033.99    282.24  " /><path style="stroke-width: 1.42 ;&st7;   " d=" M  3033.99,   282.24  C  3031.49    282.24   3029.46    284.27   3029.46    286.77  " /><path style="stroke-width: 1.42 ;&st7;   " d=" M  3029.46,   286.77  C  3029.46    289.27   3031.49    291.30   3033.99    291.30  " /><path style="stroke-width: 1.42 ;&st7;   " d=" M  3033.99,   291.30  C  3036.50    291.30   3038.53    289.27   3038.53    286.77  " /><text style="&st18;" transform="matrix(&st16;  3025.3  245.68 )">1</text><path style="stroke-width: 1.42 ;&st7;   " d=" M  3038.53,   243.71  C  3038.53    241.21   3036.50    239.18   3033.99    239.18  " /><path style="stroke-width: 1.42 ;&st7;   " d=" M  3033.99,   239.18  C  3031.49    239.18   3029.46    241.21   3029.46    243.71  " /><path style="stroke-width: 1.42 ;&st7;   " d=" M  3029.46,   243.71  C  3029.46    246.21   3031.49    248.24   3033.99    248.24  " /><path style="stroke-width: 1.42 ;&st7;   " d=" M  3033.99,   248.24  C  3036.50    248.24   3038.53    246.21   3038.53    243.71  " /><text style="&st18;" transform="matrix(&st16;  3031.8  245.68 )">B</text><text style="&st18;" transform="matrix(&st16;  3050.79  245.68 )">2</text><text style="&st18;" transform="matrix(&st16;  3057.3  245.68 )">B</text><path style="stroke-width: 1.42 ;&st7;   " d=" M  3064.02,   243.71  C  3064.02    241.21   3061.99    239.18   3059.49    239.18  " /><path style="stroke-width: 1.42 ;&st7;   " d=" M  3059.49,   239.18  C  3056.99    239.18   3054.96    241.21   3054.96    243.71  " /><path style="stroke-width: 1.42 ;&st7;   " d=" M  3054.96,   243.71  C  3054.96    246.21   3056.99    248.24   3059.49    248.24  " /><path style="stroke-width: 1.42 ;&st7;   " d=" M  3059.49,   248.24  C  3061.99    248.24   3064.02    246.21   3064.02    243.71  " /><g ewd:figtype="title"><text style="&st18;" transform="matrix(&st17;  3075.6  285.14 )">C55(A),G55(B)</text><text style="&st18;" transform="matrix(&st17;  3082.71  285.14 )" ewd:textID="11">Junction Connector</text></g></g><g ewd:code="C26,C57-B" ewd:figID="36" ewd:comment="3,2" ewd:figtype="conn"><path style="stroke-width: 0.85 ;&st7; stroke-dasharray:3, 1.5;" d=" M  2881.02,   430.68  L  2885.27,   430.68  " /><path style="stroke-width: 0.85 ;&st7; stroke-dasharray:3, 1.5;" d=" M  2855.52,   430.68  L  2859.77,   430.68  " /><path style="stroke-width: 0.85 ;&st7; stroke-dasharray:3, 1.5;" d=" M  2830.03,   430.68  L  2834.28,   430.68  " /><path style="stroke-width: 0.85 ;&st7; stroke-dasharray:3, 1.5;" d=" M  2804.53,   430.68  L  2808.78,   430.68  " /><path style="stroke-width: 0.85 ;&st7; stroke-dasharray:3, 1.5;" d=" M  2779.03,   430.68  L  2783.28,   430.68  " /><path style="stroke-width: 0.85 ;&st7; stroke-dasharray:3, 1.5;" d=" M  2753.54,   430.68  L  2757.79,   430.68  " /><path style="stroke-width: 0.85 ;&st7; stroke-dasharray:3, 1.5;" d=" M  2881.02,   421.61  L  2885.27,   421.61  " /><path style="stroke-width: 0.85 ;&st7; stroke-dasharray:3, 1.5;" d=" M  2855.52,   421.61  L  2859.77,   421.61  " /><path style="stroke-width: 0.85 ;&st7; stroke-dasharray:3, 1.5;" d=" M  2830.03,   421.61  L  2834.28,   421.61  " /><path style="stroke-width: 0.85 ;&st7; stroke-dasharray:3, 1.5;" d=" M  2804.53,   421.61  L  2808.78,   421.61  " /><path style="stroke-width: 0.85 ;&st7; stroke-dasharray:3, 1.5;" d=" M  2779.03,   421.61  L  2783.28,   421.61  " /><path style="stroke-width: 0.85 ;&st7; stroke-dasharray:3, 1.5;" d=" M  2753.54,   421.61  L  2757.79,   421.61  " /><text style="&st18;" transform="matrix(&st16;  2894.12  445.68 )">LL</text><text style="&st18;" transform="matrix(&st16;  2868.9  445.68 )">2L</text><text style="&st18;" transform="matrix(&st16;  2842.82  445.68 )">DL</text><text style="&st18;" transform="matrix(&st16;  2817.4  445.68 )">NL</text><text style="&st18;" transform="matrix(&st16;  2792.1  445.68 )">RL</text><text style="&st18;" transform="matrix(&st16;  2717.47  547.66 )">L</text><text style="&st18;" transform="matrix(&st16;  2717.74  530.67 )">2</text><text style="&st18;" transform="matrix(&st16;  2717.16  513.67 )">D</text><text style="&st18;" transform="matrix(&st16;  2717.24  496.67 )">N</text><text style="&st18;" transform="matrix(&st16;  2766.72  445.68 )">PL</text><text style="&st18;" transform="matrix(&st16;  2740.99  445.68 )">RB</text><text style="&st18;" transform="matrix(&st16;  2717.43  479.67 )">R</text><text style="&st18;" transform="matrix(&st16;  2717.55  462.68 )">P</text><path style="stroke-width: 1.42 ;&st7;  " d=" M  2706.80,   435.21  L  2910.76,   435.21  L  2910.76,   554.19  L  2706.80,   554.19  L  2706.80,   435.21  " /><path style="stroke-width: 0.85 ;&st7;  " d=" M  2706.80,   469.21  L  2910.76,   469.21  " /><path style="stroke-width: 0.85 ;&st7;  " d=" M  2732.29,   435.21  L  2732.29,   554.19  " /><path style="stroke-width: 0.85 ;&st7;  " d=" M  2757.79,   435.21  L  2757.79,   554.19  " /><path style="stroke-width: 0.85 ;&st7;  " d=" M  2769.12,   460.71  L  2746.46,   460.71  " /><path style="stroke-width: 0.85 ;&st7;  " d=" M  2746.46,   477.71  L  2794.62,   477.71  " /><path style="stroke-width: 0.85 ;&st7;  " d=" M  2706.80,   452.21  L  2910.76,   452.21  " /><path style="stroke-width: 0.85 ;&st7;  " d=" M  2706.80,   486.20  L  2910.76,   486.20  " /><path style="stroke-width: 0.85 ;&st7;  " d=" M  2706.80,   503.20  L  2910.76,   503.20  " /><path style="stroke-width: 0.85 ;&st7;  " d=" M  2706.80,   520.20  L  2910.76,   520.20  " /><path style="stroke-width: 0.85 ;&st7;  " d=" M  2706.80,   537.20  L  2910.76,   537.20  " /><path style="stroke-width: 0.85 ;&st7;  " d=" M  2746.46,   494.70  L  2820.11,   494.70  " /><path style="stroke-width: 0.85 ;&st7;  " d=" M  2746.46,   511.70  L  2845.61,   511.70  " /><path style="stroke-width: 0.85 ;&st7;  " d=" M  2746.46,   528.70  L  2871.10,   528.70  " /><path style="stroke-width: 0.85 ;&st7;  " d=" M  2746.46,   545.69  L  2896.60,   545.69  " /><path style="stroke-width: 0.85 ;&st7;  " d=" M  2783.28,   435.21  L  2783.28,   554.19  " /><path style="stroke-width: 0.85 ;&st7;  " d=" M  2808.78,   435.21  L  2808.78,   554.19  " /><path style="stroke-width: 0.85 ;&st7;  " d=" M  2834.28,   435.21  L  2834.28,   554.19  " /><path style="stroke-width: 0.85 ;&st7;  " d=" M  2859.77,   435.21  L  2859.77,   554.19  " /><path style="stroke-width: 0.85 ;&st7;  " d=" M  2885.27,   435.21  L  2885.27,   554.19  " /><path style="stroke-width: 0.85 ;&st7;   " d=" M  2771.95,   460.71  C  2771.95    459.93   2771.32    459.29   2770.54    459.29  " /><path style="stroke-width: 0.85 ;&st7;   " d=" M  2770.54,   459.29  C  2769.75    459.29   2769.12    459.93   2769.12    460.71  " /><path style="stroke-width: 0.85 ;&st7;   " d=" M  2769.12,   460.71  C  2769.12    461.49   2769.75    462.12   2770.54    462.12  " /><path style="stroke-width: 0.85 ;&st7;   " d=" M  2770.54,   462.12  C  2771.32    462.12   2771.95    461.49   2771.95    460.71  " /><path style="stroke-width: 0.85 ;&st7;   " d=" M  2797.45,   477.71  C  2797.45    476.92   2796.82    476.29   2796.03    476.29  " /><path style="stroke-width: 0.85 ;&st7;   " d=" M  2796.03,   476.29  C  2795.25    476.29   2794.62    476.92   2794.62    477.71  " /><path style="stroke-width: 0.85 ;&st7;   " d=" M  2794.62,   477.71  C  2794.62    478.49   2795.25    479.12   2796.03    479.12  " /><path style="stroke-width: 0.85 ;&st7;   " d=" M  2796.03,   479.12  C  2796.82    479.12   2797.45    478.49   2797.45    477.71  " /><path style="stroke-width: 0.85 ;&st7;   " d=" M  2746.46,   477.71  C  2746.46    476.92   2745.82    476.29   2745.04    476.29  " /><path style="stroke-width: 0.85 ;&st7;   " d=" M  2745.04,   476.29  C  2744.26    476.29   2743.62    476.92   2743.62    477.71  " /><path style="stroke-width: 0.85 ;&st7;   " d=" M  2743.62,   477.71  C  2743.62    478.49   2744.26    479.12   2745.04    479.12  " /><path style="stroke-width: 0.85 ;&st7;   " d=" M  2745.04,   479.12  C  2745.82    479.12   2746.46    478.49   2746.46    477.71  " /><path style="stroke-width: 0.85 ;&st7;   " d=" M  2746.46,   460.71  C  2746.46    459.93   2745.82    459.29   2745.04    459.29  " /><path style="stroke-width: 0.85 ;&st7;   " d=" M  2745.04,   459.29  C  2744.26    459.29   2743.62    459.93   2743.62    460.71  " /><path style="stroke-width: 0.85 ;&st7;   " d=" M  2743.62,   460.71  C  2743.62    461.49   2744.26    462.12   2745.04    462.12  " /><path style="stroke-width: 0.85 ;&st7;   " d=" M  2745.04,   462.12  C  2745.82    462.12   2746.46    461.49   2746.46    460.71  " /><path style="stroke-width: 0.85 ;&st7;   " d=" M  2822.94,   494.70  C  2822.94    493.92   2822.31    493.29   2821.53    493.29  " /><path style="stroke-width: 0.85 ;&st7;   " d=" M  2821.53,   493.29  C  2820.75    493.29   2820.11    493.92   2820.11    494.70  " /><path style="stroke-width: 0.85 ;&st7;   " d=" M  2820.11,   494.70  C  2820.11    495.48   2820.75    496.12   2821.53    496.12  " /><path style="stroke-width: 0.85 ;&st7;   " d=" M  2821.53,   496.12  C  2822.31    496.12   2822.94    495.48   2822.94    494.70  " /><path style="stroke-width: 0.85 ;&st7;   " d=" M  2746.46,   494.70  C  2746.46    493.92   2745.82    493.29   2745.04    493.29  " /><path style="stroke-width: 0.85 ;&st7;   " d=" M  2745.04,   493.29  C  2744.26    493.29   2743.62    493.92   2743.62    494.70  " /><path style="stroke-width: 0.85 ;&st7;   " d=" M  2743.62,   494.70  C  2743.62    495.48   2744.26    496.12   2745.04    496.12  " /><path style="stroke-width: 0.85 ;&st7;   " d=" M  2745.04,   496.12  C  2745.82    496.12   2746.46    495.48   2746.46    494.70  " /><path style="stroke-width: 0.85 ;&st7;   " d=" M  2848.44,   511.70  C  2848.44    510.92   2847.81    510.28   2847.02    510.28  " /><path style="stroke-width: 0.85 ;&st7;   " d=" M  2847.02,   510.28  C  2846.24    510.28   2845.61    510.92   2845.61    511.70  " /><path style="stroke-width: 0.85 ;&st7;   " d=" M  2845.61,   511.70  C  2845.61    512.48   2846.24    513.12   2847.02    513.12  " /><path style="stroke-width: 0.85 ;&st7;   " d=" M  2847.02,   513.12  C  2847.81    513.12   2848.44    512.48   2848.44    511.70  " /><path style="stroke-width: 0.85 ;&st7;   " d=" M  2746.46,   511.70  C  2746.46    510.92   2745.82    510.28   2745.04    510.28  " /><path style="stroke-width: 0.85 ;&st7;   " d=" M  2745.04,   510.28  C  2744.26    510.28   2743.62    510.92   2743.62    511.70  " /><path style="stroke-width: 0.85 ;&st7;   " d=" M  2743.62,   511.70  C  2743.62    512.48   2744.26    513.12   2745.04    513.12  " /><path style="stroke-width: 0.85 ;&st7;   " d=" M  2745.04,   513.12  C  2745.82    513.12   2746.46    512.48   2746.46    511.70  " /><path style="stroke-width: 0.85 ;&st7;   " d=" M  2873.94,   528.70  C  2873.94    527.91   2873.30    527.28   2872.52    527.28  " /><path style="stroke-width: 0.85 ;&st7;   " d=" M  2872.52,   527.28  C  2871.74    527.28   2871.10    527.91   2871.10    528.70  " /><path style="stroke-width: 0.85 ;&st7;   " d=" M  2871.10,   528.70  C  2871.10    529.48   2871.74    530.11   2872.52    530.11  " /><path style="stroke-width: 0.85 ;&st7;   " d=" M  2872.52,   530.11  C  2873.30    530.11   2873.94    529.48   2873.94    528.70  " /><path style="stroke-width: 0.85 ;&st7;   " d=" M  2746.46,   528.70  C  2746.46    527.91   2745.82    527.28   2745.04    527.28  " /><path style="stroke-width: 0.85 ;&st7;   " d=" M  2745.04,   527.28  C  2744.26    527.28   2743.62    527.91   2743.62    528.70  " /><path style="stroke-width: 0.85 ;&st7;   " d=" M  2743.62,   528.70  C  2743.62    529.48   2744.26    530.11   2745.04    530.11  " /><path style="stroke-width: 0.85 ;&st7;   " d=" M  2745.04,   530.11  C  2745.82    530.11   2746.46    529.48   2746.46    528.70  " /><path style="stroke-width: 0.85 ;&st7;   " d=" M  2899.43,   545.69  C  2899.43    544.91   2898.80    544.28   2898.02    544.28  " /><path style="stroke-width: 0.85 ;&st7;   " d=" M  2898.02,   544.28  C  2897.23    544.28   2896.60    544.91   2896.60    545.69  " /><path style="stroke-width: 0.85 ;&st7;   " d=" M  2896.60,   545.69  C  2896.60    546.48   2897.23    547.11   2898.02    547.11  " /><path style="stroke-width: 0.85 ;&st7;   " d=" M  2898.02,   547.11  C  2898.80    547.11   2899.43    546.48   2899.43    545.69  " /><path style="stroke-width: 0.85 ;&st7;   " d=" M  2746.46,   545.69  C  2746.46    544.91   2745.82    544.28   2745.04    544.28  " /><path style="stroke-width: 0.85 ;&st7;   " d=" M  2745.04,   544.28  C  2744.26    544.28   2743.62    544.91   2743.62    545.69  " /><path style="stroke-width: 0.85 ;&st7;   " d=" M  2743.62,   545.69  C  2743.62    546.48   2744.26    547.11   2745.04    547.11  " /><path style="stroke-width: 0.85 ;&st7;   " d=" M  2745.04,   547.11  C  2745.82    547.11   2746.46    546.48   2746.46    545.69  " /><text style="&st18;" transform="matrix(&st16;  2736.35  432.65 )">2</text><text style="&st18;" transform="matrix(&st16;  2736.35  423.58 )">2</text><text style="&st18;" transform="matrix(&st16;  2742.85  432.65 )">B</text><text style="&st18;" transform="matrix(&st16;  2742.74  423.58 )">A</text><path style="stroke-width: 1.42 ;&st7;   " d=" M  2749.57,   421.61  C  2749.57    419.11   2747.54    417.08   2745.04    417.08  " /><path style="stroke-width: 1.42 ;&st7;   " d=" M  2745.04,   417.08  C  2742.54    417.08   2740.51    419.11   2740.51    421.61  " /><path style="stroke-width: 1.42 ;&st7;   " d=" M  2740.51,   421.61  C  2740.51    424.12   2742.54    426.15   2745.04    426.15  " /><path style="stroke-width: 1.42 ;&st7;   " d=" M  2745.04,   426.15  C  2747.54    426.15   2749.57    424.12   2749.57    421.61  " /><path style="stroke-width: 1.42 ;&st7;   " d=" M  2749.57,   430.68  C  2749.57    428.18   2747.54    426.15   2745.04    426.15  " /><path style="stroke-width: 1.42 ;&st7;   " d=" M  2745.04,   426.15  C  2742.54    426.15   2740.51    428.18   2740.51    430.68  " /><path style="stroke-width: 1.42 ;&st7;   " d=" M  2740.51,   430.68  C  2740.51    433.18   2742.54    435.21   2745.04    435.21  " /><path style="stroke-width: 1.42 ;&st7;   " d=" M  2745.04,   435.21  C  2747.54    435.21   2749.57    433.18   2749.57    430.68  " /><text style="&st18;" transform="matrix(&st16;  2761.84  423.58 )">6</text><text style="&st18;" transform="matrix(&st16;  2761.84  432.65 )">6</text><text style="&st18;" transform="matrix(&st16;  2768.35  432.65 )">B</text><path style="stroke-width: 1.42 ;&st7;   " d=" M  2775.07,   430.68  C  2775.07    428.18   2773.04    426.15   2770.54    426.15  " /><path style="stroke-width: 1.42 ;&st7;   " d=" M  2770.54,   426.15  C  2768.03    426.15   2766.00    428.18   2766.00    430.68  " /><path style="stroke-width: 1.42 ;&st7;   " d=" M  2766.00,   430.68  C  2766.00    433.18   2768.03    435.21   2770.54    435.21  " /><path style="stroke-width: 1.42 ;&st7;   " d=" M  2770.54,   435.21  C  2773.04    435.21   2775.07    433.18   2775.07    430.68  " /><path style="stroke-width: 1.42 ;&st7;   " d=" M  2775.07,   421.61  C  2775.07    419.11   2773.04    417.08   2770.54    417.08  " /><path style="stroke-width: 1.42 ;&st7;   " d=" M  2770.54,   417.08  C  2768.03    417.08   2766.00    419.11   2766.00    421.61  " /><path style="stroke-width: 1.42 ;&st7;   " d=" M  2766.00,   421.61  C  2766.00    424.12   2768.03    426.15   2770.54    426.15  " /><path style="stroke-width: 1.42 ;&st7;   " d=" M  2770.54,   426.15  C  2773.04    426.15   2775.07    424.12   2775.07    421.61  " /><text style="&st18;" transform="matrix(&st16;  2768.23  423.58 )">A</text><text style="&st18;" transform="matrix(&st16;  2787.34  423.58 )">1</text><text style="&st18;" transform="matrix(&st16;  2787.34  432.65 )">1</text><text style="&st18;" transform="matrix(&st16;  2793.84  432.65 )">B</text><text style="&st18;" transform="matrix(&st16;  2793.73  423.58 )">A</text><path style="stroke-width: 1.42 ;&st7;   " d=" M  2800.57,   421.61  C  2800.57    419.11   2798.54    417.08   2796.03    417.08  " /><path style="stroke-width: 1.42 ;&st7;   " d=" M  2796.03,   417.08  C  2793.53    417.08   2791.50    419.11   2791.50    421.61  " /><path style="stroke-width: 1.42 ;&st7;   " d=" M  2791.50,   421.61  C  2791.50    424.12   2793.53    426.15   2796.03    426.15  " /><path style="stroke-width: 1.42 ;&st7;   " d=" M  2796.03,   426.15  C  2798.54    426.15   2800.57    424.12   2800.57    421.61  " /><path style="stroke-width: 1.42 ;&st7;   " d=" M  2800.57,   430.68  C  2800.57    428.18   2798.54    426.15   2796.03    426.15  " /><path style="stroke-width: 1.42 ;&st7;   " d=" M  2796.03,   426.15  C  2793.53    426.15   2791.50    428.18   2791.50    430.68  " /><path style="stroke-width: 1.42 ;&st7;   " d=" M  2791.50,   430.68  C  2791.50    433.18   2793.53    435.21   2796.03    435.21  " /><path style="stroke-width: 1.42 ;&st7;   " d=" M  2796.03,   435.21  C  2798.54    435.21   2800.57    433.18   2800.57    430.68  " /><text style="&st18;" transform="matrix(&st16;  2812.83  432.65 )">9</text><text style="&st18;" transform="matrix(&st16;  2812.83  423.58 )">9</text><text style="&st18;" transform="matrix(&st16;  2819.34  432.65 )">B</text><path style="stroke-width: 1.42 ;&st7;   " d=" M  2826.06,   430.68  C  2826.06    428.18   2824.03    426.15   2821.53    426.15  " /><path style="stroke-width: 1.42 ;&st7;   " d=" M  2821.53,   426.15  C  2819.03    426.15   2817.00    428.18   2817.00    430.68  " /><path style="stroke-width: 1.42 ;&st7;   " d=" M  2817.00,   430.68  C  2817.00    433.18   2819.03    435.21   2821.53    435.21  " /><path style="stroke-width: 1.42 ;&st7;   " d=" M  2821.53,   435.21  C  2824.03    435.21   2826.06    433.18   2826.06    430.68  " /><path style="stroke-width: 1.42 ;&st7;   " d=" M  2826.06,   421.61  C  2826.06    419.11   2824.03    417.08   2821.53    417.08  " /><path style="stroke-width: 1.42 ;&st7;   " d=" M  2821.53,   417.08  C  2819.03    417.08   2817.00    419.11   2817.00    421.61  " /><path style="stroke-width: 1.42 ;&st7;   " d=" M  2817.00,   421.61  C  2817.00    424.12   2819.03    426.15   2821.53    426.15  " /><path style="stroke-width: 1.42 ;&st7;   " d=" M  2821.53,   426.15  C  2824.03    426.15   2826.06    424.12   2826.06    421.61  " /><text style="&st18;" transform="matrix(&st16;  2819.22  423.58 )">A</text><text style="&st18;" transform="matrix(&st16;  2838.33  432.65 )">7</text><text style="&st18;" transform="matrix(&st16;  2838.33  423.58 )">7</text><text style="&st18;" transform="matrix(&st16;  2844.84  432.65 )">B</text><text style="&st18;" transform="matrix(&st16;  2844.72  423.58 )">A</text><path style="stroke-width: 1.42 ;&st7;   " d=" M  2851.56,   430.68  C  2851.56    428.18   2849.53    426.15   2847.02    426.15  " /><path style="stroke-width: 1.42 ;&st7;   " d=" M  2847.02,   426.15  C  2844.52    426.15   2842.49    428.18   2842.49    430.68  " /><path style="stroke-width: 1.42 ;&st7;   " d=" M  2842.49,   430.68  C  2842.49    433.18   2844.52    435.21   2847.02    435.21  " /><path style="stroke-width: 1.42 ;&st7;   " d=" M  2847.02,   435.21  C  2849.53    435.21   2851.56    433.18   2851.56    430.68  " /><path style="stroke-width: 1.42 ;&st7;   " d=" M  2851.56,   421.61  C  2851.56    419.11   2849.53    417.08   2847.02    417.08  " /><path style="stroke-width: 1.42 ;&st7;   " d=" M  2847.02,   417.08  C  2844.52    417.08   2842.49    419.11   2842.49    421.61  " /><path style="stroke-width: 1.42 ;&st7;   " d=" M  2842.49,   421.61  C  2842.49    424.12   2844.52    426.15   2847.02    426.15  " /><path style="stroke-width: 1.42 ;&st7;   " d=" M  2847.02,   426.15  C  2849.53    426.15   2851.56    424.12   2851.56    421.61  " /><text style="&st18;" transform="matrix(&st16;  2863.83  423.58 )">3</text><text style="&st18;" transform="matrix(&st16;  2863.83  432.65 )">3</text><path style="stroke-width: 1.42 ;&st7;   " d=" M  2877.05,   421.61  C  2877.05    419.11   2875.02    417.08   2872.52    417.08  " /><path style="stroke-width: 1.42 ;&st7;   " d=" M  2872.52,   417.08  C  2870.02    417.08   2867.99    419.11   2867.99    421.61  " /><path style="stroke-width: 1.42 ;&st7;   " d=" M  2867.99,   421.61  C  2867.99    424.12   2870.02    426.15   2872.52    426.15  " /><path style="stroke-width: 1.42 ;&st7;   " d=" M  2872.52,   426.15  C  2875.02    426.15   2877.05    424.12   2877.05    421.61  " /><path style="stroke-width: 1.42 ;&st7;   " d=" M  2877.05,   430.68  C  2877.05    428.18   2875.02    426.15   2872.52    426.15  " /><path style="stroke-width: 1.42 ;&st7;   " d=" M  2872.52,   426.15  C  2870.02    426.15   2867.99    428.18   2867.99    430.68  " /><path style="stroke-width: 1.42 ;&st7;   " d=" M  2867.99,   430.68  C  2867.99    433.18   2870.02    435.21   2872.52    435.21  " /><path style="stroke-width: 1.42 ;&st7;   " d=" M  2872.52,   435.21  C  2875.02    435.21   2877.05    433.18   2877.05    430.68  " /><text style="&st18;" transform="matrix(&st16;  2870.33  432.65 )">B</text><text style="&st18;" transform="matrix(&st16;  2870.22  423.58 )">A</text><text style="&st18;" transform="matrix(&st16;  2889.32  432.65 )">8</text><text style="&st18;" transform="matrix(&st16;  2889.32  423.58 )">8</text><text style="&st18;" transform="matrix(&st16;  2895.83  432.65 )">B</text><path style="stroke-width: 1.42 ;&st7;   " d=" M  2902.55,   430.68  C  2902.55    428.18   2900.52    426.15   2898.02    426.15  " /><path style="stroke-width: 1.42 ;&st7;   " d=" M  2898.02,   426.15  C  2895.51    426.15   2893.48    428.18   2893.48    430.68  " /><path style="stroke-width: 1.42 ;&st7;   " d=" M  2893.48,   430.68  C  2893.48    433.18   2895.51    435.21   2898.02    435.21  " /><path style="stroke-width: 1.42 ;&st7;   " d=" M  2898.02,   435.21  C  2900.52    435.21   2902.55    433.18   2902.55    430.68  " /><path style="stroke-width: 1.42 ;&st7;   " d=" M  2902.55,   421.61  C  2902.55    419.11   2900.52    417.08   2898.02    417.08  " /><path style="stroke-width: 1.42 ;&st7;   " d=" M  2898.02,   417.08  C  2895.51    417.08   2893.48    419.11   2893.48    421.61  " /><path style="stroke-width: 1.42 ;&st7;   " d=" M  2893.48,   421.61  C  2893.48    424.12   2895.51    426.15   2898.02    426.15  " /><path style="stroke-width: 1.42 ;&st7;   " d=" M  2898.02,   426.15  C  2900.52    426.15   2902.55    424.12   2902.55    421.61  " /><text style="&st18;" transform="matrix(&st16;  2895.71  423.58 )">A</text><g ewd:figtype="title"><text style="&st18;" transform="matrix(&st16;  2913.02  469.76 )" ewd:textID="15">Park/Neutral <tspan x="0 " dy="6.0">Position Switch </tspan><tspan x="0 " dy="6.0">Assembly</tspan></text><text style="&st18;" transform="matrix(&st16;  2913.02  462.65 )">C26(A),C57(B)</text></g><g ewd:code="" ewd:figID="92" ewd:comment="2" ewd:figtype="commref"><text style="&st18;" transform="matrix(&st16;  2903.11  423.58 )">(*2)</text></g><g ewd:code="" ewd:figID="93" ewd:comment="3" ewd:figtype="commref"><text style="&st18;" transform="matrix(&st16;  2903.11  432.65 )">(*3)</text></g></g><g ewd:figtype="jb" ewd:figID="44" ewd:code="2"><text style="&st18;" transform="matrix(&st16;  2841.91  237.47 )">11</text><text style="&st18;" transform="matrix(&st16;  2851.36  237.47 )">2Q</text><text style="&st18;" transform="matrix(&st16;  2817.36  279.96 )">2Q</text><text style="&st18;" transform="matrix(&st16;  2807.92  279.96 )">27</text><text style="&st18;" transform="matrix(&st16;  2817.98  237.47 )">2P</text><text style="&st18;" transform="matrix(&st16;  2807.92  237.47 )">27</text><path style="stroke-width: 0.28 ;&st9;  " d=" M  2855.52,   244.64  L  2858.35,   247.47  L  2858.35,   243.22  L  2855.52,   240.39  L  2852.69,   243.22  L  2852.69,   247.47  L  2855.52,   244.64  " /><path style="stroke-width: 0.28 ;&st9;  " d=" M  2821.53,   268.84  L  2824.36,   266.01  L  2824.36,   270.26  L  2821.53,   273.09  L  2818.69,   270.26  L  2818.69,   266.01  L  2821.53,   268.84  " /><path style="stroke-width: 0.28 ;&st9;  " d=" M  2821.53,   244.64  L  2818.69,   247.47  L  2818.69,   243.22  L  2821.53,   240.39  L  2824.36,   243.22  L  2824.36,   247.47  L  2821.53,   244.64  " /><path style="stroke-width: 0.85 ;&st7;  " d=" M  2821.53,   239.75  L  2821.53,   273.74  " /><path style="stroke-width: 0.85 ;&st7;  " d=" M  2821.53,   256.74  L  2855.52,   256.74  L  2855.52,   239.75  " /><path style="stroke-width: 0.85 ;&st7;  " d=" M  2820.33,   257.75  L  2820.06,   257.28  L  2819.97,   256.74  L  2820.06,   256.21  L  2820.33,   255.74  L  2820.75,   255.39  L  2821.26,   255.21  L  2821.80,   255.21  L  2822.31,   255.39  L  2822.72,   255.74  L  2822.99,   256.21  L  2823.09,   256.74  L  2822.99,   257.28  L  2822.72,   257.75  L  2822.31,   258.09  L  2821.80,   258.28  L  2821.26,   258.28  L  2820.75,   258.09  L  2820.33,   257.75  L  2820.73,   257.03  L  2820.73,   256.45  L  2821.10,   256.01  L  2821.67,   255.91  L  2822.18,   256.20  L  2822.38,   256.74  L  2822.18,   257.29  L  2821.67,   257.58  L  2821.10,   257.48  L  2821.53,   256.74  " /><path style="stroke-width: 1.42 ;&st7;   " d=" M  2861.90,   235.50  C  2861.90    233.15   2859.99    231.25   2857.65    231.25  " /><path style="stroke-width: 1.42 ;&st7;   " d=" M  2857.65,   239.75  C  2859.99    239.75   2861.90    237.84   2861.90    235.50  " /><path style="stroke-width: 1.42 ;&st7;   " d=" M  2849.15,   235.50  C  2849.15    237.84   2851.05    239.75   2853.40    239.75  " /><path style="stroke-width: 1.42 ;&st7;   " d=" M  2853.40,   231.25  C  2851.05    231.25   2849.15    233.15   2849.15    235.50  " /><path style="stroke-width: 1.42 ;&st7;   " d=" M  2815.15,   235.50  C  2815.15    237.84   2817.06    239.75   2819.40    239.75  " /><path style="stroke-width: 1.42 ;&st7;   " d=" M  2827.90,   277.99  C  2827.90    275.64   2826.00    273.74   2823.65    273.74  " /><path style="stroke-width: 1.42 ;&st7;   " d=" M  2815.15,   277.99  C  2815.15    280.34   2817.06    282.24   2819.40    282.24  " /><path style="stroke-width: 1.42 ;&st7;   " d=" M  2819.40,   231.25  C  2817.06    231.25   2815.15    233.15   2815.15    235.50  " /><path style="stroke-width: 1.42 ;&st7;   " d=" M  2823.65,   282.24  C  2826.00    282.24   2827.90    280.34   2827.90    277.99  " /><path style="stroke-width: 1.42 ;&st7;   " d=" M  2819.40,   273.74  C  2817.06    273.74   2815.15    275.64   2815.15    277.99  " /><path style="stroke-width: 1.42 ;&st7;   " d=" M  2827.90,   235.50  C  2827.90    233.15   2826.00    231.25   2823.65    231.25  " /><path style="stroke-width: 1.42 ;&st7;   " d=" M  2823.65,   239.75  C  2826.00    239.75   2827.90    237.84   2827.90    235.50  " /><path style="stroke-width: 1.42 ;&st7;  " d=" M  2857.65,   239.75  L  2853.40,   239.75  " /><path style="stroke-width: 1.42 ;&st7;  " d=" M  2857.65,   231.25  L  2853.40,   231.25  " /><path style="stroke-width: 1.42 ;&st7;  " d=" M  2823.65,   231.25  L  2819.40,   231.25  " /><path style="stroke-width: 1.42 ;&st7;  " d=" M  2823.65,   239.75  L  2819.40,   239.75  " /><path style="stroke-width: 1.42 ;&st7;  " d=" M  2823.65,   282.24  L  2819.40,   282.24  " /><path style="stroke-width: 1.42 ;&st7;  " d=" M  2823.65,   273.74  L  2819.40,   273.74  " /></g><g ewd:figtype="jb" ewd:figID="47" ewd:code="2"><text style="&st18;" transform="matrix(&st16;  2646.34  32.08 )">(IG)</text><text style="&st18;" transform="matrix(&st16;  2637.95  101.49 )">25</text><text style="&st18;" transform="matrix(&st16;  2648.21  101.49 )">2S</text><text style="&st18;" transform="matrix(&st16;  2667.98  53.34 )">10A <tspan x="0 " dy="6.0">ECU-IG&amp;</tspan><tspan x="0 " dy="6.0">GAUGE</tspan></text><path style="stroke-width: 0.28 ;&st9;  " d=" M  2651.56,    90.37  L  2648.72,    87.54  L  2648.72,    91.79  L  2651.56,    94.62  L  2654.39,    91.79  L  2654.39,    87.54  L  2651.56,    90.37  " /><path style="stroke-width: 1.42 ;&st7;  " d=" M  2638.81,    35.78  L  2638.81,    78.27  L  2664.30,    78.27  L  2664.30,    35.78  L  2638.81,    35.78  " /><path style="stroke-width: 1.42 ;&st7;   " d=" M  2651.56,    47.11  C  2648.82     48.72   2647.91     52.25   2649.52     54.99  " /><path style="stroke-width: 1.42 ;&st7;   " d=" M  2649.52,    54.99  C  2650.04     55.87   2650.67     56.51   2651.56     57.03  " /><path style="stroke-width: 1.42 ;&st7;   " d=" M  2651.56,    66.94  C  2654.29     65.33   2655.21     61.80   2653.59     59.06  " /><path style="stroke-width: 1.42 ;&st7;   " d=" M  2653.59,    59.06  C  2653.07     58.18   2652.44     57.55   2651.56     57.03  " /><path style="stroke-width: 0.85 ;&st7;   " d=" M  2652.97,    45.69  C  2652.97     44.91   2652.34     44.28   2651.56     44.28  " /><path style="stroke-width: 0.85 ;&st7;   " d=" M  2651.56,    44.28  C  2650.77     44.28   2650.14     44.91   2650.14     45.69  " /><path style="stroke-width: 0.85 ;&st7;   " d=" M  2650.14,    45.69  C  2650.14     46.48   2650.77     47.11   2651.56     47.11  " /><path style="stroke-width: 0.85 ;&st7;   " d=" M  2651.56,    47.11  C  2652.34     47.11   2652.97     46.48   2652.97     45.69  " /><path style="stroke-width: 0.85 ;&st7;   " d=" M  2652.97,    68.36  C  2652.97     67.57   2652.34     66.94   2651.56     66.94  " /><path style="stroke-width: 0.85 ;&st7;   " d=" M  2651.56,    66.94  C  2650.77     66.94   2650.14     67.57   2650.14     68.36  " /><path style="stroke-width: 0.85 ;&st7;   " d=" M  2650.14,    68.36  C  2650.14     69.14   2650.77     69.77   2651.56     69.77  " /><path style="stroke-width: 0.85 ;&st7;   " d=" M  2651.56,    69.77  C  2652.34     69.77   2652.97     69.14   2652.97     68.36  " /><path style="stroke-width: 1.42 ;&st7;   " d=" M  2649.43,    95.27  C  2647.09     95.27   2645.18     97.17   2645.18     99.52  " /><path style="stroke-width: 1.42 ;&st7;   " d=" M  2645.18,    99.52  C  2645.18    101.87   2647.09    103.77   2649.43    103.77  " /><path style="stroke-width: 1.42 ;&st7;   " d=" M  2653.68,   103.77  C  2656.03    103.77   2657.93    101.87   2657.93     99.52  " /><path style="stroke-width: 1.42 ;&st7;   " d=" M  2657.93,    99.52  C  2657.93     97.17   2656.03     95.27   2653.68     95.27  " /><path style="stroke-width: 0.85 ;&st7;  " d=" M  2651.56,    69.77  L  2651.56,    95.27  " /><path style="stroke-width: 1.42 ;&st7;  " d=" M  2653.68,    95.27  L  2649.43,    95.27  " /><path style="stroke-width: 1.42 ;&st7;  " d=" M  2653.68,   103.77  L  2649.43,   103.77  " /></g><g ewd:figtype="w2w" ewd:figID="61" ewd:code="CG2"><text style="&st18;" transform="matrix(&st16;  2638.93  339.45 )">2</text><path style="stroke-width: 1.42 ;&st7;  " d=" M  2655.81,   327.56  L  2651.56,   331.81  L  2647.31,   327.56  " /><path style="stroke-width: 1.42 ;&st7;  " d=" M  2647.31,   324.16  L  2651.56,   328.41  L  2655.81,   324.16  " /></g><g ewd:figtype="w2w" ewd:figID="62" ewd:code="CG1"><text style="&st18;" transform="matrix(&st16;  2757.91  313.95 )">5</text><path style="stroke-width: 1.42 ;&st7;  " d=" M  2774.79,   302.07  L  2770.54,   306.32  L  2766.29,   302.07  " /><path style="stroke-width: 1.42 ;&st7;  " d=" M  2774.79,   298.67  L  2770.54,   302.92  L  2766.29,   298.67  " /></g><g ewd:figtype="w2w" ewd:figID="63" ewd:code="CG2"><text style="&st18;" transform="matrix(&st16;  2808.9  313.95 )">3</text><path style="stroke-width: 1.42 ;&st7;  " d=" M  2825.78,   298.67  L  2821.53,   302.92  L  2817.28,   298.67  " /><path style="stroke-width: 1.42 ;&st7;  " d=" M  2825.78,   302.07  L  2821.53,   306.32  L  2817.28,   302.07  " /></g><g ewd:code="3" ewd:figID="96" ewd:comment="" ewd:figtype="comment"><text style="&st18;" transform="matrix(&st16;  2945.6  530.67 )" ewd:textID="3">* 3 :From Oct. 2012 Production</text></g><g ewd:code="2" ewd:figID="97" ewd:comment="" ewd:figtype="comment"><text style="&st18;" transform="matrix(&st16;  2945.6  522.17 )" ewd:textID="2">* 2 :Before Oct. 2012 Production</text></g></svg>