﻿<?xml version="1.0" encoding="utf-8"?>
<!DOCTYPE svg PUBLIC "-//W3C//DTD SVG 1.0//EN" "http://www.w3.org/TR/2001/REC-SVG-20010904/DTD/svg10.dtd"[
	<!ENTITY ns_flows "http://ns.adobe.com/Flows/1.0/">
	<!ENTITY ns_svg "http://www.w3.org/2000/svg">
	<!ENTITY ns_xlink "http://www.w3.org/1999/xlink">
	<!ENTITY st0 "font-size:7px;font-family:'MS-PGothic';adobe-font-script:japanese;">
	<!ENTITY st1 "font-size:6px;font-family:'ArialMT';">
	<!-- White fill  -->
	<!ENTITY st2 "fill:#FFFFFF;stroke:#000000; stroke-width:1.41;stroke-linecap:round;stroke-linejoin:round;">
	<!-- Yellow fill  -->
	<!ENTITY st3 "fill:#FFFFCC;stroke:#FFFFCC; stroke-width:0.1;stroke-linecap:round;stroke-linejoin:round;">
	<!-- Gray fill  -->
	<!ENTITY st4 "fill:#CCCCCC;stroke:#CCCCCC; stroke-width:0.1;stroke-linecap:round;stroke-linejoin:round;">
	<!-- Light-blue fill -->
	<!ENTITY st5 "fill:#CCECF4;stroke:#000000; stroke-width:1.133;stroke-linecap:round;stroke-linejoin:round;">
	<!ENTITY st6 "fill:none;stroke-linecap:butt; stroke-linejoin:round;">
	<!ENTITY st7 "fill:none;stroke:#000000;stroke-linecap:round;stroke-linejoin:round;">
	<!ENTITY st8 "enable-background:new    ;">
	<!-- Black fill -->
	<!ENTITY st9 "fill:#000000;stroke:#000000; stroke-linecap:round;stroke-linejoin:round;">
	<!-- SRS note   -->
	<!ENTITY st10 "font-size:9px;font-family:'ArialMT';">
	<!ENTITY st11 "font-size:9px;font-family:'Svg Symbol';">
	<!ENTITY st12 "font-size:6px;font-family:'Svg Symbol';">
	<!ENTITY st13 "fill:none;stroke:#ff0000;stroke-linecap:round;stroke-linejoin:round;">
	<!-- Yellow fill  -->
	<!ENTITY st14 "fill:#FFFF00;stroke:#FFFF00; stroke-width:0.1;stroke-linecap:round;stroke-linejoin:round;">
	<!ENTITY st15 "font-size:6px;font-family:'MS-PGothic';adobe-font-script:japanese;">
	<!ENTITY st16 "1.00 0.00 0.00 1.00">
	<!ENTITY st17 "0.00 -1.00 1.00 0.00">
	<!ENTITY st18 "font-size:6px;font-family:'Arial';">
	<!ENTITY st19 "font-size:9px;font-family:'Arial';">
	<!ENTITY st20 "font-size:6px;font-family:'MS-PGothic','MS PGothic';adobe-font-script:japanese;">
	<!ENTITY st21 "font-size:7px;font-family:'MS-PGothic','MS PGothic';adobe-font-script:japanese;">
	<!ATTLIST svg
		xmlns:ewd CDATA #FIXED "http://shcl.co.jp/ewd"
		xmlns:a CDATA #FIXED "http://ns.adobe.com/AdobeSVGViewerExtensions/3.0/"
		ewd:ver CDATA #IMPLIED
	>
	<!ATTLIST a
		ewd:lineID CDATA #IMPLIED
		ewd:groupID CDATA #IMPLIED
		ewd:figtype CDATA #IMPLIED
		ewd:code CDATA #IMPLIED
		ewd:figID CDATA #IMPLIED
		ewd:pinNo CDATA #IMPLIED
		ewd:comment CDATA #IMPLIED >
	<!ATTLIST g
		ewd:lineID CDATA #IMPLIED
		ewd:groupID CDATA #IMPLIED
		ewd:figtype CDATA #IMPLIED
		ewd:code CDATA #IMPLIED
		ewd:figID CDATA #IMPLIED
		ewd:pinNo CDATA #IMPLIED
		ewd:comment CDATA #IMPLIED >
	<!ATTLIST text
		ewd:textID CDATA #IMPLIED >
	<!ATTLIST title
		ewd:textID CDATA #IMPLIED >
]>
<!-- Generator: Shintec Hozumi YS   -->
<svg onload="call_execInitLoadProc_svg('system')" style="overflow:visible;  enable-background:new 0 0 714.589 710.000" viewBox="0 0 714.589 710.000" height="710.000" width="714.589" xml:space="preserve" ewd:ver="2.1.2.7" xmlns="&ns_svg;" xmlns:a="http://ns.adobe.com/AdobeSVGViewerExtensions/3.0/" xmlns:ewd="http://shcl.co.jp/ewd" xmlns:xlink="&ns_xlink;">
<text style="&st18;" transform="matrix(&st16;  486.58  584.49 )">L-W</text><text style="&st18;" transform="matrix(&st17;  234.26  304.3 )">L-Y</text><text style="&st18;" transform="matrix(&st17;  234.26  380.78 )">L-Y</text><text style="&st18;" transform="matrix(&st17;  310.75  304.3 )">L-B</text><text style="&st18;" transform="matrix(&st17;  310.75  380.78 )">L-B</text><text style="&st18;" transform="matrix(&st17;  387.24  305.46 )">W-G</text><text style="&st18;" transform="matrix(&st17;  387.24  381.95 )">W-G</text><text style="&st18;" transform="matrix(&st17;  446.73  611.14 )">W-B</text><text style="&st18;" transform="matrix(&st17;  446.73  385.81 )">L-W</text><text style="&st18;" transform="matrix(&st17;  47.3  169.1 )">L-W</text><text style="&st18;" transform="matrix(&st17;  89.79  169.1 )">L-W</text><text style="&st18;" transform="matrix(&st17;  132.28  169.1 )">L-W</text><text style="&st18;" transform="matrix(&st17;  200.27  305.07 )">L-W</text><path style="stroke-width: 1.42 ;&st7;  " d=" M   458.92,   627.15  L   453.95,   622.18  " /><path style="stroke-width: 1.42 ;&st7;  " d=" M   441.93,   634.21  L   446.89,   639.18  " /><path style="stroke-width: 1.42 ;&st7;  " d=" M   453.95,   639.18  L   458.92,   634.21  " /><path style="stroke-width: 1.42 ;&st7;  " d=" M   446.89,   622.18  L   441.93,   627.15  " /><text style="&st18;" transform="matrix(&st17;  446.73  662.13 )">W-B</text><g ewd:figtype="conn" ewd:figID="2" ewd:code="A1"><path style="stroke-width: 1.42 ;&st7;  " d=" M   453.26,   468.92  L   434.84,   460.71  " /><path style="stroke-width: 0.85 ;&st7;  " d=" M   237.96,   469.21  L   263.46,   469.21  " /><path style="stroke-width: 0.85 ;&st7;  " d=" M   280.45,   469.21  L   303.12,   469.21  " /><path style="stroke-width: 0.85 ;&st7;  " d=" M   348.44,   486.20  L   348.44,   458.58  " /><path style="stroke-width: 0.85 ;&st7;  " d=" M   348.44,   454.33  L   348.44,   443.71  " /><path style="stroke-width: 1.42 ;&st7;  " d=" M   352.69,   454.33  L   344.19,   454.33  " /><path style="stroke-width: 1.42 ;&st7;  " d=" M   352.69,   458.58  L   344.19,   458.58  " /><path style="stroke-width: 0.85 ;&st7;  " d=" M   314.45,   452.21  L   314.45,   457.88  " /><path style="stroke-width: 0.85 ;&st7;  " d=" M   314.45,   409.72  L   314.45,   435.21  " /><path style="stroke-width: 0.85 ;&st7;  " d=" M   297.45,   520.20  L   286.83,   520.20  " /><path style="stroke-width: 0.85 ;&st7;  " d=" M   282.58,   520.20  L   271.95,   520.20  " /><path style="stroke-width: 1.42 ;&st7;  " d=" M   282.58,   515.95  L   282.58,   524.45  " /><path style="stroke-width: 1.42 ;&st7;  " d=" M   286.83,   515.95  L   286.83,   524.45  " /><path style="stroke-width: 0.85 ;&st7;   " d=" M   441.66,   457.67  C   441.66    457.28    441.34    456.96    440.95    456.96  " /><path style="stroke-width: 0.85 ;&st7;   " d=" M   440.95,   456.96  C   440.56    456.96    440.24    457.28    440.24    457.67  " /><path style="stroke-width: 0.85 ;&st7;   " d=" M   440.24,   457.67  C   440.24    458.06    440.56    458.38    440.95    458.38  " /><path style="stroke-width: 0.85 ;&st7;   " d=" M   440.95,   458.38  C   441.34    458.38    441.66    458.06    441.66    457.67  " /><path style="stroke-width: 0.85 ;&st7;   " d=" M   442.31,   454.44  C   441.45    453.55    440.02    453.52    439.13    454.38  " /><path style="stroke-width: 0.85 ;&st7;   " d=" M   439.13,   454.38  C   438.93    454.58    438.79    454.77    438.67    455.02  " /><path style="stroke-width: 1.42 ;&st7;   " d=" M   322.95,   469.21  C   322.95    464.51    319.14    460.71    314.45    460.71  " /><path style="stroke-width: 1.42 ;&st7;   " d=" M   314.45,   460.71  C   309.75    460.71    305.95    464.51    305.95    469.21  " /><path style="stroke-width: 1.42 ;&st7;   " d=" M   305.95,   469.21  C   305.95    473.90    309.75    477.71    314.45    477.71  " /><path style="stroke-width: 1.42 ;&st7;   " d=" M   314.45,   477.71  C   319.14    477.71    322.95    473.90    322.95    469.21  " /><path style="stroke-width: 0.85 ;&st7;   " d=" M   438.67,   455.02  C   437.20    458.36    438.64    462.24    441.93    463.82  " /><path style="stroke-width: 0.85 ;&st7;   " d=" M   441.93,   463.82  C   444.56    461.30    444.73    457.17    442.30    454.44  " /><path style="stroke-width: 0.85 ;&st7;   " d=" M   434.84,   460.71  C   434.84    459.93    434.21    459.29    433.43    459.29  " /><path style="stroke-width: 0.85 ;&st7;   " d=" M   433.43,   459.29  C   432.65    459.29    432.01    459.93    432.01    460.71  " /><path style="stroke-width: 0.85 ;&st7;   " d=" M   432.01,   460.71  C   432.01    461.49    432.65    462.12    433.43    462.12  " /><path style="stroke-width: 0.85 ;&st7;   " d=" M   433.43,   462.12  C   434.21    462.12    434.84    461.49    434.84    460.71  " /><path style="stroke-width: 0.85 ;&st7;   " d=" M   451.84,   452.21  C   451.84    451.43    451.21    450.79    450.42    450.79  " /><path style="stroke-width: 0.85 ;&st7;   " d=" M   450.42,   450.79  C   449.64    450.79    449.01    451.43    449.01    452.21  " /><path style="stroke-width: 0.85 ;&st7;   " d=" M   449.01,   452.21  C   449.01    452.99    449.64    453.63    450.42    453.63  " /><path style="stroke-width: 0.85 ;&st7;   " d=" M   450.42,   453.63  C   451.21    453.63    451.84    452.99    451.84    452.21  " /><path style="stroke-width: 0.85 ;&st7;   " d=" M   451.84,   469.21  C   451.84    468.42    451.21    467.79    450.42    467.79  " /><path style="stroke-width: 0.85 ;&st7;   " d=" M   450.42,   467.79  C   449.64    467.79    449.01    468.42    449.01    469.21  " /><path style="stroke-width: 0.85 ;&st7;   " d=" M   449.01,   469.21  C   449.01    469.99    449.64    470.62    450.42    470.62  " /><path style="stroke-width: 0.85 ;&st7;   " d=" M   450.42,   470.62  C   451.21    470.62    451.84    469.99    451.84    469.21  " /><path style="stroke-width: 0.85 ;&st7;   " d=" M   399.43,   503.20  C   399.43    502.43    398.81    501.80    398.03    501.80  " /><path style="stroke-width: 0.85 ;&st7;   " d=" M   398.03,   501.80  C   397.26    501.80    396.63    502.43    396.63    503.20  " /><path style="stroke-width: 0.85 ;&st7;   " d=" M   396.63,   503.20  C   396.63    503.98    397.26    504.60    398.03    504.60  " /><path style="stroke-width: 0.85 ;&st7;   " d=" M   398.03,   504.60  C   398.81    504.60    399.43    503.98    399.43    503.20  " /><path style="stroke-width: 0.85 ;&st7;   " d=" M   373.06,   496.24  C   374.92    503.76    382.51    508.36    390.03    506.50  " /><path style="stroke-width: 0.85 ;&st7;   " d=" M   390.03,   506.50  C   395.33    505.20    399.16    501.30    400.36    495.98  " /><path style="stroke-width: 0.85 ;&st7;   " d=" M   373.06,   496.24  C   378.77    503.73    389.45    505.17    396.94    499.47  " /><path style="stroke-width: 0.85 ;&st7;   " d=" M   396.94,   499.47  C   398.31    498.42    399.34    497.37    400.36    495.98  " /><path style="stroke-width: 0.85 ;&st7;   " d=" M   376.73,   503.20  C   376.73    502.43    376.10    501.80    375.33    501.80  " /><path style="stroke-width: 0.85 ;&st7;   " d=" M   375.33,   501.80  C   374.55    501.80    373.93    502.43    373.93    503.20  " /><path style="stroke-width: 0.85 ;&st7;   " d=" M   373.93,   503.20  C   373.93    503.98    374.55    504.60    375.33    504.60  " /><path style="stroke-width: 0.85 ;&st7;   " d=" M   375.33,   504.60  C   376.10    504.60    376.73    503.98    376.73    503.20  " /><path style="stroke-width: 0.85 ;&st7;   " d=" M   269.48,   471.74  C   270.87    470.37    270.90    468.13    269.53    466.73  " /><path style="stroke-width: 0.85 ;&st7;   " d=" M   269.53,   466.73  C   268.16    465.33    265.92    465.31    264.52    466.68  " /><path style="stroke-width: 0.85 ;&st7;   " d=" M   264.52,   466.68  C   263.81    467.37    263.46    468.22    263.46    469.21  " /><path style="stroke-width: 0.85 ;&st7;   " d=" M   274.43,   471.74  C   275.83    470.37    275.85    468.13    274.48    466.73  " /><path style="stroke-width: 0.85 ;&st7;   " d=" M   274.48,   466.73  C   273.12    465.33    270.87    465.31    269.48    466.68  " /><path style="stroke-width: 0.85 ;&st7;   " d=" M   269.48,   466.68  C   268.08    468.05    268.06    470.29    269.42    471.69  " /><path style="stroke-width: 0.85 ;&st7;   " d=" M   269.42,   471.69  C   269.44    471.70    269.46    471.72    269.48    471.74  " /><path style="stroke-width: 0.85 ;&st7;   " d=" M   280.45,   469.21  C   280.45    467.25    278.87    465.67    276.91    465.67  " /><path style="stroke-width: 0.85 ;&st7;   " d=" M   276.91,   465.67  C   274.96    465.67    273.37    467.25    273.37    469.21  " /><path style="stroke-width: 0.85 ;&st7;   " d=" M   273.37,   469.21  C   273.37    470.20    273.73    471.04    274.43    471.74  " /><path style="stroke-width: 0.85 ;&st7;   " d=" M   311.92,   441.23  C   313.29    442.63    315.53    442.65    316.93    441.28  " /><path style="stroke-width: 0.85 ;&st7;   " d=" M   316.93,   441.28  C   318.32    439.91    318.35    437.67    316.98    436.27  " /><path style="stroke-width: 0.85 ;&st7;   " d=" M   316.98,   436.27  C   316.28    435.57    315.44    435.21    314.45    435.21  " /><path style="stroke-width: 0.85 ;&st7;   " d=" M   311.92,   446.19  C   313.29    447.59    315.53    447.61    316.93    446.24  " /><path style="stroke-width: 0.85 ;&st7;   " d=" M   316.93,   446.24  C   318.32    444.87    318.35    442.63    316.98    441.23  " /><path style="stroke-width: 0.85 ;&st7;   " d=" M   316.98,   441.23  C   315.61    439.84    313.37    439.81    311.97    441.18  " /><path style="stroke-width: 0.85 ;&st7;   " d=" M   311.97,   441.18  C   311.95    441.20    311.94    441.21    311.92    441.23  " /><path style="stroke-width: 0.85 ;&st7;   " d=" M   314.45,   452.21  C   316.40    452.21    317.99    450.62    317.99    448.67  " /><path style="stroke-width: 0.85 ;&st7;   " d=" M   317.99,   448.67  C   317.99    446.71    316.40    445.13    314.45    445.13  " /><path style="stroke-width: 0.85 ;&st7;   " d=" M   314.45,   445.13  C   313.46    445.13    312.61    445.48    311.92    446.19  " /><path style="stroke-width: 0.85 ;&st7;  " d=" M   390.93,   409.72  L   390.93,   460.71  L   432.01,   460.71  " /><path style="stroke-width: 0.85 ;&st7;  " d=" M   450.42,   409.72  L   450.42,   450.79  " /><path style="stroke-width: 1.42 ;&st7;  " d=" M   467.42,   409.72  L   467.42,   537.20  L   220.96,   537.20  L   220.96,   409.72  L   467.42,   409.72  " /><path style="stroke-width: 0.85 ;&st7;  " d=" M   237.96,   409.72  L   237.96,   520.20  L   271.95,   520.20  " /><path style="stroke-width: 1.42 ;&st7;  " d=" M   310.20,   476.57  L   310.20,   480.54  L   318.70,   480.54  L   318.70,   476.57  " /><path style="stroke-width: 1.42 ;&st7;  " d=" M   307.08,   473.46  L   303.12,   473.46  L   303.12,   464.96  L   307.08,   464.96  " /><path style="stroke-width: 1.42 ;&st7;  " d=" M   310.20,   461.84  L   310.20,   457.88  L   318.70,   457.88  L   318.70,   461.84  " /><path style="stroke-width: 0.85 ;&st7;  " d=" M   314.45,   480.54  L   314.45,   503.20  L   373.94,   503.20  " /><path style="stroke-width: 0.85 ;&st7;  " d=" M   399.43,   503.20  L   450.42,   503.20  " /><path style="stroke-width: 0.85 ;&st7;  " d=" M   449.23,   502.20  L   448.96,   502.67  L   448.87,   503.20  L   448.96,   503.73  L   449.23,   504.20  L   449.65,   504.55  L   450.15,   504.74  L   450.70,   504.74  L   451.20,   504.55  L   451.62,   504.20  L   451.89,   503.73  L   451.98,   503.20  L   451.89,   502.67  L   451.62,   502.20  L   451.20,   501.85  L   450.70,   501.67  L   450.15,   501.67  L   449.65,   501.85  L   449.23,   502.20  L   449.63,   502.91  L   449.63,   503.49  L   450.00,   503.94  L   450.57,   504.04  L   451.08,   503.75  L   451.27,   503.20  L   451.08,   502.65  L   450.57,   502.37  L   450.00,   502.46  L   450.42,   503.20  " /><path style="stroke-width: 0.85 ;&st7;  " d=" M   450.42,   537.20  L   450.42,   470.62  " /><path style="stroke-width: 0.85 ;&st7;  " d=" M   314.45,   426.71  L   348.44,   426.71  L   348.44,   443.71  " /><path style="stroke-width: 0.85 ;&st7;  " d=" M   313.25,   425.71  L   312.98,   426.18  L   312.89,   426.71  L   312.98,   427.25  L   313.25,   427.72  L   313.67,   428.06  L   314.18,   428.25  L   314.72,   428.25  L   315.23,   428.06  L   315.64,   427.72  L   315.91,   427.25  L   316.01,   426.71  L   315.91,   426.18  L   315.64,   425.71  L   315.23,   425.37  L   314.72,   425.18  L   314.18,   425.18  L   313.67,   425.37  L   313.25,   425.71  L   313.65,   426.42  L   313.65,   427.01  L   314.02,   427.45  L   314.59,   427.55  L   315.10,   427.26  L   315.30,   426.71  L   315.10,   426.17  L   314.59,   425.88  L   314.02,   425.98  L   314.45,   426.71  " /><path style="stroke-width: 0.85 ;&st7;  " d=" M   348.44,   486.20  L   416.43,   486.20  L   416.43,   503.20  " /><path style="stroke-width: 0.85 ;&st7;  " d=" M   415.24,   502.20  L   414.97,   502.67  L   414.87,   503.20  L   414.97,   503.73  L   415.24,   504.20  L   415.65,   504.55  L   416.16,   504.74  L   416.70,   504.74  L   417.21,   504.55  L   417.62,   504.20  L   417.89,   503.73  L   417.99,   503.20  L   417.89,   502.67  L   417.62,   502.20  L   417.21,   501.85  L   416.70,   501.67  L   416.16,   501.67  L   415.65,   501.85  L   415.24,   502.20  L   415.63,   502.91  L   415.63,   503.49  L   416.01,   503.94  L   416.58,   504.04  L   417.08,   503.75  L   417.28,   503.20  L   417.08,   502.65  L   416.58,   502.37  L   416.01,   502.46  L   416.43,   503.20  " /><path style="stroke-width: 0.85 ;&st7;  " d=" M   297.45,   520.20  L   416.43,   520.20  L   416.43,   503.20  " /><path style="stroke-width: 0.85 ;&st7;  " d=" M   236.77,   468.20  L   236.50,   468.67  L   236.40,   469.21  L   236.50,   469.74  L   236.77,   470.21  L   237.18,   470.56  L   237.69,   470.74  L   238.23,   470.74  L   238.74,   470.56  L   239.15,   470.21  L   239.42,   469.74  L   239.52,   469.21  L   239.42,   468.67  L   239.15,   468.20  L   238.74,   467.86  L   238.23,   467.67  L   237.69,   467.67  L   237.18,   467.86  L   236.77,   468.20  L   237.16,   468.92  L   237.16,   469.50  L   237.54,   469.94  L   238.11,   470.04  L   238.61,   469.75  L   238.81,   469.21  L   238.61,   468.66  L   238.11,   468.37  L   237.54,   468.47  L   237.96,   469.21  " /><text style="&st18;" transform="matrix(&st16;  311.72  471.18 )">M</text><text style="&st18;" transform="matrix(&st16;  240.54  417.91 )">+2</text><text style="&st18;" transform="matrix(&st16;  317.03  417.91 )">+1</text><text style="&st18;" transform="matrix(&st16;  393.52  417.91 )">+S</text><text style="&st18;" transform="matrix(&st16;  453.01  417.91 )">B</text><text style="&st18;" transform="matrix(&st16;  453.01  533.51 )">E</text><text style="&st18;" transform="matrix(&st16;  441.73  407.15 )">2</text><path style="stroke-width: 1.42 ;&st7;   " d=" M   454.96,   405.18  C   454.96    402.68    452.93    400.65    450.42    400.65  " /><path style="stroke-width: 1.42 ;&st7;   " d=" M   450.42,   400.65  C   447.92    400.65    445.89    402.68    445.89    405.18  " /><path style="stroke-width: 1.42 ;&st7;   " d=" M   445.89,   405.18  C   445.89    407.69    447.92    409.72    450.42    409.72  " /><path style="stroke-width: 1.42 ;&st7;   " d=" M   450.42,   409.72  C   452.93    409.72    454.96    407.69    454.96    405.18  " /><text style="&st18;" transform="matrix(&st16;  448.12  407.15 )">A</text><text style="&st18;" transform="matrix(&st16;  229.27  407.15 )">4</text><path style="stroke-width: 1.42 ;&st7;   " d=" M   242.49,   405.18  C   242.49    402.68    240.46    400.65    237.96    400.65  " /><path style="stroke-width: 1.42 ;&st7;   " d=" M   237.96,   400.65  C   235.46    400.65    233.43    402.68    233.43    405.18  " /><path style="stroke-width: 1.42 ;&st7;   " d=" M   233.43,   405.18  C   233.43    407.69    235.46    409.72    237.96    409.72  " /><path style="stroke-width: 1.42 ;&st7;   " d=" M   237.96,   409.72  C   240.46    409.72    242.49    407.69    242.49    405.18  " /><text style="&st18;" transform="matrix(&st16;  235.66  407.15 )">A</text><text style="&st18;" transform="matrix(&st16;  305.75  407.15 )">1</text><path style="stroke-width: 1.42 ;&st7;   " d=" M   318.98,   405.18  C   318.98    402.68    316.95    400.65    314.45    400.65  " /><path style="stroke-width: 1.42 ;&st7;   " d=" M   314.45,   400.65  C   311.94    400.65    309.91    402.68    309.91    405.18  " /><path style="stroke-width: 1.42 ;&st7;   " d=" M   309.91,   405.18  C   309.91    407.69    311.94    409.72    314.45    409.72  " /><path style="stroke-width: 1.42 ;&st7;   " d=" M   314.45,   409.72  C   316.95    409.72    318.98    407.69    318.98    405.18  " /><text style="&st18;" transform="matrix(&st16;  312.14  407.15 )">A</text><text style="&st18;" transform="matrix(&st16;  382.24  407.15 )">3</text><text style="&st18;" transform="matrix(&st16;  388.63  407.15 )">A</text><path style="stroke-width: 1.42 ;&st7;   " d=" M   395.47,   405.18  C   395.47    402.68    393.44    400.65    390.93    400.65  " /><path style="stroke-width: 1.42 ;&st7;   " d=" M   390.93,   400.65  C   388.43    400.65    386.40    402.68    386.40    405.18  " /><path style="stroke-width: 1.42 ;&st7;   " d=" M   386.40,   405.18  C   386.40    407.69    388.43    409.72    390.93    409.72  " /><path style="stroke-width: 1.42 ;&st7;   " d=" M   390.93,   409.72  C   393.44    409.72    395.47    407.69    395.47    405.18  " /><text style="&st18;" transform="matrix(&st16;  441.73  543.7 )">5</text><text style="&st18;" transform="matrix(&st16;  448.12  543.7 )">A</text><path style="stroke-width: 1.42 ;&st7;   " d=" M   454.96,   541.73  C   454.96    539.22    452.93    537.20    450.42    537.20  " /><path style="stroke-width: 1.42 ;&st7;   " d=" M   450.42,   537.20  C   447.92    537.20    445.89    539.22    445.89    541.73  " /><path style="stroke-width: 1.42 ;&st7;   " d=" M   445.89,   541.73  C   445.89    544.23    447.92    546.26    450.42    546.26  " /><path style="stroke-width: 1.42 ;&st7;   " d=" M   450.42,   546.26  C   452.93    546.26    454.96    544.23    454.96    541.73  " /><g ewd:figtype="title"><text style="&st18;" transform="matrix(&st16;  226.06  551.91 )" ewd:textID="8">Windshield Wiper Motor Assembly</text><text style="&st18;" transform="matrix(&st16;  226.05  544.81 )">A1(A)</text></g></g><g ewd:figtype="conn" ewd:figID="3" ewd:code="A32,G56"><path style="stroke-width: 1.42 ;&st7;  " d=" M   229.46,   324.73  L   229.46,   350.23  L   637.39,   350.23  L   637.39,   324.73  L   229.46,   324.73  " /><path style="stroke-width: 1.13 ;&st7; stroke-dasharray:3, 3;" d=" M   229.46,   333.23  L   637.39,   333.23  " /><path style="stroke-width: 1.13 ;&st7; stroke-dasharray:3, 3;" d=" M   229.46,   341.73  L   637.39,   341.73  " /><path style="stroke-width: 0.85 ;&st7;  " d=" M   237.96,   324.73  L   237.96,   350.23  " /><path style="stroke-width: 0.85 ;&st7;  " d=" M   314.45,   324.73  L   314.45,   350.23  " /><path style="stroke-width: 0.85 ;&st7;  " d=" M   390.93,   324.73  L   390.93,   350.23  " /><path style="stroke-width: 0.85 ;&st7;  " d=" M   628.89,   324.73  L   628.89,   350.23  " /><text style="&st18;" transform="matrix(&st16;  617.1  356.73 )">11</text><path style="stroke-width: 1.42 ;&st7;   " d=" M   633.43,   354.76  C   633.43    352.26    631.40    350.23    628.89    350.23  " /><path style="stroke-width: 1.42 ;&st7;   " d=" M   628.89,   350.23  C   626.39    350.23    624.36    352.26    624.36    354.76  " /><path style="stroke-width: 1.42 ;&st7;   " d=" M   624.36,   354.76  C   624.36    357.26    626.39    359.29    628.89    359.29  " /><path style="stroke-width: 1.42 ;&st7;   " d=" M   628.89,   359.29  C   631.40    359.29    633.43    357.26    633.43    354.76  " /><text style="&st18;" transform="matrix(&st16;  626.59  356.73 )">A</text><text style="&st18;" transform="matrix(&st16;  620.2  322.17 )">8</text><path style="stroke-width: 1.42 ;&st7;   " d=" M   633.43,   320.20  C   633.43    317.70    631.40    315.67    628.89    315.67  " /><path style="stroke-width: 1.42 ;&st7;   " d=" M   628.89,   315.67  C   626.39    315.67    624.36    317.70    624.36    320.20  " /><path style="stroke-width: 1.42 ;&st7;   " d=" M   624.36,   320.20  C   624.36    322.70    626.39    324.73    628.89    324.73  " /><path style="stroke-width: 1.42 ;&st7;   " d=" M   628.89,   324.73  C   631.40    324.73    633.43    322.70    633.43    320.20  " /><text style="&st18;" transform="matrix(&st16;  626.71  322.17 )">B</text><text style="&st18;" transform="matrix(&st16;  226.16  356.73 )">10</text><path style="stroke-width: 1.42 ;&st7;   " d=" M   242.49,   354.76  C   242.49    352.26    240.46    350.23    237.96    350.23  " /><path style="stroke-width: 1.42 ;&st7;   " d=" M   237.96,   350.23  C   235.46    350.23    233.43    352.26    233.43    354.76  " /><path style="stroke-width: 1.42 ;&st7;   " d=" M   233.43,   354.76  C   233.43    357.26    235.46    359.29    237.96    359.29  " /><path style="stroke-width: 1.42 ;&st7;   " d=" M   237.96,   359.29  C   240.46    359.29    242.49    357.26    242.49    354.76  " /><text style="&st18;" transform="matrix(&st16;  235.66  356.73 )">A</text><text style="&st18;" transform="matrix(&st16;  229.27  322.17 )">9</text><text style="&st18;" transform="matrix(&st16;  235.77  322.17 )">B</text><path style="stroke-width: 1.42 ;&st7;   " d=" M   242.49,   320.20  C   242.49    317.70    240.46    315.67    237.96    315.67  " /><path style="stroke-width: 1.42 ;&st7;   " d=" M   237.96,   315.67  C   235.46    315.67    233.43    317.70    233.43    320.20  " /><path style="stroke-width: 1.42 ;&st7;   " d=" M   233.43,   320.20  C   233.43    322.70    235.46    324.73    237.96    324.73  " /><path style="stroke-width: 1.42 ;&st7;   " d=" M   237.96,   324.73  C   240.46    324.73    242.49    322.70    242.49    320.20  " /><text style="&st18;" transform="matrix(&st16;  305.75  356.73 )">9</text><text style="&st18;" transform="matrix(&st16;  312.14  356.73 )">A</text><path style="stroke-width: 1.42 ;&st7;   " d=" M   318.98,   354.76  C   318.98    352.26    316.95    350.23    314.45    350.23  " /><path style="stroke-width: 1.42 ;&st7;   " d=" M   314.45,   350.23  C   311.94    350.23    309.91    352.26    309.91    354.76  " /><path style="stroke-width: 1.42 ;&st7;   " d=" M   309.91,   354.76  C   309.91    357.26    311.94    359.29    314.45    359.29  " /><path style="stroke-width: 1.42 ;&st7;   " d=" M   314.45,   359.29  C   316.95    359.29    318.98    357.26    318.98    354.76  " /><text style="&st18;" transform="matrix(&st16;  302.65  322.17 )">10</text><path style="stroke-width: 1.42 ;&st7;   " d=" M   318.98,   320.20  C   318.98    317.70    316.95    315.67    314.45    315.67  " /><path style="stroke-width: 1.42 ;&st7;   " d=" M   314.45,   315.67  C   311.94    315.67    309.91    317.70    309.91    320.20  " /><path style="stroke-width: 1.42 ;&st7;   " d=" M   309.91,   320.20  C   309.91    322.70    311.94    324.73    314.45    324.73  " /><path style="stroke-width: 1.42 ;&st7;   " d=" M   314.45,   324.73  C   316.95    324.73    318.98    322.70    318.98    320.20  " /><text style="&st18;" transform="matrix(&st16;  312.26  322.17 )">B</text><text style="&st18;" transform="matrix(&st16;  382.24  356.73 )">8</text><text style="&st18;" transform="matrix(&st16;  388.63  356.73 )">A</text><path style="stroke-width: 1.42 ;&st7;   " d=" M   395.47,   354.76  C   395.47    352.26    393.44    350.23    390.93    350.23  " /><path style="stroke-width: 1.42 ;&st7;   " d=" M   390.93,   350.23  C   388.43    350.23    386.40    352.26    386.40    354.76  " /><path style="stroke-width: 1.42 ;&st7;   " d=" M   386.40,   354.76  C   386.40    357.26    388.43    359.29    390.93    359.29  " /><path style="stroke-width: 1.42 ;&st7;   " d=" M   390.93,   359.29  C   393.44    359.29    395.47    357.26    395.47    354.76  " /><text style="&st18;" transform="matrix(&st16;  379.14  322.17 )">11</text><path style="stroke-width: 1.42 ;&st7;   " d=" M   395.47,   320.20  C   395.47    317.70    393.44    315.67    390.93    315.67  " /><path style="stroke-width: 1.42 ;&st7;   " d=" M   390.93,   315.67  C   388.43    315.67    386.40    317.70    386.40    320.20  " /><path style="stroke-width: 1.42 ;&st7;   " d=" M   386.40,   320.20  C   386.40    322.70    388.43    324.73    390.93    324.73  " /><path style="stroke-width: 1.42 ;&st7;   " d=" M   390.93,   324.73  C   393.44    324.73    395.47    322.70    395.47    320.20  " /><text style="&st18;" transform="matrix(&st16;  388.75  322.17 )">B</text><g ewd:figtype="title"><text style="&st18;" transform="matrix(&st16;  421.52  321.03 )" ewd:textID="4">Junction Connector</text><text style="&st18;" transform="matrix(&st16;  421.52  313.93 )">A32(A),G56(B)</text></g></g><g ewd:code="G60,G61" ewd:figID="4" ewd:comment="1" ewd:figtype="conn"><path style="stroke-width: 0.85 ;&st7;  " d=" M   614.44,   178.13  L   592.36,   165.38  " /><path style="stroke-width: 0.85 ;&st7;   " d=" M   375.35,    95.27  C   375.35     94.49    374.72     93.85    373.94     93.85  " /><path style="stroke-width: 0.85 ;&st7;   " d=" M   373.94,    93.85  C   373.16     93.85    372.52     94.49    372.52     95.27  " /><path style="stroke-width: 0.85 ;&st7;   " d=" M   372.52,    95.27  C   372.52     96.05    373.16     96.69    373.94     96.69  " /><path style="stroke-width: 0.85 ;&st7;   " d=" M   373.94,    96.69  C   374.72     96.69    375.35     96.05    375.35     95.27  " /><path style="stroke-width: 0.85 ;&st7;   " d=" M   341.36,    95.27  C   341.36     94.49    340.73     93.85    339.94     93.85  " /><path style="stroke-width: 0.85 ;&st7;   " d=" M   339.94,    93.85  C   339.16     93.85    338.53     94.49    338.53     95.27  " /><path style="stroke-width: 0.85 ;&st7;   " d=" M   338.53,    95.27  C   338.53     96.05    339.16     96.69    339.94     96.69  " /><path style="stroke-width: 0.85 ;&st7;   " d=" M   339.94,    96.69  C   340.73     96.69    341.36     96.05    341.36     95.27  " /><path style="stroke-width: 0.85 ;&st7;   " d=" M   672.80,   112.27  C   672.80    111.48    672.17    110.85    671.39    110.85  " /><path style="stroke-width: 0.85 ;&st7;   " d=" M   671.39,   110.85  C   670.61    110.85    669.97    111.48    669.97    112.27  " /><path style="stroke-width: 0.85 ;&st7;   " d=" M   669.97,   112.27  C   669.97    113.05    670.61    113.68    671.39    113.68  " /><path style="stroke-width: 0.85 ;&st7;   " d=" M   671.39,   113.68  C   672.17    113.68    672.80    113.05    672.80    112.27  " /><path style="stroke-width: 0.85 ;&st7;   " d=" M   689.80,   112.27  C   689.80    111.48    689.17    110.85    688.38    110.85  " /><path style="stroke-width: 0.85 ;&st7;   " d=" M   688.38,   110.85  C   687.60    110.85    686.97    111.48    686.97    112.27  " /><path style="stroke-width: 0.85 ;&st7;   " d=" M   686.97,   112.27  C   686.97    113.05    687.60    113.68    688.38    113.68  " /><path style="stroke-width: 0.85 ;&st7;   " d=" M   688.38,   113.68  C   689.17    113.68    689.80    113.05    689.80    112.27  " /><path style="stroke-width: 0.85 ;&st7;   " d=" M   375.35,   146.26  C   375.35    145.48    374.72    144.84    373.94    144.84  " /><path style="stroke-width: 0.85 ;&st7;   " d=" M   373.94,   144.84  C   373.16    144.84    372.52    145.48    372.52    146.26  " /><path style="stroke-width: 0.85 ;&st7;   " d=" M   372.52,   146.26  C   372.52    147.04    373.16    147.68    373.94    147.68  " /><path style="stroke-width: 0.85 ;&st7;   " d=" M   373.94,   147.68  C   374.72    147.68    375.35    147.04    375.35    146.26  " /><path style="stroke-width: 0.85 ;&st7;   " d=" M   341.36,   146.26  C   341.36    145.48    340.73    144.84    339.94    144.84  " /><path style="stroke-width: 0.85 ;&st7;   " d=" M   339.94,   144.84  C   339.16    144.84    338.53    145.48    338.53    146.26  " /><path style="stroke-width: 0.85 ;&st7;   " d=" M   338.53,   146.26  C   338.53    147.04    339.16    147.68    339.94    147.68  " /><path style="stroke-width: 0.85 ;&st7;   " d=" M   339.94,   147.68  C   340.73    147.68    341.36    147.04    341.36    146.26  " /><path style="stroke-width: 0.85 ;&st7;   " d=" M   358.36,   163.26  C   358.36    162.48    357.72    161.84    356.94    161.84  " /><path style="stroke-width: 0.85 ;&st7;   " d=" M   356.94,   161.84  C   356.16    161.84    355.52    162.48    355.52    163.26  " /><path style="stroke-width: 0.85 ;&st7;   " d=" M   355.52,   163.26  C   355.52    164.04    356.16    164.67    356.94    164.67  " /><path style="stroke-width: 0.85 ;&st7;   " d=" M   356.94,   164.67  C   357.72    164.67    358.36    164.04    358.36    163.26  " /><path style="stroke-width: 0.85 ;&st7;   " d=" M   341.36,   163.26  C   341.36    162.48    340.73    161.84    339.94    161.84  " /><path style="stroke-width: 0.85 ;&st7;   " d=" M   339.94,   161.84  C   339.16    161.84    338.53    162.48    338.53    163.26  " /><path style="stroke-width: 0.85 ;&st7;   " d=" M   338.53,   163.26  C   338.53    164.04    339.16    164.67    339.94    164.67  " /><path style="stroke-width: 0.85 ;&st7;   " d=" M   339.94,   164.67  C   340.73    164.67    341.36    164.04    341.36    163.26  " /><path style="stroke-width: 0.85 ;&st7;   " d=" M   426.35,   129.26  C   426.35    128.48    425.71    127.85    424.93    127.85  " /><path style="stroke-width: 0.85 ;&st7;   " d=" M   424.93,   127.85  C   424.15    127.85    423.51    128.48    423.51    129.26  " /><path style="stroke-width: 0.85 ;&st7;   " d=" M   423.51,   129.26  C   423.51    130.05    424.15    130.68    424.93    130.68  " /><path style="stroke-width: 0.85 ;&st7;   " d=" M   424.93,   130.68  C   425.71    130.68    426.35    130.05    426.35    129.26  " /><path style="stroke-width: 0.85 ;&st7;   " d=" M   392.35,   112.27  C   392.35    111.48    391.72    110.85    390.93    110.85  " /><path style="stroke-width: 0.85 ;&st7;   " d=" M   390.93,   110.85  C   390.15    110.85    389.52    111.48    389.52    112.27  " /><path style="stroke-width: 0.85 ;&st7;   " d=" M   389.52,   112.27  C   389.52    113.05    390.15    113.68    390.93    113.68  " /><path style="stroke-width: 0.85 ;&st7;   " d=" M   390.93,   113.68  C   391.72    113.68    392.35    113.05    392.35    112.27  " /><path style="stroke-width: 0.85 ;&st7;   " d=" M   409.35,   129.26  C   409.35    128.48    408.71    127.85    407.93    127.85  " /><path style="stroke-width: 0.85 ;&st7;   " d=" M   407.93,   127.85  C   407.15    127.85    406.52    128.48    406.52    129.26  " /><path style="stroke-width: 0.85 ;&st7;   " d=" M   406.52,   129.26  C   406.52    130.05    407.15    130.68    407.93    130.68  " /><path style="stroke-width: 0.85 ;&st7;   " d=" M   407.93,   130.68  C   408.71    130.68    409.35    130.05    409.35    129.26  " /><path style="stroke-width: 0.85 ;&st7;   " d=" M   443.34,   112.27  C   443.34    111.48    442.71    110.85    441.93    110.85  " /><path style="stroke-width: 0.85 ;&st7;   " d=" M   441.93,   110.85  C   441.14    110.85    440.51    111.48    440.51    112.27  " /><path style="stroke-width: 0.85 ;&st7;   " d=" M   440.51,   112.27  C   440.51    113.05    441.14    113.68    441.93    113.68  " /><path style="stroke-width: 0.85 ;&st7;   " d=" M   441.93,   113.68  C   442.71    113.68    443.34    113.05    443.34    112.27  " /><path style="stroke-width: 0.85 ;&st7;   " d=" M   409.35,   112.27  C   409.35    111.48    408.71    110.85    407.93    110.85  " /><path style="stroke-width: 0.85 ;&st7;   " d=" M   407.93,   110.85  C   407.15    110.85    406.52    111.48    406.52    112.27  " /><path style="stroke-width: 0.85 ;&st7;   " d=" M   406.52,   112.27  C   406.52    113.05    407.15    113.68    407.93    113.68  " /><path style="stroke-width: 0.85 ;&st7;   " d=" M   407.93,   113.68  C   408.71    113.68    409.35    113.05    409.35    112.27  " /><path style="stroke-width: 0.85 ;&st7;   " d=" M   375.35,   112.27  C   375.35    111.48    374.72    110.85    373.94    110.85  " /><path style="stroke-width: 0.85 ;&st7;   " d=" M   373.94,   110.85  C   373.16    110.85    372.52    111.48    372.52    112.27  " /><path style="stroke-width: 0.85 ;&st7;   " d=" M   372.52,   112.27  C   372.52    113.05    373.16    113.68    373.94    113.68  " /><path style="stroke-width: 0.85 ;&st7;   " d=" M   373.94,   113.68  C   374.72    113.68    375.35    113.05    375.35    112.27  " /><path style="stroke-width: 0.85 ;&st7;   " d=" M   392.35,   129.26  C   392.35    128.48    391.72    127.85    390.93    127.85  " /><path style="stroke-width: 0.85 ;&st7;   " d=" M   390.93,   127.85  C   390.15    127.85    389.52    128.48    389.52    129.26  " /><path style="stroke-width: 0.85 ;&st7;   " d=" M   389.52,   129.26  C   389.52    130.05    390.15    130.68    390.93    130.68  " /><path style="stroke-width: 0.85 ;&st7;   " d=" M   390.93,   130.68  C   391.72    130.68    392.35    130.05    392.35    129.26  " /><path style="stroke-width: 0.85 ;&st7;   " d=" M   375.35,   129.26  C   375.35    128.48    374.72    127.85    373.94    127.85  " /><path style="stroke-width: 0.85 ;&st7;   " d=" M   373.94,   127.85  C   373.16    127.85    372.52    128.48    372.52    129.26  " /><path style="stroke-width: 0.85 ;&st7;   " d=" M   372.52,   129.26  C   372.52    130.05    373.16    130.68    373.94    130.68  " /><path style="stroke-width: 0.85 ;&st7;   " d=" M   373.94,   130.68  C   374.72    130.68    375.35    130.05    375.35    129.26  " /><path style="stroke-width: 0.85 ;&st7;  " d=" M   331.44,   171.76  L   331.44,    69.77  " /><path style="stroke-width: 0.85 ;&st7;  " d=" M   297.45,   137.76  L   450.42,   137.76  " /><path style="stroke-width: 0.85 ;&st7;  " d=" M   297.45,    86.77  L   450.42,    86.77  " /><path style="stroke-width: 0.85 ;&st7;  " d=" M   297.45,   120.77  L   450.42,   120.77  " /><path style="stroke-width: 1.42 ;&st7;  " d=" M   263.46,    69.77  L   263.46,   171.76  L   450.42,   171.76  L   450.42,    69.77  L   263.46,    69.77  " /><path style="stroke-width: 0.85 ;&st7;  " d=" M   409.35,   129.26  L   423.51,   129.26  " /><path style="stroke-width: 0.85 ;&st7;  " d=" M   375.35,   112.27  L   389.52,   112.27  " /><path style="stroke-width: 0.85 ;&st7;  " d=" M   688.38,   120.77  L   688.38,   239.75  " /><path style="stroke-width: 0.85 ;&st7;  " d=" M   688.38,   239.75  L   688.38,   265.24  " /><path style="stroke-width: 0.85 ;&st7;  " d=" M   341.36,    95.27  L   372.52,    95.27  " /><path style="stroke-width: 0.85 ;&st7;  " d=" M   373.94,   214.25  L   203.97,   214.25  " /><path style="stroke-width: 0.85 ;&st7;  " d=" M   202.77,   213.25  L   202.50,   213.72  L   202.41,   214.25  L   202.50,   214.78  L   202.77,   215.25  L   203.19,   215.60  L   203.69,   215.79  L   204.24,   215.79  L   204.74,   215.60  L   205.16,   215.25  L   205.43,   214.78  L   205.52,   214.25  L   205.43,   213.72  L   205.16,   213.25  L   204.74,   212.90  L   204.24,   212.71  L   203.69,   212.71  L   203.19,   212.90  L   202.77,   213.25  L   203.17,   213.96  L   203.17,   214.54  L   203.54,   214.99  L   204.11,   215.09  L   204.62,   214.80  L   204.82,   214.25  L   204.62,   213.70  L   204.11,   213.41  L   203.54,   213.51  L   203.97,   214.25  " /><path style="stroke-width: 0.85 ;&st7;  " d=" M   297.45,   103.77  L   450.42,   103.77  " /><path style="stroke-width: 0.85 ;&st7;  " d=" M   203.97,   222.75  L   203.97,   265.24  " /><path style="stroke-width: 0.85 ;&st7;  " d=" M   314.45,   265.24  L   314.45,   197.25  L   373.94,   197.25  L   373.94,   171.76  " /><path style="stroke-width: 0.85 ;&st7;  " d=" M   390.93,   222.75  L   390.93,   265.24  " /><path style="stroke-width: 1.42 ;&st7;  " d=" M   713.88,    52.78  L   713.88,   265.24  L   178.47,   265.24  L   178.47,    52.78  L   713.88,    52.78  " /><path style="stroke-width: 0.85 ;&st7;  " d=" M   688.38,   239.75  L   687.96,   239.01  L   688.53,   238.91  L   689.04,   239.20  L   689.23,   239.75  L   689.04,   240.29  L   688.53,   240.58  L   687.96,   240.48  L   687.59,   240.04  L   687.59,   239.45  L   687.19,   238.74  L   687.61,   238.40  L   688.11,   238.21  L   688.66,   238.21  L   689.16,   238.40  L   689.58,   238.74  L   689.85,   239.21  L   689.94,   239.75  L   689.85,   240.28  L   689.58,   240.75  L   689.16,   241.09  L   688.66,   241.28  L   688.11,   241.28  L   687.61,   241.09  L   687.19,   240.75  L   686.92,   240.28  L   686.83,   239.75  L   686.92,   239.21  L   687.19,   238.74  " /><path style="stroke-width: 0.85 ;&st7;  " d=" M   628.89,   231.25  L   628.47,   230.51  L   629.04,   230.41  L   629.55,   230.70  L   629.74,   231.25  L   629.55,   231.79  L   629.04,   232.08  L   628.47,   231.98  L   628.10,   231.54  L   628.10,   230.96  L   627.70,   230.24  L   628.12,   229.90  L   628.62,   229.71  L   629.17,   229.71  L   629.67,   229.90  L   630.09,   230.24  L   630.36,   230.71  L   630.45,   231.25  L   630.36,   231.78  L   630.09,   232.25  L   629.67,   232.60  L   629.17,   232.78  L   628.62,   232.78  L   628.12,   232.60  L   627.70,   232.25  L   627.43,   231.78  L   627.34,   231.25  L   627.43,   230.71  L   627.70,   230.24  " /><path style="stroke-width: 0.85 ;&st7;  " d=" M   628.89,   231.25  L   628.89,   265.24  " /><path style="stroke-width: 0.85 ;&st7;  " d=" M   577.90,   222.75  L   577.90,   239.75  L   688.38,   239.75  " /><path style="stroke-width: 0.85 ;&st7;  " d=" M   424.93,   171.76  L   424.93,   205.75  " /><path style="stroke-width: 0.85 ;&st7;  " d=" M   407.93,   171.76  L   407.93,   205.75  " /><path style="stroke-width: 1.42 ;&st7;  " d=" M   637.39,   205.75  L   637.39,   222.75  L   373.94,   222.75  L   373.94,   205.75  L   637.39,   205.75  " /><path style="stroke-width: 0.85 ;&st7;  " d=" M   339.94,   171.76  L   339.94,   180.26  L   203.97,   180.26  L   203.97,   222.75  " /><path style="stroke-width: 0.85 ;&st7;  " d=" M   672.80,   112.27  L   686.97,   112.27  " /><path style="stroke-width: 0.85 ;&st7;  " d=" M   679.89,   120.77  L   679.89,    69.77  " /><path style="stroke-width: 0.85 ;&st7;  " d=" M   662.89,   120.77  L   662.89,    69.77  " /><path style="stroke-width: 0.85 ;&st7;  " d=" M   441.93,   171.76  L   441.93,   205.75  " /><path style="stroke-width: 0.85 ;&st7;  " d=" M   620.40,   103.77  L   696.88,   103.77  " /><path style="stroke-width: 0.85 ;&st7;  " d=" M   620.40,    86.77  L   696.88,    86.77  " /><path style="stroke-width: 1.42 ;&st7;  " d=" M   586.40,    69.77  L   586.40,   120.77  L   696.88,   120.77  L   696.88,    69.77  L   586.40,    69.77  " /><path style="stroke-width: 0.85 ;&st7;  " d=" M   356.94,   171.76  L   356.94,   188.75  L   237.96,   188.75  L   237.96,   265.24  " /><path style="stroke-width: 0.85 ;&st7;  " d=" M   671.39,   120.77  L   671.39,   231.25  L   628.89,   231.25  L   628.89,   222.75  " /><path style="stroke-width: 0.85 ;&st7;  " d=" M   390.93,   171.76  L   390.93,   205.75  " /><path style="stroke-width: 0.85 ;&st7;  " d=" M   341.36,   146.26  L   372.52,   146.26  " /><path style="stroke-width: 0.85 ;&st7;  " d=" M   341.36,   163.26  L   355.52,   163.26  " /><path style="stroke-width: 0.85 ;&st7;  " d=" M   433.43,    69.77  L   433.43,   171.76  " /><path style="stroke-width: 0.85 ;&st7;  " d=" M   416.43,    69.77  L   416.43,   171.76  " /><path style="stroke-width: 0.85 ;&st7;  " d=" M   399.43,    69.77  L   399.43,   171.76  " /><path style="stroke-width: 0.85 ;&st7;  " d=" M   297.45,   154.76  L   450.42,   154.76  " /><path style="stroke-width: 0.85 ;&st7;  " d=" M   409.35,   112.27  L   440.51,   112.27  " /><path style="stroke-width: 0.85 ;&st7;  " d=" M   382.44,    69.77  L   382.44,   171.76  " /><path style="stroke-width: 0.85 ;&st7;  " d=" M   375.35,   129.26  L   389.52,   129.26  " /><path style="stroke-width: 0.85 ;&st7;  " d=" M   365.44,   171.76  L   365.44,    69.77  " /><path style="stroke-width: 0.85 ;&st7;  " d=" M   348.44,   171.76  L   348.44,    69.77  " /><path style="stroke-width: 0.85 ;&st7;  " d=" M   592.36,   165.38  L   594.69,   168.42  L   596.16,   165.88  L   592.36,   165.38  L   593.64,   166.12  L   594.63,   167.41  L   595.24,   166.33  L   593.64,   166.12  L   594.28,   166.49  L   594.59,   166.90  L   594.79,   166.56  L   594.28,   166.49  " /><path style="stroke-width: 0.85 ;&st7;  " d=" M   577.90,   205.75  L   577.90,   171.76  L   594.90,   171.76  L   596.32,   168.92  L   599.15,   174.59  L   601.98,   168.92  L   604.82,   174.59  L   607.65,   168.92  L   610.48,   174.59  L   611.90,   171.76  L   628.89,   171.76  L   628.89,   205.75  " /><text style="&st18;" transform="matrix(&st16;  336.2  80.24 )">+B</text><g ewd:code="" ewd:figID="11" ewd:comment="1" ewd:figtype="commref"><text style="&st18;" transform="matrix(&st17;  574.21  193.47 )">(*1)</text></g><g ewd:code="" ewd:figID="12" ewd:comment="1" ewd:figtype="commref"><text style="&st18;" transform="matrix(&st17;  625.2  193.47 )">(*1)</text></g><text style="&st18;" transform="matrix(&st17;  282.43  145.37 )" ewd:textID="3">Front Wiper Switch</text><text style="&st18;" transform="matrix(&st16;  637.48  97.24 )" ewd:textID="5">Off</text><text style="&st18;" transform="matrix(&st16;  307.33  97.24 )">MIST</text><text style="&st18;" transform="matrix(&st16;  308.11  114.23 )">OFF</text><text style="&st18;" transform="matrix(&st16;  309.31  131.23 )">INT</text><text style="&st18;" transform="matrix(&st16;  310.01  148.23 )">LO</text><text style="&st18;" transform="matrix(&st16;  311.06  165.23 )">HI</text><text style="&st18;" transform="matrix(&st16;  637.48  114.23 )" ewd:textID="6">On</text><text style="&st18;" transform="matrix(&st16;  353.59  80.24 )">+2</text><text style="&st18;" transform="matrix(&st16;  370.59  80.24 )">+1</text><text style="&st18;" transform="matrix(&st16;  387.58  80.24 )">+S</text><text style="&st18;" transform="matrix(&st16;  401.25  80.24 )">INT1</text><text style="&st18;" transform="matrix(&st16;  418.24  80.24 )">INT2</text><text style="&st18;" transform="matrix(&st16;  438.19  80.24 )">B1</text><text style="&st18;" transform="matrix(&st16;  668.42  80.24 )">W</text><text style="&st18;" transform="matrix(&st16;  683.56  80.24 )">EW</text><text style="&st18;" transform="matrix(&st16;  417.71  230.38 )" ewd:textID="10">Wiper Relay</text><text style="&st18;" transform="matrix(&st16;  206.55  261.55 )">+B</text><text style="&st18;" transform="matrix(&st16;  240.54  261.55 )">+2</text><text style="&st18;" transform="matrix(&st16;  317.03  261.55 )">+1</text><text style="&st18;" transform="matrix(&st16;  393.52  261.55 )">+S</text><text style="&st18;" transform="matrix(&st16;  690.97  261.55 )">EW</text><text style="&st18;" transform="matrix(&st16;  631.48  261.55 )">WF</text><text style="&st18;" transform="matrix(&st17;  599.72  104.56 )" ewd:textID="2">Front <tspan x="0 " dy="6.0">Washer </tspan><tspan x="0 " dy="6.0">Switch</tspan></text><path style="stroke-width: 0.85 ;&st7;  " d=" M   297.45,    69.77  L   297.45,   171.76  " /><path style="stroke-width: 0.85 ;&st7;  " d=" M   620.40,    69.77  L   620.40,   120.77  " /><text style="&st18;" transform="matrix(&st16;  536.69  230.38 )" ewd:textID="10">Wiper Relay</text><text style="&st18;" transform="matrix(&st16;  195.27  271.74 )">2</text><path style="stroke-width: 1.42 ;&st7;   " d=" M   208.50,   269.77  C   208.50    267.27    206.47    265.24    203.97    265.24  " /><path style="stroke-width: 1.42 ;&st7;   " d=" M   203.97,   265.24  C   201.46    265.24    199.43    267.27    199.43    269.77  " /><path style="stroke-width: 1.42 ;&st7;   " d=" M   199.43,   269.77  C   199.43    272.28    201.46    274.31    203.97    274.31  " /><path style="stroke-width: 1.42 ;&st7;   " d=" M   203.97,   274.31  C   206.47    274.31    208.50    272.28    208.50    269.77  " /><text style="&st18;" transform="matrix(&st16;  201.78  271.74 )">B</text><text style="&st18;" transform="matrix(&st16;  620.2  271.74 )">3</text><path style="stroke-width: 1.42 ;&st7;   " d=" M   633.43,   269.77  C   633.43    267.27    631.40    265.24    628.89    265.24  " /><path style="stroke-width: 1.42 ;&st7;   " d=" M   628.89,   265.24  C   626.39    265.24    624.36    267.27    624.36    269.77  " /><path style="stroke-width: 1.42 ;&st7;   " d=" M   624.36,   269.77  C   624.36    272.28    626.39    274.31    628.89    274.31  " /><path style="stroke-width: 1.42 ;&st7;   " d=" M   628.89,   274.31  C   631.40    274.31    633.43    272.28    633.43    269.77  " /><text style="&st18;" transform="matrix(&st16;  626.59  271.74 )">A</text><text style="&st18;" transform="matrix(&st16;  679.69  271.74 )">2</text><path style="stroke-width: 1.42 ;&st7;   " d=" M   692.92,   269.77  C   692.92    267.27    690.89    265.24    688.38    265.24  " /><path style="stroke-width: 1.42 ;&st7;   " d=" M   688.38,   265.24  C   685.88    265.24    683.85    267.27    683.85    269.77  " /><path style="stroke-width: 1.42 ;&st7;   " d=" M   683.85,   269.77  C   683.85    272.28    685.88    274.31    688.38    274.31  " /><path style="stroke-width: 1.42 ;&st7;   " d=" M   688.38,   274.31  C   690.89    274.31    692.92    272.28    692.92    269.77  " /><text style="&st18;" transform="matrix(&st16;  686.08  271.74 )">A</text><text style="&st18;" transform="matrix(&st16;  229.27  271.74 )">4</text><text style="&st18;" transform="matrix(&st16;  235.77  271.74 )">B</text><path style="stroke-width: 1.42 ;&st7;   " d=" M   242.49,   269.77  C   242.49    267.27    240.46    265.24    237.96    265.24  " /><path style="stroke-width: 1.42 ;&st7;   " d=" M   237.96,   265.24  C   235.46    265.24    233.43    267.27    233.43    269.77  " /><path style="stroke-width: 1.42 ;&st7;   " d=" M   233.43,   269.77  C   233.43    272.28    235.46    274.31    237.96    274.31  " /><path style="stroke-width: 1.42 ;&st7;   " d=" M   237.96,   274.31  C   240.46    274.31    242.49    272.28    242.49    269.77  " /><text style="&st18;" transform="matrix(&st16;  305.75  271.74 )">3</text><text style="&st18;" transform="matrix(&st16;  312.26  271.74 )">B</text><path style="stroke-width: 1.42 ;&st7;   " d=" M   318.98,   269.77  C   318.98    267.27    316.95    265.24    314.45    265.24  " /><path style="stroke-width: 1.42 ;&st7;   " d=" M   314.45,   265.24  C   311.94    265.24    309.91    267.27    309.91    269.77  " /><path style="stroke-width: 1.42 ;&st7;   " d=" M   309.91,   269.77  C   309.91    272.28    311.94    274.31    314.45    274.31  " /><path style="stroke-width: 1.42 ;&st7;   " d=" M   314.45,   274.31  C   316.95    274.31    318.98    272.28    318.98    269.77  " /><text style="&st18;" transform="matrix(&st16;  382.24  271.74 )">1</text><path style="stroke-width: 1.42 ;&st7;   " d=" M   395.47,   269.77  C   395.47    267.27    393.44    265.24    390.93    265.24  " /><path style="stroke-width: 1.42 ;&st7;   " d=" M   390.93,   265.24  C   388.43    265.24    386.40    267.27    386.40    269.77  " /><path style="stroke-width: 1.42 ;&st7;   " d=" M   386.40,   269.77  C   386.40    272.28    388.43    274.31    390.93    274.31  " /><path style="stroke-width: 1.42 ;&st7;   " d=" M   390.93,   274.31  C   393.44    274.31    395.47    272.28    395.47    269.77  " /><text style="&st18;" transform="matrix(&st16;  388.75  271.74 )">B</text><g ewd:figtype="title"><text style="&st18;" transform="matrix(&st16;  192.06  49.08 )" ewd:textID="9">Windshield Wiper Switch Assembly</text><text style="&st18;" transform="matrix(&st16;  192.05  41.97 )">G60(A),G61(B)</text></g></g><g ewd:figtype="jb" ewd:figID="5" ewd:code="2"><path style="stroke-width: 1.42 ;&st7;  " d=" M   138.10,   120.77  L   133.85,   120.77  " /><path style="stroke-width: 1.42 ;&st7;  " d=" M   138.10,   112.27  L   133.85,   112.27  " /><path style="stroke-width: 0.85 ;&st7;  " d=" M    93.48,    69.77  L    93.48,   112.27  " /><path style="stroke-width: 1.42 ;&st7;  " d=" M    95.61,   112.27  L    91.36,   112.27  " /><path style="stroke-width: 1.42 ;&st7;  " d=" M    95.61,   120.77  L    91.36,   120.77  " /><path style="stroke-width: 1.42 ;&st7;  " d=" M    53.12,   112.27  L    48.87,   112.27  " /><path style="stroke-width: 1.42 ;&st7;  " d=" M    53.12,   120.77  L    48.87,   120.77  " /><path style="stroke-width: 1.42 ;&st7;   " d=" M   138.10,   120.77  C   140.45    120.77    142.35    118.86    142.35    116.52  " /><path style="stroke-width: 1.42 ;&st7;   " d=" M   129.60,   116.52  C   129.60    118.86    131.51    120.77    133.85    120.77  " /><path style="stroke-width: 1.42 ;&st7;   " d=" M   133.85,   112.27  C   131.51    112.27    129.60    114.17    129.60    116.52  " /><path style="stroke-width: 1.42 ;&st7;   " d=" M    93.48,    47.11  C    90.75     48.72     89.83     52.25     91.45     54.99  " /><path style="stroke-width: 1.42 ;&st7;   " d=" M    91.45,    54.99  C    91.97     55.87     92.60     56.51     93.48     57.03  " /><path style="stroke-width: 1.42 ;&st7;   " d=" M    93.48,    66.94  C    96.22     65.33     97.13     61.80     95.52     59.06  " /><path style="stroke-width: 1.42 ;&st7;   " d=" M    95.52,    59.06  C    95.00     58.18     94.37     57.55     93.48     57.03  " /><path style="stroke-width: 0.85 ;&st7;   " d=" M    94.90,    45.69  C    94.90     44.91     94.27     44.28     93.48     44.28  " /><path style="stroke-width: 0.85 ;&st7;   " d=" M    93.48,    44.28  C    92.70     44.28     92.07     44.91     92.07     45.69  " /><path style="stroke-width: 0.85 ;&st7;   " d=" M    92.07,    45.69  C    92.07     46.48     92.70     47.11     93.48     47.11  " /><path style="stroke-width: 0.85 ;&st7;   " d=" M    93.48,    47.11  C    94.27     47.11     94.90     46.48     94.90     45.69  " /><path style="stroke-width: 0.85 ;&st7;   " d=" M    94.90,    68.36  C    94.90     67.57     94.27     66.94     93.48     66.94  " /><path style="stroke-width: 0.85 ;&st7;   " d=" M    93.48,    66.94  C    92.70     66.94     92.07     67.57     92.07     68.36  " /><path style="stroke-width: 0.85 ;&st7;   " d=" M    92.07,    68.36  C    92.07     69.14     92.70     69.77     93.48     69.77  " /><path style="stroke-width: 0.85 ;&st7;   " d=" M    93.48,    69.77  C    94.27     69.77     94.90     69.14     94.90     68.36  " /><path style="stroke-width: 1.42 ;&st7;   " d=" M    91.36,   112.27  C    89.01    112.27     87.11    114.17     87.11    116.52  " /><path style="stroke-width: 1.42 ;&st7;   " d=" M    87.11,   116.52  C    87.11    118.86     89.01    120.77     91.36    120.77  " /><path style="stroke-width: 1.42 ;&st7;   " d=" M    95.61,   120.77  C    97.96    120.77     99.86    118.86     99.86    116.52  " /><path style="stroke-width: 1.42 ;&st7;   " d=" M    99.86,   116.52  C    99.86    114.17     97.96    112.27     95.61    112.27  " /><path style="stroke-width: 1.42 ;&st7;   " d=" M   142.35,   116.52  C   142.35    114.17    140.45    112.27    138.10    112.27  " /><path style="stroke-width: 1.42 ;&st7;   " d=" M    48.87,   112.27  C    46.52    112.27     44.62    114.17     44.62    116.52  " /><path style="stroke-width: 1.42 ;&st7;   " d=" M    44.62,   116.52  C    44.62    118.86     46.52    120.77     48.87    120.77  " /><path style="stroke-width: 1.42 ;&st7;   " d=" M    53.12,   120.77  C    55.46    120.77     57.37    118.86     57.37    116.52  " /><path style="stroke-width: 1.42 ;&st7;   " d=" M    57.37,   116.52  C    57.37    114.17     55.46    112.27     53.12    112.27  " /><path style="stroke-width: 0.28 ;&st9;  " d=" M    93.48,   107.37  L    90.65,   104.54  L    90.65,   108.79  L    93.48,   111.62  L    96.32,   108.79  L    96.32,   104.54  L    93.48,   107.37  " /><path style="stroke-width: 1.42 ;&st7;  " d=" M    80.74,    35.78  L    80.74,    78.27  L   106.23,    78.27  L   106.23,    35.78  L    80.74,    35.78  " /><path style="stroke-width: 0.28 ;&st9;  " d=" M   135.98,   107.37  L   133.14,   104.54  L   133.14,   108.79  L   135.98,   111.62  L   138.81,   108.79  L   138.81,   104.54  L   135.98,   107.37  " /><path style="stroke-width: 0.28 ;&st9;  " d=" M    50.99,   107.37  L    48.16,   104.54  L    48.16,   108.79  L    50.99,   111.62  L    53.82,   108.79  L    53.82,   104.54  L    50.99,   107.37  " /><path style="stroke-width: 0.85 ;&st7;  " d=" M    50.99,   112.27  L    50.99,    95.27  L   135.98,    95.27  L   135.98,   112.27  " /><path style="stroke-width: 0.85 ;&st7;  " d=" M    92.29,    94.27  L    92.02,    94.74  L    91.93,    95.27  L    92.02,    95.80  L    92.29,    96.27  L    92.71,    96.62  L    93.21,    96.81  L    93.76,    96.81  L    94.26,    96.62  L    94.68,    96.27  L    94.95,    95.80  L    95.04,    95.27  L    94.95,    94.74  L    94.68,    94.27  L    94.26,    93.92  L    93.76,    93.73  L    93.21,    93.73  L    92.71,    93.92  L    92.29,    94.27  L    92.69,    94.98  L    92.69,    95.56  L    93.06,    96.01  L    93.63,    96.11  L    94.14,    95.82  L    94.33,    95.27  L    94.14,    94.72  L    93.63,    94.43  L    93.06,    94.53  L    93.48,    95.27  " /><text style="&st18;" transform="matrix(&st16;  109.91  56.17 )">20A <tspan x="0 " dy="6.0">WIP</tspan></text><text style="&st18;" transform="matrix(&st16;  89.2  118.49 )">2M</text><text style="&st18;" transform="matrix(&st16;  82.98  118.49 )">9</text><text style="&st18;" transform="matrix(&st16;  88.27  32.08 )">(IG)</text><text style="&st18;" transform="matrix(&st16;  132.63  118.49 )">2S</text><text style="&st18;" transform="matrix(&st16;  122.37  118.49 )">26</text><text style="&st18;" transform="matrix(&st16;  47.37  118.49 )">2L</text><text style="&st18;" transform="matrix(&st16;  40.48  118.49 )">9</text></g><g ewd:figtype="gp" ewd:figID="6" ewd:code="A1"><path style="stroke-width: 0.85 ;&st7;  " d=" M   450.42,   697.25  L   450.42,   701.50  " /><path style="stroke-width: 0.85 ;&st7;  " d=" M   441.93,   701.50  L   458.92,   701.50  " /><path style="stroke-width: 0.85 ;&st7;  " d=" M   446.18,   704.33  L   454.67,   704.33  " /><path style="stroke-width: 0.85 ;&st7;  " d=" M   447.59,   707.17  L   453.26,   707.17  " /><path style="stroke-width: 0.85 ;&st7;  " d=" M   449.01,   710.00  L   451.84,   710.00  " /></g></svg>