﻿<?xml version="1.0"?>
<!-- Generator: Adobe Illustrator 10.0, SVG Export Plug-In . SVG Version: 3.0.0 Build 77)  -->
<!DOCTYPE svg PUBLIC "-//W3C//DTD SVG 1.0//EN" "http://www.w3.org/TR/2001/REC-SVG-20010904/DTD/svg10.dtd"[
	<!ENTITY ns_flows "http://ns.adobe.com/Flows/1.0/">
	<!ENTITY ns_svg "http://www.w3.org/2000/svg">
	<!ENTITY ns_xlink "http://www.w3.org/1999/xlink">
	<!ENTITY st0 "fill:none;stroke:#FFFFFF;">
	<!ENTITY st1 "fill:none;stroke:#000000;stroke-width:0.5;stroke-linecap:round;">
	<!ENTITY st2 "fill:#C6CAE1;stroke:#000000;stroke-width:0.4;stroke-linecap:round;stroke-linejoin:round;">
	<!ENTITY st3 "fill:none;stroke:#FF0000;stroke-width:0.5;">
	<!ENTITY st4 "fill:none;stroke:#000000;stroke-width:0.5;">
	<!ENTITY st5 "fill:none;stroke:#FF0000;stroke-linecap:round;stroke-linejoin:round;">
	<!ENTITY st6 "fill:none;stroke:#FFFFFF;stroke-width:0.25;stroke-linecap:round;stroke-linejoin:round;">
	<!ENTITY st7 "font-size:6px;">
	<!ENTITY st8 "fill:#F65095;stroke:#000000;stroke-width:0.4;stroke-linecap:round;stroke-linejoin:round;">
	<!ENTITY st9 "fill:none;stroke:#000000;stroke-width:0.2;stroke-linecap:round;stroke-linejoin:round;">
	<!ENTITY st10 "fill:#C6CAE1;">
	<!ENTITY st11 "fill:#FFFFFF;">
	<!ENTITY st12 "fill:none;stroke:#FF0000;stroke-width:0.5;stroke-linecap:round;">
	<!ENTITY st13 "fill:#FFFFFF;stroke:#000000;">
	<!ENTITY st14 "font-family:'Arial';">
	<!ENTITY st15 "font-size:13px;">
	<!ENTITY st16 "fill:none;stroke:#000000;stroke-width:0.2;stroke-linecap:round;">
	<!ENTITY st17 "fill:#F65095;stroke:#000000;stroke-width:0.4;">
	<!ENTITY st18 "fill:none;stroke:#FFFFFF;stroke-linecap:round;">
	<!ENTITY st19 "fill:#9E49A1;stroke:#000000;stroke-width:0.4;stroke-linecap:round;stroke-linejoin:round;">
	<!ENTITY st20 "fill:#FFFFFF;stroke:#000000;stroke-width:1.5;">
	<!ENTITY st21 "fill:none;stroke:#FFFFFF;stroke-width:0.6;stroke-linecap:round;stroke-linejoin:round;">
	<!ATTLIST svg
		xmlns:ewd CDATA #FIXED "http://shcl.co.jp/ewd"
		xmlns:a CDATA #FIXED "http://ns.adobe.com/AdobeSVGViewerExtensions/3.0/"
		ewd:ver CDATA #IMPLIED>
	<!ATTLIST a
		ewd:innerGroupID CDATA #IMPLIED
		ewd:figtype CDATA #IMPLIED
		ewd:code CDATA #IMPLIED
		ewd:pinNo CDATA #IMPLIED>
]>
<svg width="518.741" height="349.642" viewBox="0 0 518.741 349.642" style="overflow:visible;enable-background:new 0 0 518.741 349.642" xml:space="preserve" onload="call_execInitLoadProc_svg('location')" ewd:ver="2.1.2.7" xmlns="&ns_svg;" xmlns:ewd="http://shcl.co.jp/ewd" xmlns:a="http://ns.adobe.com/AdobeSVGViewerExtensions/3.0/" xmlns:xlink="&ns_xlink;">
<script type="text/javascript" xlink:href="../../../../../system/js/ewd/fig/svgfig.js"/>
<g id="waku">
	<path style="&st11;" d="M518.741,349.151V0.491H0v348.661H518.741z"/>
</g>
<g id="レイヤー_4">
	<path style="&st8;" d="M213.023,264.671l-4.555-2.133c-8.7-4.121-10.768-5.101-10.673-14.934    c0.005-0.36,0.534-36.462,0.534-38.741c0-1.379-0.134-2.904-1.123-3.771c-0.665-0.584-1.596-0.787-2.848-0.622    c-0.036,0.005-0.071,0.012-0.106,0.021l-1.467,0.399c-0.426,0.117-0.678,0.557-0.562,0.982c0.116,0.427,0.556,0.678,0.982,0.562    c0,0,1.274-0.348,1.398-0.381c0.736-0.092,1.258-0.013,1.547,0.24c0.394,0.346,0.578,1.162,0.578,2.569    c0,2.268-0.528,38.357-0.534,38.722c-0.105,10.86,2.606,12.146,11.591,16.401l5.231,2.449L213.023,264.671z"/>
	<path style="&st8;" d="M218.561,267.1l-1.501-0.702l-0.007,1.778l1.501,0.688L218.561,267.1z"/>
	<path style="&st8;" d="M216.047,265.923l-2.064-0.966l0.013,1.772l2.065,0.967L216.047,265.923z"/>
	<g>
		<path style="&st17;" d="M190.796,202.748l-5.479,1.141l-0.065,3.965l3.316,1.996l5.48-1.142l0.063-3.965L190.796,202.748z"/>
		<path style="&st16;" d="M188.631,205.886l5.479-1.143"/>
		<path style="&st16;" d="M188.631,205.886l-0.064,3.964"/>
		<path style="&st16;" d="M188.631,205.886l-3.315-1.997"/>
	</g>
	<g>
		<path style="&st2;" d="M185.34,203.838l-5.48,1.141l-0.064,3.965l3.315,1.997l5.48-1.142l0.064-3.965L185.34,203.838z"/>
		<path style="&st16;" d="M183.175,206.977l5.48-1.143"/>
		<path style="&st16;" d="M183.175,206.977l-0.064,3.964"/>
		<path style="&st16;" d="M183.175,206.977l-3.315-1.998"/>
	</g>
	<path style="&st2;" d="M180.916,207.245c-2.896,0.621-3.765,1.728-3.984,2.547c-0.215,0.805,0.092,1.632,0.862,2.325    c2.027,1.824,6.371,2.104,9.776,1.571c0.936-0.146,5.718-0.909,7.952-1.553l2.39-0.755c2.28-0.76,3.928-1.309,8.172-1.233    c0.387,0.007,0.706-0.301,0.712-0.688s-0.301-0.705-0.688-0.712c-4.484-0.079-6.228,0.501-8.64,1.305l-2.334,0.737    c-2.154,0.62-6.86,1.371-7.781,1.515c-3.073,0.48-7.022,0.213-8.624-1.229c-0.208-0.188-0.544-0.558-0.446-0.924    c0.125-0.467,0.959-1.117,2.925-1.538c0.378-0.081,0.619-0.453,0.538-0.831C181.666,207.405,181.293,207.164,180.916,207.245z"/>
	<g>
		<path style="&st19;" d="M267.767,202.287l-4.213,0.873l-0.045,5.67l3.325,1.98l4.214-0.872l0.043-5.671L267.767,202.287z"/>
		<path style="&st16;" d="M266.878,205.141l4.213-0.873"/>
		<path style="&st16;" d="M266.878,205.141l-0.044,5.67"/>
		<path style="&st16;" d="M266.878,205.141l-3.324-1.98"/>
	</g>
	<path style="&st19;" d="M268.344,196.854c-1.172,0.582-1.81,1.787-1.748,3.308l-0.001,3.034c0,0.442,0.358,0.8,0.801,0.8    c0.441,0,0.799-0.357,0.799-0.8v-3.066c-0.036-0.932,0.254-1.54,0.861-1.843c0.891-0.442,2.68-0.236,4.498,1.26    c0.477,0.394,0.855,0.918,1.256,1.473c1.34,1.853,3.006,4.158,9.482,3.371l0.151-0.019c4.542-0.552,9.238-1.123,11.542,1.064    c1.23,1.169,1.736,3.079,1.545,5.838c-0.471,6.774-0.928,13.851-1.002,15.969l-0.047,1.376c-0.115,3.015-0.215,5.619,1.48,7.281    c1.205,1.184,3.095,1.658,5.945,1.495c0,0,3.138-0.262,3.193-0.267c3.229-0.066,4.872,1.058,4.967,1.84    c0.049,0.407-0.466,0.792-1.313,0.98l-8.51,1.637c-0.434,0.083-0.717,0.502-0.634,0.937c0.083,0.434,0.503,0.718,0.937,0.634    l8.531-1.641c2.096-0.466,2.695-1.766,2.576-2.739c-0.197-1.63-2.35-3.341-6.611-3.246c-0.016,0-0.033,0.001-0.049,0.002    l-3.199,0.267c-2.316,0.133-3.865-0.207-4.713-1.04c-1.19-1.168-1.104-3.443-1.002-6.079l0.047-1.396    c0.07-2.229,0.526-9.104,0.998-15.898c0.227-3.265-0.439-5.59-2.039-7.108c-2.85-2.706-7.928-2.089-12.837-1.492l-0.151,0.019    c-5.539,0.673-6.73-0.976-7.992-2.721c-0.442-0.612-0.9-1.246-1.536-1.77C272.476,196.588,270.033,196.016,268.344,196.854z"/>
	<g>
		<path style="&st2;" d="M256.412,209.116l-5.475,1.168l-0.045,3.965l3.326,1.98l5.475-1.169l0.044-3.965L256.412,209.116z"/>
		<path style="&st16;" d="M254.263,212.266l5.474-1.17"/>
		<path style="&st16;" d="M254.263,212.266l-0.045,3.964"/>
		<path style="&st16;" d="M254.263,212.266l-3.326-1.981"/>
	</g>
	<path style="&st2;" d="M252.029,212.449l-12.699,3.101c-0.375,0.092-0.605,0.47-0.514,0.846s0.471,0.606,0.846,0.515l12.699-3.101    c0.377-0.092,0.606-0.47,0.515-0.846S252.406,212.357,252.029,212.449z"/>
	<g>
		<path style="&st2;" d="M236.306,194.976l-5.475,1.169l-0.044,3.964l3.326,1.98l5.475-1.169l0.043-3.965L236.306,194.976z"/>
		<path style="&st16;" d="M234.158,198.125l5.473-1.17"/>
		<path style="&st16;" d="M234.158,198.125l-0.045,3.964"/>
		<path style="&st16;" d="M234.158,198.125l-3.326-1.98"/>
	</g>
	<path style="&st2;" d="M231.92,198.452c-1.708,0.442-3.557,0.731-5.897,1.096l-4.248,0.692c-1.585,0.277-2.649,0.833-3.252,1.699    c-0.787,1.129-0.548,2.437-0.374,3.392l0.056,0.313c0.067,0.381,0.432,0.642,0.813,0.574c0.381-0.067,0.636-0.424,0.568-0.805    l-0.06-0.334c-0.145-0.792-0.308-1.689,0.146-2.341c0.374-0.536,1.162-0.913,2.344-1.12l4.222-0.688    c2.284-0.356,4.257-0.664,6.033-1.124c0.375-0.098,0.599-0.479,0.502-0.854C232.676,198.58,232.294,198.355,231.92,198.452z"/>
	<g>
		<path style="&st2;" d="M202.837,217.233l-3.895,0.871l-0.044,3.965l4.411,2.178l3.895-0.872l0.043-3.965L202.837,217.233z"/>
		<path style="&st16;" d="M203.354,220.283l3.893-0.873"/>
		<path style="&st16;" d="M203.354,220.283l-0.045,3.964"/>
		<path style="&st16;" d="M203.354,220.283l-4.412-2.179"/>
	</g>
	<g>
		<path style="&st2;" d="M216.098,205.818c0.221-0.042,0.229-1.37,0.43-1.406c0.568-0.104,2.737-0.215,3.251-0.241     c0.364-0.018,0.791-0.04,0.824,0.362c0.062,0.743,0.294,0.896,0.294,0.896c2.223,1.115,7.194,3.225,9.583,4.238     c0.565,0.228,1.125,0.477,1.333,0.582c0.394,0.238,0.6,0.744,0.6,0.897s0.051,1.054,0.051,1.309c0,0.256,0.413,0.63,1.122,0.866     s1.3,0.531,2.304,0.887c0.348,0.122,0.71,0.054,1.09,0.023l2.207-0.342c2.34-0.313,2.512,2.424,0.627,2.957l-5.447,1.127     l-2.644-0.35l-5.877,1.256l-1.95,1.263l-7.088,1.691c-0.733,0.168-1.567-0.185-1.826-0.974c-0.2-0.609-0.041-1.452,0.452-1.726     c1.109-0.617,1.589-0.488,1.987-0.866c0.398-0.378,0.22-1.727,0.22-1.727l-8.125-4.456l-3.517-0.688     c-0.328-0.272-0.383-0.567-0.438-0.841c-0.054-0.272,0-1.998,0-2.436c0.055-0.381,0.218-0.708,0.709-0.817     c0,0,0.969-0.493,1.959-0.741c0.275-0.069,2.569,0.423,2.886,0.36L216.098,205.818z"/>
		<path style="&st9;" d="M219.364,213.592l-9.382-4.551l-3.723-0.945"/>
		<path style="&st9;" d="M231.814,211.002l-11.812,2.457"/>
		<path style="&st9;" d="M217.422,218.27c1.04-0.5,1.891-1.553,1.932-1.959c0.04-0.404,0.081-1.598,0.081-2.61"/>
	</g>
	<path style="&st2;" d="M223.764,214.646c-0.197,0.333-0.087,0.762,0.245,0.959c0.938,0.556,1.038,0.821,1.048,0.869    c0.024,0.108-0.224,0.467-0.33,0.619c-0.366,0.528-2.558,1.864-12.608,4.019c-0.378,0.08-0.619,0.453-0.538,0.83    c0.081,0.379,0.453,0.619,0.831,0.538c10.656-2.283,12.826-3.665,13.466-4.59c0.296-0.427,0.7-1.012,0.546-1.716    c-0.135-0.616-0.644-1.146-1.702-1.773C224.39,214.203,223.961,214.313,223.764,214.646z"/>
	<path style="&st2;" d="M239.986,215.113c-5.139,0.877-7.847,0.834-8.448,0.54l-1.909-1.058l-2.022-1.141    c-0.337-0.19-0.752-0.064-0.942,0.272s-0.059,0.771,0.278,0.96l1.987,1.12l1.994,1.104c1.126,0.55,4.431,0.402,9.072-0.379"/>
	<path style="&st2;" d="M234.47,215.642c0.967-0.228,5.354-1.05,5.354-1.05c0.688-0.236,1.273,0.116,1.277,1.063    c0.004,0.78-0.564,0.938-1.224,1.17l-5.511,1.149l-2.056-0.355l-6.316,1.331l-1.883,1.252c0,0-6.274,1.679-7,1.851    c-0.726,0.171-1.124-0.278-1.124-1.048s0.562-1.199,1.393-1.381l6.232-1.685l1.892-1.355l6.641-1.511L234.47,215.642z"/>
	<path style="&st9;" d="M216.098,205.937l1.004-0.177l-0.29-1.258"/>
	<path style="&st2;" d="M210.962,221.396c-1.067,0.333-1.833,0.77-2.464,1.232c-1.104,0.81-1.635,1.596-1.671,2.475    c-0.044,1.034,0.595,2.048,2.134,3.39c0.71,0.619,0.768,2.47,0.715,3.694l1.394,0.129c0.034-0.363,0.288-3.591-1.189-4.879    c-1.137-0.99-1.678-1.734-1.656-2.275c0.018-0.414,0.378-0.874,1.101-1.404c0.461-0.339,1.252-0.795,2.096-1.039l1.258-0.352    l-0.628-1.25L210.962,221.396z"/>
	<path style="&st10;" d="M211.896,221.363l0.833-0.184l0.191,0.983l-0.716,0.134L211.896,221.363z"/>
	<path style="&st10;" d="M209.846,232.797l0.058-1.042l0.617,0.184l0.3,0.166l0.325,0.733l-0.867,0.275L209.846,232.797z"/>
	<g>
		<g>
			<path style="&st19;" d="M300.696,239.448l-5.479,1.141l-0.064,3.965l3.315,1.997l5.479-1.143l0.064-3.965L300.696,239.448z"/>
			<path style="&st16;" d="M298.531,242.586l5.48-1.143"/>
			<path style="&st16;" d="M298.531,242.586l-0.063,3.965"/>
			<path style="&st16;" d="M298.531,242.586l-3.314-1.997"/>
		</g>
		<g>
			<path style="&st2;" d="M295.24,240.539l-5.48,1.141l-0.064,3.965l3.316,1.996l5.479-1.141l0.063-3.966L295.24,240.539z"/>
			<path style="&st16;" d="M293.076,243.677l5.479-1.143"/>
			<path style="&st16;" d="M293.076,243.677l-0.064,3.964"/>
			<path style="&st16;" d="M293.076,243.677l-3.316-1.997"/>
		</g>
	</g>
	<path style="&st2;" d="M209.695,231.264v3.199l-0.077,1.713c-0.164,2.388-0.435,5.022,3.01,7.149    c1.482,0.916,2.134,1.991,2.825,3.131c0.793,1.309,1.614,2.662,3.647,3.608c4.029,1.873,8.221,1.693,12.275,1.52l1.347-0.055    c1.438-0.054,6.469-0.147,10.813,0.882c2.947,0.698,5.33,0.972,8.793,0.306l38.668-7.454c0.38-0.07,0.631-0.437,0.561-0.816    c-0.071-0.38-0.438-0.631-0.816-0.56l-38.672,7.455c-3.236,0.622-5.383,0.377-8.211-0.293c-4.516-1.069-9.705-0.974-11.188-0.919    l-1.354,0.056c-4.065,0.175-7.905,0.339-11.625-1.391c-1.647-0.767-2.293-1.831-3.041-3.064c-0.711-1.174-1.517-2.504-3.287-3.597    c-2.725-1.683-2.509-3.532-2.349-5.861l0.081-1.81v-3.199"/>
	<path style="&st2;" d="M210.769,233.392l1.826,0.937l0.971,0.475c1.555,0.777,2.534,0.537,3.081,0.199    c0.646-0.398,1.016-1.142,1.016-2.037c0,0.016,0,0.032-0.001,0.048c0.007-0.1,0.169-2.478,0.169-4.541    c0-1.376-1.575-2.224-3.399-3.205l-1.193-0.655c-1.386-0.793-6.199-3.111-7.476-3.536c-0.367-0.122-0.762,0.076-0.885,0.442    c-0.122,0.367,0.077,0.763,0.443,0.886c1.109,0.369,5.799,2.608,7.223,3.423l1.225,0.673c1.187,0.639,2.663,1.433,2.663,1.973    c0,2.014-0.164,4.421-0.166,4.445c-0.001,0.016-0.001,0.032-0.001,0.048c0,0.234-0.045,0.657-0.352,0.846    c-0.34,0.211-0.967,0.116-1.719-0.26l-0.789-0.39l-2.602-1.326"/>
	<g>
		<path style="&st2;" d="M241.412,202.616l-5.475,1.168l-0.045,3.965l3.326,1.98l5.475-1.169l0.044-3.965L241.412,202.616z"/>
		<path style="&st16;" d="M239.263,205.766l5.474-1.17"/>
		<path style="&st16;" d="M239.263,205.766l-0.045,3.964"/>
		<path style="&st16;" d="M239.263,205.766l-3.326-1.981"/>
	</g>
	<path style="&st2;" d="M242.773,214.864c0.035-0.154,0.055-0.314,0.055-0.48c0.002-1.172-1.039-2.775-3.979-3.437    c-2.186-0.492-3.201-1.39-3.219-2.015c-0.014-0.499,0.676-1.021,1.758-1.33c0.371-0.106,0.586-0.493,0.48-0.865    c-0.106-0.372-0.494-0.587-0.865-0.48c-2.551,0.729-2.789,2.142-2.772,2.716c0.042,1.493,1.653,2.742,4.312,3.34    c1.984,0.446,2.887,1.386,2.885,2.068c0,0.23-0.119,0.436-0.335,0.594"/>
	<path style="&st10;" d="M241.562,214.713l1.025,0.05c-0.033,0.192,0.017,0.301,0.184,0.334c-0.176,0.466-1.476,0.783-1.476,0.783    c0.009-0.275,0.017-0.476-0.017-0.775C241.42,214.972,241.521,214.829,241.562,214.713z"/>
	<path style="&st21;" d="M259.419,211.393c0.541-2.459,1.119-5,1.731-7.594"/>
	<path style="&st21;" d="M202.249,210.349c3.337,2.374,6.758,4.83,10.015,7.181"/>
	<path style="&st21;" d="M209.643,251.262l-52.875-24.113c-1.617-0.692-4.388-2.54-5.773-7.852    c-1.386-5.311-3.926-18.716-3.926-18.716c-0.924-3.927,0.924-7.159,3.233-9.468c2.309-2.31,13.624-8.776,23.324-6.929    c7.612,1.45,20.999,8.85,41.216,26.62"/>
	<path style="&st21;" d="M209.643,251.262l31.185,14.223c3.004,1.847,5.773,1.615,10.162,0.691    c4.388-0.923,59.58-11.776,59.58-11.776c1.834-0.153,4.344-1.451,5.512-3.603c0.914-1.681,7.203-14.262,7.203-14.262    s1.888-3.459,2.202-6.29"/>
	<path style="&st21;" d="M338.542,141.467c-1.257,2.579-2.537,5.079-3.556,7.944c-1.468,4.127-3.944,10.422-6.11,18.85    c-1.227,4.769-2.567,43.816-2.334,52.413c0.232,8.597-1.935,10.164-2.399,11.326"/>
	<path style="&st21;" d="M175.012,184.646c4.797-2.513,24.594-8.559,48.67-13.366"/>
	<path style="&st21;" d="M274.739,80.752c-1.4,4.76-2.467,11.222-2.597,15.253c-0.164,5.075,0.087,11.418,5.699,13.212    c3.414,1.09,7.957,2.219,12.874,2.023c7.221-0.288,22.313-2.668,30.823-4.803c6.28-1.576,5.94-6.037,5.303-9.667    c-0.637-3.63-2.904-14.092-6.02-19.913c-2.217-4.146-5.514-8.527-10.805-7.897c-4.494,0.535-22.258,3.04-25.445,3.584    C281.385,73.089,276.501,74.756,274.739,80.752z"/>
	<path style="&st21;" d="M282.316,76.234c2.975,0.086,6.702-0.675,9.299,18.797c0.642,4.814,0.324,11.201-2.933,13.938"/>
	<path style="&st21;" d="M216.302,190.112c0.766-3.761,1.799-7.27,3.142-10.154"/>
	<path style="&st21;" d="M215.127,197.737c0.285-2.58,0.672-5.157,1.175-7.625"/>
	<path style="&st21;" d="M216.901,224.951c-1.294-1.328-1.502-3.36-1.994-7.665c-0.567-4.967-0.584-12.271,0.219-19.549"/>
	<path style="&st21;" d="M261.725,201.651c-0.189,0.785-0.376,1.565-0.56,2.342"/>
	<path style="&st21;" d="M304.156,239.182c8.113-1.43,14.392-2.527,15.729-2.739c4.814-0.763,4.213-5.395,4.213-5.395    c-0.902-18.96-0.726-35.421,1.64-55.687c1.175-10.077,5.969-24.055,6.408-31.567c0.343-5.87-3.763-4.198-8.7-3.637    c-4.939,0.562-33.204,5.136-37.437,6.188c-4.233,1.052-7.528,5.585-8.94,8.366c-5.818,11.469-11.284,30.112-15.343,46.939"/>
	<path style="&st21;" d="M270.226,245.182c2.25-0.398,4.688-0.83,7.234-1.281l8.407-1.488c0.753-0.133,1.507-0.267,2.263-0.4"/>
	<path style="&st21;" d="M254.517,247.751c0.791,0.013,1.619-0.085,2.473-0.231c0.868-0.148,6.111-1.076,13.236-2.338"/>
	<path style="&st21;" d="M216.901,224.951c0.896,0.92,2.312,1.502,4.703,2.266c5.279,1.686,11.697,4.035,15,5.556    c8.774,4.04,9.648,5.629,12.861,11.744c1.293,2.464,3.051,3.203,5.051,3.234"/>
	<path style="&st21;" d="M254.869,236.84c0.362-4.057,2.056-13.836,4.646-25.604"/>
	<path style="&st21;" d="M293.134,116.683c9.268-1.055,23.156-3.539,34.884-6.223c2.302-0.412,6.764,0.226,8.995,4.688"/>
	<path style="&st21;" d="M266.523,195.402c13.727-3.443,46.036-8.635,57.248-9.629"/>
	<path style="&st21;" d="M267.251,190.153c13.725-3.444,45.308-8.475,56.52-9.468"/>
	<path style="&st21;" d="M212.749,217.602c0.791,0.57,1.572,1.135,2.339,1.69"/>
	<path style="&st21;" d="M146.834,199.816c4.228,0,7.46-3.232,14.176-6.217c6.715-2.984,13.927-1.243,22.881,3.979    c3.34,1.949,10.956,7.234,19.084,13.017"/>
	<path style="&st21;" d="M187.87,241.29c2.273-3.248,3.489-4.418,10.702-5.164c3.905-0.403,10.749,0.269,17.54-1.594l2.171-0.633    c2.162-0.67,4.284-1.454,6.269-2.373"/>
	<path style="&st21;" d="M219.469,179.706c6.042-15.38,22.411-29.579,28.157-40.352c14.398-26.998,15.898-25.798,30.298-30.297"/>
	<path style="&st21;" d="M325.02,104.557c4.5,0.9,9.214,2.836,11.399,8.399c3.299,8.399,6.599,15.899,1.499,29.998"/>
	<path style="&st21;" d="M244.027,145.354c6.899,0.6,22.159,2.336,31.197-0.3c14.398-4.2,25.182-5.187,34.797-6.899    c21.898-3.9,29.697-4.5,30.598-7.2"/>
	<path style="&st21;" d="M268.325,143.854c7.2-14.999,15.299-25.798,24.897-27.298"/>
	<path style="&st9;" d="M259.419,211.393c0.541-2.459,1.119-5,1.731-7.594"/>
	<path style="&st9;" d="M202.249,210.349c3.337,2.374,6.758,4.83,10.015,7.181"/>
	<path style="&st9;" d="M209.643,251.262l-52.875-24.113c-1.617-0.692-4.388-2.54-5.773-7.852    c-1.386-5.311-3.926-18.716-3.926-18.716c-0.924-3.927,0.924-7.159,3.233-9.468c2.309-2.31,13.624-8.776,23.324-6.929    c7.612,1.45,20.999,8.85,41.216,26.62"/>
	<path style="&st9;" d="M209.643,251.262l31.185,14.223c3.004,1.847,5.773,1.615,10.162,0.691    c4.388-0.923,59.58-11.776,59.58-11.776c1.834-0.153,4.344-1.451,5.512-3.603c0.914-1.681,7.203-14.262,7.203-14.262    s1.888-3.459,2.202-6.29"/>
	<path style="&st9;" d="M338.542,141.467c-1.257,2.579-2.537,5.079-3.556,7.944c-1.468,4.127-3.944,10.422-6.11,18.85    c-1.227,4.769-2.567,43.816-2.334,52.413c0.232,8.597-1.935,10.164-2.399,11.326"/>
	<path style="&st9;" d="M175.012,184.646c4.797-2.513,24.594-8.559,48.67-13.366"/>
	<path style="&st9;" d="M274.739,80.752c-1.4,4.76-2.467,11.222-2.597,15.253c-0.164,5.075,0.087,11.418,5.699,13.212    c3.414,1.09,7.957,2.219,12.874,2.023c7.221-0.288,22.313-2.668,30.823-4.803c6.28-1.576,5.94-6.037,5.303-9.667    c-0.637-3.63-2.904-14.092-6.02-19.913c-2.217-4.146-5.514-8.527-10.805-7.897c-4.494,0.535-22.258,3.04-25.445,3.584    C281.385,73.089,276.501,74.756,274.739,80.752z"/>
	<path style="&st9;" d="M282.316,76.234c2.975,0.086,6.702-0.675,9.299,18.797c0.642,4.814,0.324,11.201-2.933,13.938"/>
	<path style="&st9;" d="M216.302,190.112c0.766-3.761,1.799-7.27,3.142-10.154"/>
	<path style="&st9;" d="M215.127,197.737c0.285-2.58,0.672-5.157,1.175-7.625"/>
	<path style="&st9;" d="M216.901,224.951c-1.294-1.328-1.502-3.36-1.994-7.665c-0.567-4.967-0.584-12.271,0.219-19.549"/>
	<path style="&st9;" d="M261.725,201.651c-0.189,0.785-0.376,1.565-0.56,2.342"/>
	<path style="&st9;" d="M304.156,239.182c8.113-1.43,14.392-2.527,15.729-2.739c4.814-0.763,4.213-5.395,4.213-5.395    c-0.902-18.96-0.726-35.421,1.64-55.687c1.175-10.077,5.969-24.055,6.408-31.567c0.343-5.87-3.763-4.198-8.7-3.637    c-4.939,0.562-33.204,5.136-37.437,6.188c-4.233,1.052-7.528,5.585-8.94,8.366c-5.818,11.469-11.284,30.112-15.343,46.939"/>
	<path style="&st9;" d="M270.226,245.182c2.25-0.398,4.688-0.83,7.234-1.281l8.407-1.488c0.753-0.133,1.507-0.267,2.263-0.4"/>
	<path style="&st9;" d="M254.517,247.751c0.791,0.013,1.619-0.085,2.473-0.231c0.868-0.148,6.111-1.076,13.236-2.338"/>
	<path style="&st9;" d="M216.901,224.951c0.896,0.92,2.312,1.502,4.703,2.266c5.279,1.686,11.697,4.035,15,5.556    c8.774,4.04,9.648,5.629,12.861,11.744c1.293,2.464,3.051,3.203,5.051,3.234"/>
	<path style="&st9;" d="M254.869,236.84c0.362-4.057,2.056-13.836,4.646-25.604"/>
	<path style="&st9;" d="M293.134,116.683c9.268-1.055,23.156-3.539,34.884-6.223c2.302-0.412,6.764,0.226,8.995,4.688"/>
	<path style="&st9;" d="M266.523,195.402c13.727-3.443,46.036-8.635,57.248-9.629"/>
	<path style="&st9;" d="M267.251,190.153c13.725-3.444,45.308-8.475,56.52-9.468"/>
	<path style="&st9;" d="M212.749,217.602c0.791,0.57,1.572,1.135,2.339,1.69"/>
	<path style="&st9;" d="M146.834,199.816c4.228,0,7.46-3.232,14.176-6.217c6.715-2.984,13.927-1.243,22.881,3.979    c3.34,1.949,10.956,7.234,19.084,13.017"/>
	<path style="&st9;" d="M187.87,241.29c2.273-3.248,3.489-4.418,10.702-5.164c3.905-0.403,10.749,0.269,17.54-1.594l2.171-0.633    c2.162-0.67,4.284-1.454,6.269-2.373"/>
	<path style="&st9;" d="M219.469,179.706c6.042-15.38,22.411-29.579,28.157-40.352c14.398-26.998,15.898-25.798,30.298-30.297"/>
	<path style="&st9;" d="M325.02,104.557c4.5,0.9,9.214,2.836,11.399,8.399c3.299,8.399,6.599,15.899,1.499,29.998"/>
	<path style="&st9;" d="M244.027,145.354c6.899,0.6,22.159,2.336,31.197-0.3c14.398-4.2,25.182-5.187,34.797-6.899    c21.898-3.9,29.697-4.5,30.598-7.2"/>
	<path style="&st9;" d="M268.325,143.854c7.2-14.999,15.299-25.798,24.897-27.298"/>
</g>
<g id="Code">
	<a ewd:code="P1" ewd:figtype="conn" style="cursor:pointer;">
		<path style="&st13;" d="M240.946,17.499c4.696,0,8.504-3.808,8.504-8.504c0-4.697-3.808-8.504-8.504-8.504     c-4.697,0-8.505,3.808-8.505,8.504C232.44,13.691,236.249,17.499,240.946,17.499z"/>
		<path style="&st11;stroke:#FFFFFF;stroke-linecap:round;" d="M240.946,31.672l-5.703,165.367"/>
		<path style="&st11;stroke:#FFFFFF;" d="M240.946,17.499v14.173"/>
		<path style="&st11;stroke:#FFFFFF;stroke-width:0.25;stroke-linecap:round;stroke-linejoin:round;" d="M235.243,196.188c0.469,0,0.85,0.381,0.85,0.852c0,0.469-0.381,0.85-0.85,0.85     c-0.471,0-0.852-0.381-0.852-0.85C234.391,196.568,234.772,196.188,235.243,196.188z"/>
		<path style="&st11;stroke:#FF0000;stroke-linecap:round;stroke-linejoin:round;" d="M235.243,196.826c0.117,0,0.213,0.094,0.213,0.213c0,0.117-0.096,0.211-0.213,0.211     s-0.213-0.094-0.213-0.211C235.03,196.92,235.125,196.826,235.243,196.826z"/>
		<path style="&st11;stroke:#FF0000;stroke-width:0.5;stroke-linecap:round;" d="M240.946,31.672l-5.703,165.367"/>
		<path style="&st11;stroke:#FF0000;stroke-width:0.5;" d="M240.946,17.499v14.173"/>
		<text transform="matrix(1 0 0 1 237.2764 11.1475)"><tspan x="0" y="0" style="&st14; &st7;">P1</tspan></text>
		<title>Front Power Seat Slide Position Motor Assembly LH (Power Seat Motor Assembly)</title>
	</a>
	<a ewd:code="P5" ewd:figtype="conn" style="cursor:pointer;">
		<path style="&st13;" d="M161.575,349.151c4.697,0,8.504-3.807,8.504-8.504c0-4.696-3.807-8.503-8.504-8.503     s-8.503,3.807-8.503,8.503C153.072,345.345,156.878,349.151,161.575,349.151z"/>
		<path style="&st11;stroke:#FFFFFF;stroke-linecap:round;" d="M161.575,317.971l23.667-109.932"/>
		<path style="&st11;stroke:#FFFFFF;" d="M161.575,332.145v-14.174"/>
		<path style="&st11;stroke:#FFFFFF;stroke-width:0.25;stroke-linecap:round;stroke-linejoin:round;" d="M185.243,208.891c-0.469,0-0.85-0.381-0.85-0.852c0-0.469,0.381-0.85,0.85-0.85     c0.471,0,0.852,0.381,0.852,0.85C186.094,208.51,185.713,208.891,185.243,208.891z"/>
		<path style="&st11;stroke:#FF0000;stroke-linecap:round;stroke-linejoin:round;" d="M185.243,208.252c-0.117,0-0.213-0.094-0.213-0.213c0-0.117,0.096-0.211,0.213-0.211     s0.213,0.094,0.213,0.211C185.456,208.158,185.36,208.252,185.243,208.252z"/>
		<path style="&st11;stroke:#FF0000;stroke-width:0.5;stroke-linecap:round;" d="M161.575,317.971l23.667-109.932"/>
		<path style="&st11;stroke:#FF0000;stroke-width:0.5;" d="M161.575,332.145v-14.174"/>
		<text transform="matrix(1 0 0 1 157.9058 342.8008)"><tspan x="0" y="0" style="&st14; &st7;">P5</tspan></text>
		<title>Junction Connector</title>
	</a>
	<a ewd:code="P4" ewd:figtype="conn" style="cursor:pointer;">
		<path style="&st13;" d="M263.623,17.499c4.696,0,8.504-3.808,8.504-8.504c0-4.697-3.808-8.504-8.504-8.504     c-4.697,0-8.505,3.808-8.505,8.504C255.118,13.691,258.925,17.499,263.623,17.499z"/>
		<path style="&st11;stroke:#FFFFFF;stroke-linecap:round;" d="M263.623,31.672L241.53,205.766"/>
		<path style="&st11;stroke:#FFFFFF;" d="M263.623,17.499v14.173"/>
		<path style="&st11;stroke:#FFFFFF;stroke-width:0.25;stroke-linecap:round;stroke-linejoin:round;" d="M241.53,204.914c0.469,0,0.85,0.381,0.85,0.852c0,0.469-0.381,0.85-0.85,0.85     c-0.471,0-0.852-0.381-0.852-0.85C240.679,205.295,241.06,204.914,241.53,204.914z"/>
		<path style="&st11;stroke:#FF0000;stroke-linecap:round;stroke-linejoin:round;" d="M241.53,205.553c0.117,0,0.213,0.094,0.213,0.213c0,0.117-0.096,0.211-0.213,0.211     s-0.213-0.094-0.213-0.211C241.317,205.646,241.413,205.553,241.53,205.553z"/>
		<path style="&st11;stroke:#FF0000;stroke-width:0.5;stroke-linecap:round;" d="M263.623,31.672L241.53,205.766"/>
		<path style="&st11;stroke:#FF0000;stroke-width:0.5;" d="M263.623,17.499v14.173"/>
		<text transform="matrix(1 0 0 1 259.9526 11.1475)"><tspan x="0" y="0" style="&st14; &st7;">P4</tspan></text>
		<title>Front Seat Inner Belt Assembly LH</title>
	</a>
	<a ewd:code="K18" ewd:figtype="conn" style="cursor:pointer;">
		<path style="&st13;" d="M184.252,349.151c4.697,0,8.504-3.807,8.504-8.504c0-4.696-3.807-8.503-8.504-8.503     s-8.503,3.807-8.503,8.503C175.75,345.345,179.555,349.151,184.252,349.151z"/>
		<path style="&st11;stroke:#FFFFFF;stroke-linecap:round;" d="M184.252,317.971l6.781-111.496"/>
		<path style="&st11;stroke:#FFFFFF;" d="M184.252,332.145v-14.174"/>
		<path style="&st11;stroke:#FFFFFF;stroke-width:0.25;stroke-linecap:round;stroke-linejoin:round;" d="M191.034,207.326c-0.469,0-0.85-0.381-0.85-0.852c0-0.469,0.381-0.85,0.85-0.85     c0.471,0,0.852,0.381,0.852,0.85C191.885,206.945,191.504,207.326,191.034,207.326z"/>
		<path style="&st11;stroke:#FF0000;stroke-linecap:round;stroke-linejoin:round;" d="M191.034,206.688c-0.117,0-0.213-0.094-0.213-0.213c0-0.117,0.096-0.211,0.213-0.211     s0.213,0.094,0.213,0.211C191.247,206.594,191.151,206.688,191.034,206.688z"/>
		<path style="&st11;stroke:#FF0000;stroke-width:0.5;stroke-linecap:round;" d="M184.252,317.971l6.781-111.496"/>
		<path style="&st11;stroke:#FF0000;stroke-width:0.5;" d="M184.252,332.145v-14.174"/>
		<text transform="matrix(1 0 0 1 178.9146 342.8008)"><tspan x="0" y="0" style="&st14; &st7;">K18</tspan></text>
		<title>Junction Connector</title>
	</a>
	<a ewd:code="P2" ewd:figtype="conn" style="cursor:pointer;">
		<path style="&st13;" d="M286.299,17.499c4.696,0,8.504-3.808,8.504-8.504c0-4.697-3.808-8.504-8.504-8.504     c-4.697,0-8.505,3.808-8.505,8.504C277.794,13.691,281.602,17.499,286.299,17.499z"/>
		<path style="&st11;stroke:#FFFFFF;stroke-linecap:round;" d="M286.299,31.672l-30.045,180.137"/>
		<path style="&st11;stroke:#FFFFFF;" d="M286.299,17.499v14.173"/>
		<path style="&st11;stroke:#FFFFFF;stroke-width:0.25;stroke-linecap:round;stroke-linejoin:round;" d="M256.254,210.957c0.469,0,0.85,0.381,0.85,0.852c0,0.469-0.381,0.85-0.85,0.85     c-0.471,0-0.852-0.381-0.852-0.85C255.403,211.338,255.784,210.957,256.254,210.957z"/>
		<path style="&st11;stroke:#FF0000;stroke-linecap:round;stroke-linejoin:round;" d="M256.254,211.596c0.117,0,0.213,0.094,0.213,0.213c0,0.117-0.096,0.211-0.213,0.211     s-0.213-0.094-0.213-0.211C256.042,211.689,256.137,211.596,256.254,211.596z"/>
		<path style="&st11;stroke:#FF0000;stroke-width:0.5;stroke-linecap:round;" d="M286.299,31.672l-30.045,180.137"/>
		<path style="&st11;stroke:#FF0000;stroke-width:0.5;" d="M286.299,17.499v14.173"/>
		<text transform="matrix(1 0 0 1 282.6304 11.1475)"><tspan x="0" y="0" style="&st14; &st7;">P2</tspan></text>
		<title>Front Power Seat Lift Position Motor Assembly LH (Power Seat Motor Assembly)</title>
	</a>
	<a ewd:code="R1" ewd:figtype="conn" style="cursor:pointer;">
		<path style="&st13;" d="M308.976,17.499c4.696,0,8.504-3.808,8.504-8.504c0-4.697-3.808-8.504-8.504-8.504     c-4.697,0-8.505,3.808-8.505,8.504C300.471,13.691,304.279,17.499,308.976,17.499z"/>
		<path style="&st11;stroke:#FFFFFF;stroke-linecap:round;" d="M308.976,31.672l-40.16,175.28"/>
		<path style="&st11;stroke:#FFFFFF;" d="M308.976,17.499v14.173"/>
		<path style="&st11;stroke:#FFFFFF;stroke-width:0.25;stroke-linecap:round;stroke-linejoin:round;" d="M268.816,206.101c0.469,0,0.85,0.381,0.85,0.852c0,0.469-0.381,0.85-0.85,0.85     c-0.471,0-0.852-0.381-0.852-0.85C267.964,206.481,268.345,206.101,268.816,206.101z"/>
		<path style="&st11;stroke:#FF0000;stroke-linecap:round;stroke-linejoin:round;" d="M268.816,206.739c0.117,0,0.213,0.094,0.213,0.213c0,0.117-0.096,0.211-0.213,0.211     s-0.213-0.094-0.213-0.211C268.603,206.833,268.699,206.739,268.816,206.739z"/>
		<path style="&st11;stroke:#FF0000;stroke-width:0.5;stroke-linecap:round;" d="M308.976,31.672l-40.16,175.28"/>
		<path style="&st11;stroke:#FF0000;stroke-width:0.5;" d="M308.976,17.499v14.173"/>
		<text transform="matrix(1 0 0 1 305.1411 11.1475)"><tspan x="0" y="0" style="&st14; &st7;">R1</tspan></text>
		<title>Front Power Seat Reclining Position Motor Assembly LH (Power Seat Motor Assembly)</title>
	</a>
	<a ewd:code="P3" ewd:figtype="conn" style="cursor:pointer;">
		<path style="&st13;" d="M229.607,349.151c4.697,0,8.504-3.807,8.504-8.504c0-4.696-3.807-8.503-8.504-8.503     s-8.503,3.807-8.503,8.503C221.104,345.345,224.91,349.151,229.607,349.151z"/>
		<path style="&st11;stroke:#FFFFFF;stroke-linecap:round;" d="M229.607,317.971l-28.148-96.425"/>
		<path style="&st11;stroke:#FFFFFF;" d="M229.607,332.145v-14.174"/>
		<path style="&st11;stroke:#FFFFFF;stroke-width:0.25;stroke-linecap:round;stroke-linejoin:round;" d="M201.458,222.397c-0.469,0-0.85-0.381-0.85-0.852c0-0.469,0.381-0.85,0.85-0.85     c0.471,0,0.852,0.381,0.852,0.85C202.31,222.017,201.929,222.397,201.458,222.397z"/>
		<path style="&st11;stroke:#FF0000;stroke-linecap:round;stroke-linejoin:round;" d="M201.458,221.759c-0.117,0-0.213-0.094-0.213-0.213c0-0.117,0.096-0.211,0.213-0.211     s0.213,0.094,0.213,0.211C201.671,221.665,201.576,221.759,201.458,221.759z"/>
		<path style="&st11;stroke:#FF0000;stroke-width:0.5;stroke-linecap:round;" d="M229.607,317.971l-28.148-96.425"/>
		<path style="&st11;stroke:#FF0000;stroke-width:0.5;" d="M229.607,332.145v-14.174"/>
		<text transform="matrix(1 0 0 1 225.9375 342.8008)"><tspan x="0" y="0" style="&st14; &st7;">P3</tspan></text>
		<title>Front Power Seat Switch LH</title>
	</a>
	<g>
		<path style="&st18;" d="M335.793,55.059l-42.796,147.389"/>
		<path style="&st0;" d="M335.793,55.059V40.885"/>
		<path style="&st1;" d="M335.793,55.059l-42.796,147.389"/>
		<path style="&st4;" d="M335.793,55.059V40.885"/>
		<path style="&st20;" d="M349.967,35.825c0,2.783-2.277,5.061-5.061,5.061H326.68c-2.783,0-5.061-2.277-5.061-5.061V27.52     c0-2.783,2.277-5.061,5.061-5.061h18.227c2.783,0,5.061,2.277,5.061,5.061V35.825z"/>
		<text transform="matrix(1 0 0 1 331.0991 36.0713)"><tspan x="0" y="0" style="&st14; &st15;">R</tspan></text>
	</g>
	<g>
		<path style="&st18;" d="M256.335,294.584l-19.659-43.602"/>
		<path style="&st0;" d="M256.335,308.758v-14.174"/>
		<path style="&st1;" d="M256.335,294.584l-19.659-43.602"/>
		<path style="&st4;" d="M256.335,308.758v-14.174"/>
		<path style="&st20;" d="M270.508,322.123c0,2.783-2.276,5.061-5.06,5.061h-18.227c-2.783,0-5.06-2.277-5.06-5.061v-8.305     c0-2.783,2.276-5.061,5.06-5.061h18.227c2.783,0,5.06,2.277,5.06,5.061V322.123z"/>
		<text transform="matrix(1 0 0 1 252 322.3701)"><tspan x="0" y="0" style="&st14; &st15;">P</tspan></text>
	</g>
	<g>
		<path style="&st18;" d="M208.749,294.584l-6.431-33.627"/>
		<path style="&st0;" d="M208.749,308.758v-14.174"/>
		<path style="&st1;" d="M208.749,294.584l-6.431-33.627"/>
		<path style="&st4;" d="M208.749,308.758v-14.174"/>
		<path style="&st20;" d="M222.921,322.123c0,2.783-2.276,5.061-5.06,5.061h-18.227c-2.783,0-5.06-2.277-5.06-5.061v-8.305     c0-2.783,2.276-5.061,5.06-5.061h18.227c2.783,0,5.06,2.277,5.06,5.061V322.123z"/>
		<text transform="matrix(1 0 0 1 204.4131 322.3701)"><tspan x="0" y="0" style="&st14; &st15;">K</tspan></text>
	</g>
</g>
</svg>